digraph G{ 
1[label = "[student(a), professor(b)]"];
1 -> 2[label="True"];
1 -> 3[label="False"];
2[label = "[taughtBy(c, b, d), ta(c, a, d)]"];
2 -> 4[label="True"];
2 -> 5[label="False"];
4[label = "[inPhase(a, Post_Quals), taughtBy(e, b, f)]"];
4 -> 6[label="True"];
4 -> 7[label="False"];
6[label = "[courseLevel(e, Level_300), taughtBy(e, b, g)]"];
6 -> 8[label="True"];
6 -> 9[label="False"];
8[shape = box,label = "0.068(0.517)"];
9[shape = box,label = "0.067(0.517)"];
7[label = "[courseLevel(c, Level_300), taughtBy(c, h, i)]"];
7 -> 10[label="True"];
7 -> 11[label="False"];
10[shape = box,label = "-0.024(0.494)"];
11[label = "[courseLevel(c, Level_500), ta(c, j, k)]"];
11 -> 12[label="True"];
11 -> 13[label="False"];
12[label = "[yearsInProgram(j, Year_6), ta(m, a, n)]"];
12 -> 14[label="True"];
12 -> 15[label="False"];
14[shape = box,label = "-0.065(0.484)"];
15[shape = box,label = "0.164(0.541)"];
13[label = "[inPhase(a, Post_Generals), taughtBy(p, b, d)]"];
13 -> 16[label="True"];
13 -> 17[label="False"];
16[shape = box,label = "0.353(0.587)"];
17[shape = box,label = "0.115(0.529)"];
5[shape = box,label = "-0.003(0.499)"];
3[shape = box,label = "-0.085(0.479)"];
}
