digraph G{ 
1[label = "[hasPosition(b, Faculty), student(a)]"];
1 -> 2[label="True"];
1 -> 3[label="False"];
2[label = "[tempAdvisedBy(c, b), inPhase(c, Post_Generals)]"];
2 -> 4[label="True"];
2 -> 5[label="False"];
4[shape = box,label = "-0.127(0.468)"];
5[label = "[taughtBy(d, b, e), ta(d, a, e)]"];
5 -> 6[label="True"];
5 -> 7[label="False"];
6[label = "[taughtBy(f, a, g), ta(f, h, g)]"];
6 -> 8[label="True"];
6 -> 9[label="False"];
8[shape = box,label = "-0.183(0.454)"];
9[label = "[inPhase(a, Pre_Quals), publication(i, b)]"];
9 -> 10[label="True"];
9 -> 11[label="False"];
10[shape = box,label = "0.051(0.513)"];
11[label = "[yearsInProgram(a, Year_4), taughtBy(j, b, e)]"];
11 -> 12[label="True"];
11 -> 13[label="False"];
12[shape = box,label = "0.257(0.564)"];
13[shape = box,label = "0.089(0.522)"];
7[label = "[publication(k, a), publication(k, b)]"];
7 -> 14[label="True"];
7 -> 15[label="False"];
14[label = "[yearsInProgram(a, Year_7), publication(m, b)]"];
14 -> 16[label="True"];
14 -> 17[label="False"];
16[shape = box,label = "0.022(0.506)"];
17[shape = box,label = "0.013(0.503)"];
15[shape = box,label = "-0.007(0.498)"];
3[shape = box,label = "-0.046(0.488)"];
}
