digraph G{ 
1[label = "[borders(a, b, c)]"];
1 -> 2[label="True"];
1 -> 3[label="False"];
2[label = "[ethnicGroup(a, d, e)]"];
2 -> 4[label="True"];
2 -> 5[label="False"];
4[label = "[language(a, f, g)]"];
4 -> 6[label="True"];
4 -> 7[label="False"];
6[label = "[ethnicGroup(b, h, e)]"];
6 -> 8[label="True"];
6 -> 9[label="False"];
8[shape = box,label = "-0.026(0.494)"];
9[shape = box,label = "-0.001(0.500)"];
7[label = "[language(b, i, j)]"];
7 -> 10[label="True"];
7 -> 11[label="False"];
10[label = "[ethnicGroup(b, d, k)]"];
10 -> 12[label="True"];
10 -> 13[label="False"];
12[shape = box,label = "-0.010(0.497)"];
13[shape = box,label = "0.019(0.505)"];
11[label = "[ethnicGroup(b, m, n)]"];
11 -> 14[label="True"];
11 -> 15[label="False"];
14[label = "[ethnicGroup(b, d, n)]"];
14 -> 16[label="True"];
14 -> 17[label="False"];
16[shape = box,label = "-0.051(0.487)"];
17[shape = box,label = "0.003(0.501)"];
15[shape = box,label = "-0.022(0.494)"];
5[shape = box,label = "0.025(0.506)"];
3[label = "[language(a, p, q)]"];
3 -> 18[label="True"];
3 -> 19[label="False"];
18[label = "[organization(r, s, t, a, u, v)]"];
18 -> 20[label="True"];
18 -> 21[label="False"];
20[shape = box,label = "-0.004(0.499)"];
21[shape = box,label = "0.043(0.511)"];
19[label = "[organization(w, x, y, a, z, aa)]"];
19 -> 22[label="True"];
19 -> 23[label="False"];
22[shape = box,label = "0.010(0.503)"];
23[label = "[ethnicGroup(a, ab, ac)]"];
23 -> 24[label="True"];
23 -> 25[label="False"];
24[shape = box,label = "0.002(0.500)"];
25[shape = box,label = "0.003(0.501)"];
}
