digraph G{ 
1[label = "[borders(a, b, c)]"];
1 -> 2[label="True"];
1 -> 3[label="False"];
2[label = "[borders(b, d, e)]"];
2 -> 4[label="True"];
2 -> 5[label="False"];
4[label = "[borders(d, f, g)]"];
4 -> 6[label="True"];
4 -> 7[label="False"];
6[shape = box,label = "-0.002(0.499)"];
7[label = "[language(a, h, i)]"];
7 -> 8[label="True"];
7 -> 9[label="False"];
8[shape = box,label = "0.044(0.511)"];
9[label = "[ethnicGroup(a, j, k)]"];
9 -> 10[label="True"];
9 -> 11[label="False"];
10[shape = box,label = "-0.027(0.493)"];
11[shape = box,label = "-0.007(0.498)"];
5[label = "[language(a, m, n)]"];
5 -> 12[label="True"];
5 -> 13[label="False"];
12[label = "[language(b, m, p)]"];
12 -> 14[label="True"];
12 -> 15[label="False"];
14[shape = box,label = "0.196(0.549)"];
15[shape = box,label = "0.020(0.505)"];
13[label = "[organization(q, r, s, a, t, u)]"];
13 -> 16[label="True"];
13 -> 17[label="False"];
16[shape = box,label = "0.058(0.514)"];
17[shape = box,label = "-0.001(0.500)"];
3[label = "[language(a, v, w)]"];
3 -> 18[label="True"];
3 -> 19[label="False"];
18[label = "[ethnicGroup(a, x, y)]"];
18 -> 20[label="True"];
18 -> 21[label="False"];
20[shape = box,label = "-0.011(0.497)"];
21[shape = box,label = "0.106(0.527)"];
19[label = "[organization(z, aa, ab, a, ac, ad)]"];
19 -> 22[label="True"];
19 -> 23[label="False"];
22[shape = box,label = "0.011(0.503)"];
23[label = "[ethnicGroup(a, ae, af)]"];
23 -> 24[label="True"];
23 -> 25[label="False"];
24[shape = box,label = "0.004(0.501)"];
25[shape = box,label = "0.008(0.502)"];
}
