digraph G{ 
1[label = "[borders(a, b, c)]"];
1 -> 2[label="True"];
1 -> 3[label="False"];
2[label = "[organization(d, e, f, b, g, h)]"];
2 -> 4[label="True"];
2 -> 5[label="False"];
4[shape = box,label = "0.054(0.513)"];
5[label = "[ethnicGroup(a, i, j)]"];
5 -> 6[label="True"];
5 -> 7[label="False"];
6[label = "[ethnicGroup(b, k, m)]"];
6 -> 8[label="True"];
6 -> 9[label="False"];
8[label = "[ethnicGroup(a, k, n)]"];
8 -> 10[label="True"];
8 -> 11[label="False"];
10[label = "[ethnicGroup(b, i, n)]"];
10 -> 12[label="True"];
10 -> 13[label="False"];
12[shape = box,label = "0.393(0.597)"];
13[shape = box,label = "0.014(0.504)"];
11[shape = box,label = "0.008(0.502)"];
9[shape = box,label = "0.044(0.511)"];
7[shape = box,label = "0.261(0.565)"];
3[label = "[language(a, p, q)]"];
3 -> 14[label="True"];
3 -> 15[label="False"];
14[label = "[organization(r, s, t, a, u, v)]"];
14 -> 16[label="True"];
14 -> 17[label="False"];
16[shape = box,label = "0.191(0.548)"];
17[shape = box,label = "0.242(0.560)"];
15[label = "[organization(w, x, y, a, z, aa)]"];
15 -> 18[label="True"];
15 -> 19[label="False"];
18[shape = box,label = "0.032(0.508)"];
19[label = "[ethnicGroup(a, ab, ac)]"];
19 -> 20[label="True"];
19 -> 21[label="False"];
20[shape = box,label = "0.090(0.523)"];
21[shape = box,label = "0.311(0.577)"];
}
