digraph G{ 
1[label = "[professor(b), student(a)]"];
1 -> 2[label="True"];
1 -> 3[label="False"];
2[label = "[yearsInProgram(a, Year_3), publication(c, b)]"];
2 -> 4[label="True"];
2 -> 5[label="False"];
4[label = "[publication(c, d), inPhase(d, Post_Quals)]"];
4 -> 6[label="True"];
4 -> 7[label="False"];
6[label = "[ta(e, a, f), ta(g, d, h)]"];
6 -> 8[label="True"];
6 -> 9[label="False"];
8[shape = box,label = "0.357(0.588)"];
9[label = "[tempAdvisedBy(i, b), inPhase(i, Post_Quals)]"];
9 -> 10[label="True"];
9 -> 11[label="False"];
10[shape = box,label = "-0.078(0.481)"];
11[label = "[yearsInProgram(d, Year_4)]"];
11 -> 12[label="True"];
11 -> 13[label="False"];
12[shape = box,label = "0.043(0.511)"];
13[shape = box,label = "0.268(0.567)"];
7[label = "[publication(c, j), yearsInProgram(j, k)]"];
7 -> 14[label="True"];
7 -> 15[label="False"];
14[shape = box,label = "-0.068(0.483)"];
15[label = "[publication(c, m), student(m)]"];
15 -> 16[label="True"];
15 -> 17[label="False"];
16[shape = box,label = "0.237(0.559)"];
17[shape = box,label = "0.003(0.501)"];
5[shape = box,label = "-0.017(0.496)"];
3[shape = box,label = "-0.040(0.490)"];
}
