////// Learned from a dataset containing 76,620 positive (76,620.0 weighted sum) and 0 negative (0.0 wgt'ed) examples.
////// The minimal (wgt'ed) coverage = 3.000, the maximal (wgt'ed) NEG coverage = 0.499, and the minimal (wgt'ed) precision = 0.001 (using m = 0.1)

useStdLogicNotation: true.


////////////////////////////////////////////////////////////////////////////////
////
////     Gleaner for: allPossibleMarkers
////
////////////////////////////////////////////////////////////////////////////////

// Best in (weighted) recall bin #0, (-Infinity, 0.05], from 'outerLoop #1, null' and covering 177.0 wgt'ed positive and 0.0 wgt'ed negative examples:
//    Wgt'ed recall = 0.046, precision = 0.999, and F1 = 0.088 - learned after 51 total and 34 acceptable nodes.  Node score = -87.56153099794209

 FOR advisedby(a, b) IF (hasPosition(b, Faculty), yearsInProgram(a, Year_5)) THEN output = 0.005283 ELSE output = -0.096685;

// Best in (weighted) recall bin #1, (0.05, 0.1], from 'outerLoop #1, null' and covering 315.0 wgt'ed positive and 0.0 wgt'ed negative examples:
//    Wgt'ed recall = 0.082, precision = 1.000, and F1 = 0.152 - learned after 52 total and 35 acceptable nodes.  Node score = -85.82390394686597

 FOR advisedby(a, b) IF (hasPosition(b, anon103263), ta(anon103637, a, anon103639)) THEN output = 0.002931 ELSE output = -0.100866;

// Best in (weighted) recall bin #2, (0.1, 0.15], from 'outerLoop #1, null' and covering 544.0 wgt'ed positive and 0.0 wgt'ed negative examples:
//    Wgt'ed recall = 0.142, precision = 1.000, and F1 = 0.249 - learned after 57 total and 39 acceptable nodes.  Node score = -82.76077250781569

 FOR advisedby(a, b) IF (hasPosition(b, Faculty), student(a), publication(anon98501, b)) THEN output = 0.000110 ELSE output = -0.108778;

// Best in (weighted) recall bin #3, (0.15, 0.2], from 'outerLoop #1, null' and covering 643.0 wgt'ed positive and 0.0 wgt'ed negative examples:
//    Wgt'ed recall = 0.168, precision = 1.000, and F1 = 0.287 - learned after 115 total and 69 acceptable nodes.  Node score = -82.0673357910343

 FOR advisedby(a, b) IF (hasPosition(b, Faculty), student(a), taughtBy(anon98521, b, anon98523), taughtBy(anon98861, b, anon98863)) THEN output = 0.000360 ELSE output = -0.111122;

// Best in (weighted) recall bin #4, (0.2, 0.25], from 'outerLoop #1, null' and covering 802.0 wgt'ed positive and 0.0 wgt'ed negative examples:
//    Wgt'ed recall = 0.209, precision = 1.000, and F1 = 0.346 - learned after 33 total and 25 acceptable nodes.  Node score = -82.12711623416995

 FOR advisedby(a, b) IF (hasPosition(b, anon103263), student(a)) THEN output = -0.011503 ELSE output = -0.114008;

// Best in (weighted) recall bin #5, (0.25, 0.3], from 'outerLoop #1, null' and covering 1,013.0 wgt'ed positive and 0.0 wgt'ed negative examples:
//    Wgt'ed recall = 0.264, precision = 1.000, and F1 = 0.418 - learned after 51 total and 34 acceptable nodes.  Node score = -86.23469636764052

 FOR advisedby(a, b) IF (hasPosition(b, anon103263), taughtBy(anon103633, b, anon103635)) THEN output = -0.005572 ELSE output = -0.110140;

// Best in (weighted) recall bin #6, (0.3, 0.35], from 'outerLoop #1, null' and covering 1,161.0 wgt'ed positive and 0.0 wgt'ed negative examples:
//    Wgt'ed recall = 0.303, precision = 1.000, and F1 = 0.465 - learned after 9 total and 7 acceptable nodes.  Node score = -85.41814698768992

 FOR advisedby(a, b) IF (hasPosition(b, anon103263)) THEN output = -0.047560 ELSE output = -0.112112;

// Best in (weighted) recall bin #7, (0.35, 0.4], from 'outerLoop #1, null' and covering 1,389.0 wgt'ed positive and 0.0 wgt'ed negative examples:
//    Wgt'ed recall = 0.363, precision = 1.000, and F1 = 0.532 - learned after 201 total and 130 acceptable nodes.  Node score = -93.02497562137833

 FOR advisedby(a, b) IF (student(a), publication(anon20073, a)) THEN output = -0.011065 ELSE output = -0.097634;

// Best in (weighted) recall bin #8, (0.4, 0.45], from 'outerLoop #1, null' and covering 1,607.0 wgt'ed positive and 0.0 wgt'ed negative examples:
//    Wgt'ed recall = 0.419, precision = 1.000, and F1 = 0.591 - learned after 202 total and 131 acceptable nodes.  Node score = -94.31717071026218

 FOR advisedby(a, b) IF (student(a), publication(anon20073, b)) THEN output = -0.001275 ELSE output = -0.110402;

// Best in (weighted) recall bin #9, (0.45, 0.5], from 'outerLoop #1, null' and covering 1,837.0 wgt'ed positive and 0.0 wgt'ed negative examples:
//    Wgt'ed recall = 0.479, precision = 1.000, and F1 = 0.648 - learned after 205 total and 133 acceptable nodes.  Node score = -87.5871771617432

 FOR advisedby(a, b) IF (student(a), student(b)) THEN output = -0.112316 ELSE output = -0.075154;

// Best in (weighted) recall bin #12, (0.6, 0.65], from 'outerLoop #3, null' and covering 2,320.0 wgt'ed positive and 0.0 wgt'ed negative examples:
//    Wgt'ed recall = 0.606, precision = 1.000, and F1 = 0.754 - learned after 3 total and 1 acceptable nodes.  Node score = -88.89617493927352

 FOR advisedby(a, b) IF (publication(anon1875, b)) THEN output = -0.001461 ELSE output = -0.014772;

// Best in (weighted) recall bin #13, (0.65, 0.7], from 'outerLoop #1, null' and covering 2,651.0 wgt'ed positive and 0.0 wgt'ed negative examples:
//    Wgt'ed recall = 0.692, precision = 1.000, and F1 = 0.818 - learned after 7 total and 5 acceptable nodes.  Node score = -85.42675265769644

 FOR advisedby(a, b) IF (student(b)) THEN output = -0.112316 ELSE output = -0.048140;


////////////////////////////////////////////////////////////////////////////////
////
////     Gleaner for: outerLoop #1, null
////
////////////////////////////////////////////////////////////////////////////////

// Best in (weighted) recall bin #0, (-Infinity, 0.05], from 'outerLoop #1, null' and covering 177.0 wgt'ed positive and 0.0 wgt'ed negative examples:
//    Wgt'ed recall = 0.046, precision = 0.999, and F1 = 0.088 - learned after 51 total and 34 acceptable nodes.  Node score = -87.56153099794209

 FOR advisedby(a, b) IF (hasPosition(b, Faculty), yearsInProgram(a, Year_5)) THEN output = 0.005283 ELSE output = -0.096685;

// Best in (weighted) recall bin #1, (0.05, 0.1], from 'outerLoop #1, null' and covering 315.0 wgt'ed positive and 0.0 wgt'ed negative examples:
//    Wgt'ed recall = 0.082, precision = 1.000, and F1 = 0.152 - learned after 52 total and 35 acceptable nodes.  Node score = -85.82390394686597

 FOR advisedby(a, b) IF (hasPosition(b, anon103263), ta(anon103637, a, anon103639)) THEN output = 0.002931 ELSE output = -0.100866;

// Best in (weighted) recall bin #2, (0.1, 0.15], from 'outerLoop #1, null' and covering 544.0 wgt'ed positive and 0.0 wgt'ed negative examples:
//    Wgt'ed recall = 0.142, precision = 1.000, and F1 = 0.249 - learned after 57 total and 39 acceptable nodes.  Node score = -82.76077250781569

 FOR advisedby(a, b) IF (hasPosition(b, Faculty), student(a), publication(anon98501, b)) THEN output = 0.000110 ELSE output = -0.108778;

// Best in (weighted) recall bin #3, (0.15, 0.2], from 'outerLoop #1, null' and covering 643.0 wgt'ed positive and 0.0 wgt'ed negative examples:
//    Wgt'ed recall = 0.168, precision = 1.000, and F1 = 0.287 - learned after 115 total and 69 acceptable nodes.  Node score = -82.0673357910343

 FOR advisedby(a, b) IF (hasPosition(b, Faculty), student(a), taughtBy(anon98521, b, anon98523), taughtBy(anon98861, b, anon98863)) THEN output = 0.000360 ELSE output = -0.111122;

// Best in (weighted) recall bin #4, (0.2, 0.25], from 'outerLoop #1, null' and covering 802.0 wgt'ed positive and 0.0 wgt'ed negative examples:
//    Wgt'ed recall = 0.209, precision = 1.000, and F1 = 0.346 - learned after 33 total and 25 acceptable nodes.  Node score = -82.12711623416995

 FOR advisedby(a, b) IF (hasPosition(b, anon103263), student(a)) THEN output = -0.011503 ELSE output = -0.114008;

// Best in (weighted) recall bin #5, (0.25, 0.3], from 'outerLoop #1, null' and covering 1,013.0 wgt'ed positive and 0.0 wgt'ed negative examples:
//    Wgt'ed recall = 0.264, precision = 1.000, and F1 = 0.418 - learned after 51 total and 34 acceptable nodes.  Node score = -86.23469636764052

 FOR advisedby(a, b) IF (hasPosition(b, anon103263), taughtBy(anon103633, b, anon103635)) THEN output = -0.005572 ELSE output = -0.110140;

// Best in (weighted) recall bin #6, (0.3, 0.35], from 'outerLoop #1, null' and covering 1,161.0 wgt'ed positive and 0.0 wgt'ed negative examples:
//    Wgt'ed recall = 0.303, precision = 1.000, and F1 = 0.465 - learned after 9 total and 7 acceptable nodes.  Node score = -85.41814698768992

 FOR advisedby(a, b) IF (hasPosition(b, anon103263)) THEN output = -0.047560 ELSE output = -0.112112;

// Best in (weighted) recall bin #7, (0.35, 0.4], from 'outerLoop #1, null' and covering 1,389.0 wgt'ed positive and 0.0 wgt'ed negative examples:
//    Wgt'ed recall = 0.363, precision = 1.000, and F1 = 0.532 - learned after 201 total and 130 acceptable nodes.  Node score = -93.02497562137833

 FOR advisedby(a, b) IF (student(a), publication(anon20073, a)) THEN output = -0.011065 ELSE output = -0.097634;

// Best in (weighted) recall bin #8, (0.4, 0.45], from 'outerLoop #1, null' and covering 1,607.0 wgt'ed positive and 0.0 wgt'ed negative examples:
//    Wgt'ed recall = 0.419, precision = 1.000, and F1 = 0.591 - learned after 202 total and 131 acceptable nodes.  Node score = -94.31717071026218

 FOR advisedby(a, b) IF (student(a), publication(anon20073, b)) THEN output = -0.001275 ELSE output = -0.110402;

// Best in (weighted) recall bin #9, (0.45, 0.5], from 'outerLoop #1, null' and covering 1,837.0 wgt'ed positive and 0.0 wgt'ed negative examples:
//    Wgt'ed recall = 0.479, precision = 1.000, and F1 = 0.648 - learned after 205 total and 133 acceptable nodes.  Node score = -87.5871771617432

 FOR advisedby(a, b) IF (student(a), student(b)) THEN output = -0.112316 ELSE output = -0.075154;

// Best in (weighted) recall bin #12, (0.6, 0.65], from 'outerLoop #1, null' and covering 2,320.0 wgt'ed positive and 0.0 wgt'ed negative examples:
//    Wgt'ed recall = 0.606, precision = 1.000, and F1 = 0.754 - learned after 2 total and 0 acceptable nodes.  Node score = -101.21588872934929

 FOR advisedby(a, b) IF (publication(anon103259, a)) THEN output = -0.004218 ELSE output = -0.085115;

// Best in (weighted) recall bin #13, (0.65, 0.7], from 'outerLoop #1, null' and covering 2,651.0 wgt'ed positive and 0.0 wgt'ed negative examples:
//    Wgt'ed recall = 0.692, precision = 1.000, and F1 = 0.818 - learned after 7 total and 5 acceptable nodes.  Node score = -85.42675265769644

 FOR advisedby(a, b) IF (student(b)) THEN output = -0.112316 ELSE output = -0.048140;


////////////////////////////////////////////////////////////////////////////////
////
////     Gleaner for: outerLoop #2, null
////
////////////////////////////////////////////////////////////////////////////////

// Best in (weighted) recall bin #0, (-Infinity, 0.05], from 'outerLoop #2, null' and covering 148.0 wgt'ed positive and 0.0 wgt'ed negative examples:
//    Wgt'ed recall = 0.039, precision = 0.999, and F1 = 0.074 - learned after 10 total and 8 acceptable nodes.  Node score = -88.04593453834704

 FOR advisedby(a, b) IF (hasPosition(b, Faculty_adjunct)) THEN output = -0.094554 ELSE output = -0.016397;

// Best in (weighted) recall bin #1, (0.05, 0.1], from 'outerLoop #2, null' and covering 315.0 wgt'ed positive and 0.0 wgt'ed negative examples:
//    Wgt'ed recall = 0.082, precision = 1.000, and F1 = 0.152 - learned after 52 total and 35 acceptable nodes.  Node score = -87.11668017500257

 FOR advisedby(a, b) IF (hasPosition(b, anon71461), ta(anon71835, a, anon71837)) THEN output = 0.009033 ELSE output = -0.099196;

// Best in (weighted) recall bin #2, (0.1, 0.15], from 'outerLoop #2, null' and covering 544.0 wgt'ed positive and 0.0 wgt'ed negative examples:
//    Wgt'ed recall = 0.142, precision = 1.000, and F1 = 0.249 - learned after 54 total and 36 acceptable nodes.  Node score = -83.29988472494854

 FOR advisedby(a, b) IF (hasPosition(b, Faculty), student(a), publication(anon64873, b)) THEN output = 0.000468 ELSE output = -0.108211;

// Best in (weighted) recall bin #3, (0.15, 0.2], from 'outerLoop #2, null' and covering 643.0 wgt'ed positive and 0.0 wgt'ed negative examples:
//    Wgt'ed recall = 0.168, precision = 1.000, and F1 = 0.287 - learned after 74 total and 43 acceptable nodes.  Node score = -82.36396452481551

 FOR advisedby(a, b) IF (hasPosition(b, Faculty), student(a), taughtBy(anon64893, b, anon64895)) THEN output = 0.003568 ELSE output = -0.110853;

// Best in (weighted) recall bin #4, (0.2, 0.25], from 'outerLoop #2, null' and covering 814.0 wgt'ed positive and 0.0 wgt'ed negative examples:
//    Wgt'ed recall = 0.212, precision = 1.000, and F1 = 0.350 - learned after 208 total and 118 acceptable nodes.  Node score = -82.40179075066321

 FOR advisedby(a, b) IF (professor(b), student(a)) THEN output = 8.05219e-16 ELSE output = -0.114264;

// Best in (weighted) recall bin #5, (0.25, 0.3], from 'outerLoop #2, null' and covering 1,013.0 wgt'ed positive and 0.0 wgt'ed negative examples:
//    Wgt'ed recall = 0.264, precision = 1.000, and F1 = 0.418 - learned after 51 total and 34 acceptable nodes.  Node score = -87.16663038859237

 FOR advisedby(a, b) IF (hasPosition(b, anon71461), taughtBy(anon71831, b, anon71833)) THEN output = -0.004008 ELSE output = -0.109864;

// Best in (weighted) recall bin #6, (0.3, 0.35], from 'outerLoop #2, null' and covering 1,161.0 wgt'ed positive and 0.0 wgt'ed negative examples:
//    Wgt'ed recall = 0.303, precision = 1.000, and F1 = 0.465 - learned after 9 total and 7 acceptable nodes.  Node score = -85.66716637418118

 FOR advisedby(a, b) IF (hasPosition(b, anon13081)) THEN output = -6.55615e-16 ELSE output = -0.112152;

// Best in (weighted) recall bin #7, (0.35, 0.4], from 'outerLoop #2, null' and covering 1,389.0 wgt'ed positive and 0.0 wgt'ed negative examples:
//    Wgt'ed recall = 0.363, precision = 1.000, and F1 = 0.532 - learned after 241 total and 162 acceptable nodes.  Node score = -94.49361928262839

 FOR advisedby(a, b) IF (student(a), publication(anon60017, a)) THEN output = -0.010495 ELSE output = -0.095393;

// Best in (weighted) recall bin #8, (0.4, 0.45], from 'outerLoop #2, null' and covering 1,607.0 wgt'ed positive and 0.0 wgt'ed negative examples:
//    Wgt'ed recall = 0.419, precision = 1.000, and F1 = 0.591 - learned after 242 total and 163 acceptable nodes.  Node score = -94.99344143687374

 FOR advisedby(a, b) IF (student(a), publication(anon24507, b)) THEN output = -0.000887 ELSE output = -0.109321;

// Best in (weighted) recall bin #9, (0.45, 0.5], from 'outerLoop #2, null' and covering 1,837.0 wgt'ed positive and 0.0 wgt'ed negative examples:
//    Wgt'ed recall = 0.479, precision = 1.000, and F1 = 0.648 - learned after 184 total and 101 acceptable nodes.  Node score = -89.01153371916834

 FOR advisedby(a, b) IF (student(b), student(a)) THEN output = -0.112316 ELSE output = -0.069413;

// Best in (weighted) recall bin #12, (0.6, 0.65], from 'outerLoop #2, null' and covering 2,320.0 wgt'ed positive and 0.0 wgt'ed negative examples:
//    Wgt'ed recall = 0.606, precision = 1.000, and F1 = 0.754 - learned after 3 total and 1 acceptable nodes.  Node score = -88.89617493927356

 FOR advisedby(a, b) IF (publication(anon9233, b)) THEN output = -0.001461 ELSE output = -0.014772;

// Best in (weighted) recall bin #13, (0.65, 0.7], from 'outerLoop #2, null' and covering 2,651.0 wgt'ed positive and 0.0 wgt'ed negative examples:
//    Wgt'ed recall = 0.692, precision = 1.000, and F1 = 0.818 - learned after 7 total and 5 acceptable nodes.  Node score = -85.67034010305183

 FOR advisedby(a, b) IF (student(b)) THEN output = 4.16334e-15 ELSE output = -0.063038;


////////////////////////////////////////////////////////////////////////////////
////
////     Gleaner for: outerLoop #3, null
////
////////////////////////////////////////////////////////////////////////////////

// Best in (weighted) recall bin #0, (-Infinity, 0.05], from 'outerLoop #3, null' and covering 43.0 wgt'ed positive and 0.0 wgt'ed negative examples:
//    Wgt'ed recall = 0.011, precision = 0.998, and F1 = 0.022 - learned after 10 total and 8 acceptable nodes.  Node score = -88.66438423370664

 FOR advisedby(a, b) IF (hasPosition(b, Faculty_affiliate)) THEN output = -0.095339 ELSE output = -0.018555;

// Best in (weighted) recall bin #1, (0.05, 0.1], from 'outerLoop #3, null' and covering 315.0 wgt'ed positive and 0.0 wgt'ed negative examples:
//    Wgt'ed recall = 0.082, precision = 1.000, and F1 = 0.152 - learned after 53 total and 36 acceptable nodes.  Node score = -87.17737838259497

 FOR advisedby(a, b) IF (hasPosition(b, anon40771), ta(anon41153, a, anon41155)) THEN output = 0.009108 ELSE output = -0.099206;

// Best in (weighted) recall bin #2, (0.1, 0.15], from 'outerLoop #3, null' and covering 497.0 wgt'ed positive and 0.0 wgt'ed negative examples:
//    Wgt'ed recall = 0.130, precision = 1.000, and F1 = 0.230 - learned after 259 total and 171 acceptable nodes.  Node score = -86.15062184459323

 FOR advisedby(a, b) IF (student(a), tempAdvisedBy(anon28659, b)) THEN output = -0.000491 ELSE output = -0.103495;

// Best in (weighted) recall bin #3, (0.15, 0.2], from 'outerLoop #3, null' and covering 722.0 wgt'ed positive and 0.0 wgt'ed negative examples:
//    Wgt'ed recall = 0.188, precision = 1.000, and F1 = 0.317 - learned after 21 total and 13 acceptable nodes.  Node score = -87.477146257418

 FOR advisedby(a, b) IF (tempAdvisedBy(anon1889, b)) THEN output = -0.043196 ELSE output = -0.009317;

// Best in (weighted) recall bin #4, (0.2, 0.25], from 'outerLoop #3, null' and covering 814.0 wgt'ed positive and 0.0 wgt'ed negative examples:
//    Wgt'ed recall = 0.212, precision = 1.000, and F1 = 0.350 - learned after 85 total and 58 acceptable nodes.  Node score = -82.47118891348164

 FOR advisedby(a, b) IF (professor(b), student(a)) THEN output = 1.65016e-15 ELSE output = -0.114264;

// Best in (weighted) recall bin #5, (0.25, 0.3], from 'outerLoop #3, null' and covering 1,013.0 wgt'ed positive and 0.0 wgt'ed negative examples:
//    Wgt'ed recall = 0.264, precision = 1.000, and F1 = 0.418 - learned after 52 total and 35 acceptable nodes.  Node score = -87.21352240531391

 FOR advisedby(a, b) IF (hasPosition(b, anon24875), taughtBy(anon25253, b, anon25255)) THEN output = -0.003932 ELSE output = -0.109937;

// Best in (weighted) recall bin #6, (0.3, 0.35], from 'outerLoop #3, null' and covering 1,161.0 wgt'ed positive and 0.0 wgt'ed negative examples:
//    Wgt'ed recall = 0.303, precision = 1.000, and F1 = 0.465 - learned after 9 total and 7 acceptable nodes.  Node score = -85.6671663741812

 FOR advisedby(a, b) IF (hasPosition(b, anon13483)) THEN output = 8.63746e-17 ELSE output = -0.112152;

// Best in (weighted) recall bin #7, (0.35, 0.4], from 'outerLoop #3, null' and covering 1,389.0 wgt'ed positive and 0.0 wgt'ed negative examples:
//    Wgt'ed recall = 0.363, precision = 1.000, and F1 = 0.532 - learned after 241 total and 162 acceptable nodes.  Node score = -94.49378539643794

 FOR advisedby(a, b) IF (student(a), publication(anon44541, a)) THEN output = -0.010495 ELSE output = -0.095393;

// Best in (weighted) recall bin #8, (0.4, 0.45], from 'outerLoop #3, null' and covering 1,607.0 wgt'ed positive and 0.0 wgt'ed negative examples:
//    Wgt'ed recall = 0.419, precision = 1.000, and F1 = 0.591 - learned after 242 total and 163 acceptable nodes.  Node score = -94.9934414368738

 FOR advisedby(a, b) IF (student(a), publication(anon28645, b)) THEN output = -0.000887 ELSE output = -0.109321;

// Best in (weighted) recall bin #9, (0.45, 0.5], from 'outerLoop #3, null' and covering 1,837.0 wgt'ed positive and 0.0 wgt'ed negative examples:
//    Wgt'ed recall = 0.479, precision = 1.000, and F1 = 0.648 - learned after 245 total and 165 acceptable nodes.  Node score = -89.08093188198612

 FOR advisedby(a, b) IF (student(a), student(b)) THEN output = -0.112316 ELSE output = -0.069413;

// Best in (weighted) recall bin #12, (0.6, 0.65], from 'outerLoop #3, null' and covering 2,320.0 wgt'ed positive and 0.0 wgt'ed negative examples:
//    Wgt'ed recall = 0.606, precision = 1.000, and F1 = 0.754 - learned after 3 total and 1 acceptable nodes.  Node score = -88.89617493927352

 FOR advisedby(a, b) IF (publication(anon1875, b)) THEN output = -0.001461 ELSE output = -0.014772;

// Best in (weighted) recall bin #13, (0.65, 0.7], from 'outerLoop #3, null' and covering 2,651.0 wgt'ed positive and 0.0 wgt'ed negative examples:
//    Wgt'ed recall = 0.692, precision = 1.000, and F1 = 0.818 - learned after 7 total and 5 acceptable nodes.  Node score = -85.67034010305183

 FOR advisedby(a, b) IF (student(b)) THEN output = 0.000000 ELSE output = -0.063038;


////////////////////////////////////////////////////////////////////////////////
////
////     Gleaner for: outerLoop #4, null
////
////////////////////////////////////////////////////////////////////////////////

// Best in (weighted) recall bin #0, (-Infinity, 0.05], from 'outerLoop #4, null' and covering 148.0 wgt'ed positive and 0.0 wgt'ed negative examples:
//    Wgt'ed recall = 0.039, precision = 0.999, and F1 = 0.074 - learned after 11 total and 9 acceptable nodes.  Node score = -88.04593453834659

 FOR advisedby(a, b) IF (hasPosition(b, Faculty_adjunct)) THEN output = -0.094554 ELSE output = -0.016397;

// Best in (weighted) recall bin #1, (0.05, 0.1], from 'outerLoop #4, null' and covering 315.0 wgt'ed positive and 0.0 wgt'ed negative examples:
//    Wgt'ed recall = 0.082, precision = 1.000, and F1 = 0.152 - learned after 53 total and 36 acceptable nodes.  Node score = -87.17738101787079

 FOR advisedby(a, b) IF (hasPosition(b, anon29013), ta(anon29395, a, anon29397)) THEN output = 0.009109 ELSE output = -0.099207;

// Best in (weighted) recall bin #2, (0.1, 0.15], from 'outerLoop #4, null' and covering 497.0 wgt'ed positive and 0.0 wgt'ed negative examples:
//    Wgt'ed recall = 0.130, precision = 1.000, and F1 = 0.230 - learned after 259 total and 171 acceptable nodes.  Node score = -86.15062184459329

 FOR advisedby(a, b) IF (student(a), tempAdvisedBy(anon32797, b)) THEN output = -0.000491 ELSE output = -0.103495;

// Best in (weighted) recall bin #3, (0.15, 0.2], from 'outerLoop #4, null' and covering 722.0 wgt'ed positive and 0.0 wgt'ed negative examples:
//    Wgt'ed recall = 0.188, precision = 1.000, and F1 = 0.317 - learned after 21 total and 13 acceptable nodes.  Node score = -87.477146257418

 FOR advisedby(a, b) IF (tempAdvisedBy(anon2277, b)) THEN output = -0.043196 ELSE output = -0.009317;

// Best in (weighted) recall bin #4, (0.2, 0.25], from 'outerLoop #4, null' and covering 814.0 wgt'ed positive and 0.0 wgt'ed negative examples:
//    Wgt'ed recall = 0.212, precision = 1.000, and F1 = 0.350 - learned after 85 total and 58 acceptable nodes.  Node score = -82.47133874523645

 FOR advisedby(a, b) IF (professor(b), student(a)) THEN output = -4.50295e-16 ELSE output = -0.114264;

// Best in (weighted) recall bin #5, (0.25, 0.3], from 'outerLoop #4, null' and covering 1,013.0 wgt'ed positive and 0.0 wgt'ed negative examples:
//    Wgt'ed recall = 0.264, precision = 1.000, and F1 = 0.418 - learned after 52 total and 35 acceptable nodes.  Node score = -87.21352240531398

 FOR advisedby(a, b) IF (hasPosition(b, anon29013), taughtBy(anon29391, b, anon29393)) THEN output = -0.003932 ELSE output = -0.109937;

// Best in (weighted) recall bin #6, (0.3, 0.35], from 'outerLoop #4, null' and covering 1,161.0 wgt'ed positive and 0.0 wgt'ed negative examples:
//    Wgt'ed recall = 0.303, precision = 1.000, and F1 = 0.465 - learned after 9 total and 7 acceptable nodes.  Node score = -85.66716637418118

 FOR advisedby(a, b) IF (hasPosition(b, anon13885)) THEN output = 3.39713e-17 ELSE output = -0.112152;

// Best in (weighted) recall bin #7, (0.35, 0.4], from 'outerLoop #4, null' and covering 1,389.0 wgt'ed positive and 0.0 wgt'ed negative examples:
//    Wgt'ed recall = 0.363, precision = 1.000, and F1 = 0.532 - learned after 241 total and 162 acceptable nodes.  Node score = -94.4938857079824

 FOR advisedby(a, b) IF (student(a), publication(anon32783, a)) THEN output = -0.010495 ELSE output = -0.095393;

// Best in (weighted) recall bin #8, (0.4, 0.45], from 'outerLoop #4, null' and covering 1,607.0 wgt'ed positive and 0.0 wgt'ed negative examples:
//    Wgt'ed recall = 0.419, precision = 1.000, and F1 = 0.591 - learned after 242 total and 163 acceptable nodes.  Node score = -94.99344143687385

 FOR advisedby(a, b) IF (student(a), publication(anon32783, b)) THEN output = -0.000887 ELSE output = -0.109321;

// Best in (weighted) recall bin #9, (0.45, 0.5], from 'outerLoop #4, null' and covering 1,837.0 wgt'ed positive and 0.0 wgt'ed negative examples:
//    Wgt'ed recall = 0.479, precision = 1.000, and F1 = 0.648 - learned after 245 total and 165 acceptable nodes.  Node score = -89.08108171374032

 FOR advisedby(a, b) IF (student(a), student(b)) THEN output = -0.112316 ELSE output = -0.069413;

// Best in (weighted) recall bin #12, (0.6, 0.65], from 'outerLoop #4, null' and covering 2,320.0 wgt'ed positive and 0.0 wgt'ed negative examples:
//    Wgt'ed recall = 0.606, precision = 1.000, and F1 = 0.754 - learned after 3 total and 1 acceptable nodes.  Node score = -88.89617493927352

 FOR advisedby(a, b) IF (publication(anon2263, b)) THEN output = -0.001461 ELSE output = -0.014772;

// Best in (weighted) recall bin #13, (0.65, 0.7], from 'outerLoop #4, null' and covering 2,651.0 wgt'ed positive and 0.0 wgt'ed negative examples:
//    Wgt'ed recall = 0.692, precision = 1.000, and F1 = 0.818 - learned after 7 total and 5 acceptable nodes.  Node score = -85.67034010305183

 FOR advisedby(a, b) IF (student(b)) THEN output = 0.000000 ELSE output = -0.063038;


////////////////////////////////////////////////////////////////////////////////
////
////     Gleaner for: outerLoop #5, null
////
////////////////////////////////////////////////////////////////////////////////

// Best in (weighted) recall bin #0, (-Infinity, 0.05], from 'outerLoop #5, null' and covering 39.0 wgt'ed positive and 0.0 wgt'ed negative examples:
//    Wgt'ed recall = 0.010, precision = 0.997, and F1 = 0.020 - learned after 24 total and 16 acceptable nodes.  Node score = -88.91498464651202

 FOR advisedby(a, b) IF (yearsInProgram(a, Year_8)) THEN output = -0.018005 ELSE output = -0.019431;

// Best in (weighted) recall bin #1, (0.05, 0.1], from 'outerLoop #5, null' and covering 226.0 wgt'ed positive and 0.0 wgt'ed negative examples:
//    Wgt'ed recall = 0.059, precision = 1.000, and F1 = 0.111 - learned after 24 total and 16 acceptable nodes.  Node score = -95.83370263673662

 FOR advisedby(a, b) IF (yearsInProgram(a, Year_7)) THEN output = -0.071376 ELSE output = -0.078589;

// Best in (weighted) recall bin #3, (0.15, 0.2], from 'outerLoop #5, null' and covering 722.0 wgt'ed positive and 0.0 wgt'ed negative examples:
//    Wgt'ed recall = 0.188, precision = 1.000, and F1 = 0.317 - learned after 21 total and 13 acceptable nodes.  Node score = -87.477146257418

 FOR advisedby(a, b) IF (tempAdvisedBy(anon2657, b)) THEN output = -0.043196 ELSE output = -0.009317;

// Best in (weighted) recall bin #4, (0.2, 0.25], from 'outerLoop #5, null' and covering 931.0 wgt'ed positive and 0.0 wgt'ed negative examples:
//    Wgt'ed recall = 0.243, precision = 1.000, and F1 = 0.391 - learned after 10 total and 8 acceptable nodes.  Node score = -87.46327767126226

 FOR advisedby(a, b) IF (hasPosition(b, Faculty)) THEN output = -0.053774 ELSE output = -0.008387;

// Best in (weighted) recall bin #5, (0.25, 0.3], from 'outerLoop #5, null' and covering 1,039.0 wgt'ed positive and 0.0 wgt'ed negative examples:
//    Wgt'ed recall = 0.271, precision = 1.000, and F1 = 0.427 - learned after 28 total and 20 acceptable nodes.  Node score = -88.37759847445183

 FOR advisedby(a, b) IF (ta(anon2667, b, anon2669)) THEN output = 0.000000 ELSE output = -0.026642;

// Best in (weighted) recall bin #6, (0.3, 0.35], from 'outerLoop #5, null' and covering 1,161.0 wgt'ed positive and 0.0 wgt'ed negative examples:
//    Wgt'ed recall = 0.303, precision = 1.000, and F1 = 0.465 - learned after 9 total and 7 acceptable nodes.  Node score = -85.66716637418118

 FOR advisedby(a, b) IF (hasPosition(b, anon14287)) THEN output = 3.36844e-17 ELSE output = -0.112152;

// Best in (weighted) recall bin #12, (0.6, 0.65], from 'outerLoop #5, null' and covering 2,320.0 wgt'ed positive and 0.0 wgt'ed negative examples:
//    Wgt'ed recall = 0.606, precision = 1.000, and F1 = 0.754 - learned after 3 total and 1 acceptable nodes.  Node score = -88.89617493927352

 FOR advisedby(a, b) IF (publication(anon2643, b)) THEN output = -0.001461 ELSE output = -0.014772;

// Best in (weighted) recall bin #13, (0.65, 0.7], from 'outerLoop #5, null' and covering 2,651.0 wgt'ed positive and 0.0 wgt'ed negative examples:
//    Wgt'ed recall = 0.692, precision = 1.000, and F1 = 0.818 - learned after 7 total and 5 acceptable nodes.  Node score = -85.67034010305183

 FOR advisedby(a, b) IF (student(b)) THEN output = 0.000000 ELSE output = -0.063038;


////////////////////////////////////////////////////////////////////////////////
////
////     Gleaner for: outerLoop #6, null
////
////////////////////////////////////////////////////////////////////////////////

// Best in (weighted) recall bin #0, (-Infinity, 0.05], from 'outerLoop #6, null' and covering 39.0 wgt'ed positive and 0.0 wgt'ed negative examples:
//    Wgt'ed recall = 0.010, precision = 0.997, and F1 = 0.020 - learned after 24 total and 16 acceptable nodes.  Node score = -95.79881238177845

 FOR advisedby(a, b) IF (yearsInProgram(b, Year_8)) THEN output = -0.112316 ELSE output = -0.077813;

// Best in (weighted) recall bin #1, (0.05, 0.1], from 'outerLoop #6, null' and covering 241.0 wgt'ed positive and 0.0 wgt'ed negative examples:
//    Wgt'ed recall = 0.063, precision = 1.000, and F1 = 0.118 - learned after 24 total and 16 acceptable nodes.  Node score = -88.8778582676953

 FOR advisedby(a, b) IF (yearsInProgram(a, Year_2)) THEN output = -0.007389 ELSE output = -0.020224;

// Best in (weighted) recall bin #3, (0.15, 0.2], from 'outerLoop #6, null' and covering 722.0 wgt'ed positive and 0.0 wgt'ed negative examples:
//    Wgt'ed recall = 0.188, precision = 1.000, and F1 = 0.317 - learned after 21 total and 13 acceptable nodes.  Node score = -87.477146257418

 FOR advisedby(a, b) IF (tempAdvisedBy(anon3045, b)) THEN output = -0.043196 ELSE output = -0.009317;

// Best in (weighted) recall bin #4, (0.2, 0.25], from 'outerLoop #6, null' and covering 931.0 wgt'ed positive and 0.0 wgt'ed negative examples:
//    Wgt'ed recall = 0.243, precision = 1.000, and F1 = 0.391 - learned after 10 total and 8 acceptable nodes.  Node score = -87.46327767126226

 FOR advisedby(a, b) IF (hasPosition(b, Faculty)) THEN output = -0.053774 ELSE output = -0.008387;

// Best in (weighted) recall bin #5, (0.25, 0.3], from 'outerLoop #6, null' and covering 1,039.0 wgt'ed positive and 0.0 wgt'ed negative examples:
//    Wgt'ed recall = 0.271, precision = 1.000, and F1 = 0.427 - learned after 28 total and 20 acceptable nodes.  Node score = -88.37759847445183

 FOR advisedby(a, b) IF (ta(anon3055, b, anon3057)) THEN output = 0.000000 ELSE output = -0.026642;

// Best in (weighted) recall bin #6, (0.3, 0.35], from 'outerLoop #6, null' and covering 1,161.0 wgt'ed positive and 0.0 wgt'ed negative examples:
//    Wgt'ed recall = 0.303, precision = 1.000, and F1 = 0.465 - learned after 9 total and 7 acceptable nodes.  Node score = -85.66716637418118

 FOR advisedby(a, b) IF (hasPosition(b, anon14697)) THEN output = -5.84493e-16 ELSE output = -0.112152;

// Best in (weighted) recall bin #12, (0.6, 0.65], from 'outerLoop #6, null' and covering 2,320.0 wgt'ed positive and 0.0 wgt'ed negative examples:
//    Wgt'ed recall = 0.606, precision = 1.000, and F1 = 0.754 - learned after 3 total and 1 acceptable nodes.  Node score = -88.89617493927352

 FOR advisedby(a, b) IF (publication(anon3031, b)) THEN output = -0.001461 ELSE output = -0.014772;

// Best in (weighted) recall bin #13, (0.65, 0.7], from 'outerLoop #6, null' and covering 2,651.0 wgt'ed positive and 0.0 wgt'ed negative examples:
//    Wgt'ed recall = 0.692, precision = 1.000, and F1 = 0.818 - learned after 7 total and 5 acceptable nodes.  Node score = -85.67034010305183

 FOR advisedby(a, b) IF (student(b)) THEN output = 0.000000 ELSE output = -0.063038;


////////////////////////////////////////////////////////////////////////////////
////
////     Gleaner for: outerLoop #7, null
////
////////////////////////////////////////////////////////////////////////////////

// Best in (weighted) recall bin #0, (-Infinity, 0.05], from 'outerLoop #7, null' and covering 117.0 wgt'ed positive and 0.0 wgt'ed negative examples:
//    Wgt'ed recall = 0.031, precision = 0.999, and F1 = 0.059 - learned after 24 total and 16 acceptable nodes.  Node score = -88.9148228262711

 FOR advisedby(a, b) IF (yearsInProgram(a, Year_12)) THEN output = -0.018005 ELSE output = -0.019461;

// Best in (weighted) recall bin #2, (0.1, 0.15], from 'outerLoop #7, null' and covering 468.0 wgt'ed positive and 0.0 wgt'ed negative examples:
//    Wgt'ed recall = 0.122, precision = 1.000, and F1 = 0.218 - learned after 23 total and 15 acceptable nodes.  Node score = -88.83311830772044

 FOR advisedby(a, b) IF (yearsInProgram(a, Year_4)) THEN output = -0.007019 ELSE output = -0.021142;

// Best in (weighted) recall bin #3, (0.15, 0.2], from 'outerLoop #7, null' and covering 722.0 wgt'ed positive and 0.0 wgt'ed negative examples:
//    Wgt'ed recall = 0.188, precision = 1.000, and F1 = 0.317 - learned after 21 total and 13 acceptable nodes.  Node score = -87.477146257418

 FOR advisedby(a, b) IF (tempAdvisedBy(anon3433, b)) THEN output = -0.043196 ELSE output = -0.009317;

// Best in (weighted) recall bin #4, (0.2, 0.25], from 'outerLoop #7, null' and covering 931.0 wgt'ed positive and 0.0 wgt'ed negative examples:
//    Wgt'ed recall = 0.243, precision = 1.000, and F1 = 0.391 - learned after 10 total and 8 acceptable nodes.  Node score = -87.46327767126226

 FOR advisedby(a, b) IF (hasPosition(b, Faculty)) THEN output = -0.053774 ELSE output = -0.008387;

// Best in (weighted) recall bin #5, (0.25, 0.3], from 'outerLoop #7, null' and covering 1,039.0 wgt'ed positive and 0.0 wgt'ed negative examples:
//    Wgt'ed recall = 0.271, precision = 1.000, and F1 = 0.427 - learned after 28 total and 20 acceptable nodes.  Node score = -88.37759847445183

 FOR advisedby(a, b) IF (ta(anon3443, b, anon3445)) THEN output = 0.000000 ELSE output = -0.026642;

// Best in (weighted) recall bin #6, (0.3, 0.35], from 'outerLoop #7, null' and covering 1,180.0 wgt'ed positive and 0.0 wgt'ed negative examples:
//    Wgt'ed recall = 0.308, precision = 1.000, and F1 = 0.471 - learned after 5 total and 3 acceptable nodes.  Node score = -85.67034010305203

 FOR advisedby(a, b) IF (professor(b)) THEN output = -0.063038 ELSE output = 0.000000;

// Best in (weighted) recall bin #12, (0.6, 0.65], from 'outerLoop #7, null' and covering 2,320.0 wgt'ed positive and 0.0 wgt'ed negative examples:
//    Wgt'ed recall = 0.606, precision = 1.000, and F1 = 0.754 - learned after 3 total and 1 acceptable nodes.  Node score = -88.89617493927352

 FOR advisedby(a, b) IF (publication(anon3419, b)) THEN output = -0.001461 ELSE output = -0.014772;

// Best in (weighted) recall bin #13, (0.65, 0.7], from 'outerLoop #7, null' and covering 2,651.0 wgt'ed positive and 0.0 wgt'ed negative examples:
//    Wgt'ed recall = 0.692, precision = 1.000, and F1 = 0.818 - learned after 7 total and 5 acceptable nodes.  Node score = -85.67034010305183

 FOR advisedby(a, b) IF (student(b)) THEN output = 0.000000 ELSE output = -0.063038;


////////////////////////////////////////////////////////////////////////////////
////
////     Gleaner for: outerLoop #8, null
////
////////////////////////////////////////////////////////////////////////////////

// Best in (weighted) recall bin #0, (-Infinity, 0.05], from 'outerLoop #8, null' and covering 43.0 wgt'ed positive and 0.0 wgt'ed negative examples:
//    Wgt'ed recall = 0.011, precision = 0.998, and F1 = 0.022 - learned after 24 total and 16 acceptable nodes.  Node score = -88.91506111288804

 FOR advisedby(a, b) IF (yearsInProgram(a, Year_9)) THEN output = -0.019629 ELSE output = -0.019414;

// Best in (weighted) recall bin #1, (0.05, 0.1], from 'outerLoop #8, null' and covering 226.0 wgt'ed positive and 0.0 wgt'ed negative examples:
//    Wgt'ed recall = 0.059, precision = 1.000, and F1 = 0.111 - learned after 24 total and 16 acceptable nodes.  Node score = -88.90506006249186

 FOR advisedby(a, b) IF (yearsInProgram(a, Year_7)) THEN output = -0.012963 ELSE output = -0.019821;

// Best in (weighted) recall bin #3, (0.15, 0.2], from 'outerLoop #8, null' and covering 722.0 wgt'ed positive and 0.0 wgt'ed negative examples:
//    Wgt'ed recall = 0.188, precision = 1.000, and F1 = 0.317 - learned after 21 total and 13 acceptable nodes.  Node score = -87.477146257418

 FOR advisedby(a, b) IF (tempAdvisedBy(anon3821, b)) THEN output = -0.043196 ELSE output = -0.009317;

// Best in (weighted) recall bin #4, (0.2, 0.25], from 'outerLoop #8, null' and covering 931.0 wgt'ed positive and 0.0 wgt'ed negative examples:
//    Wgt'ed recall = 0.243, precision = 1.000, and F1 = 0.391 - learned after 10 total and 8 acceptable nodes.  Node score = -87.46327767126226

 FOR advisedby(a, b) IF (hasPosition(b, Faculty)) THEN output = -0.053774 ELSE output = -0.008387;

// Best in (weighted) recall bin #5, (0.25, 0.3], from 'outerLoop #8, null' and covering 1,039.0 wgt'ed positive and 0.0 wgt'ed negative examples:
//    Wgt'ed recall = 0.271, precision = 1.000, and F1 = 0.427 - learned after 28 total and 20 acceptable nodes.  Node score = -88.37759847445183

 FOR advisedby(a, b) IF (ta(anon3831, b, anon3833)) THEN output = 0.000000 ELSE output = -0.026642;

// Best in (weighted) recall bin #6, (0.3, 0.35], from 'outerLoop #8, null' and covering 1,180.0 wgt'ed positive and 0.0 wgt'ed negative examples:
//    Wgt'ed recall = 0.308, precision = 1.000, and F1 = 0.471 - learned after 5 total and 3 acceptable nodes.  Node score = -85.67034010305203

 FOR advisedby(a, b) IF (professor(b)) THEN output = -0.063038 ELSE output = 0.000000;

// Best in (weighted) recall bin #12, (0.6, 0.65], from 'outerLoop #8, null' and covering 2,320.0 wgt'ed positive and 0.0 wgt'ed negative examples:
//    Wgt'ed recall = 0.606, precision = 1.000, and F1 = 0.754 - learned after 3 total and 1 acceptable nodes.  Node score = -88.89617493927352

 FOR advisedby(a, b) IF (publication(anon3807, b)) THEN output = -0.001461 ELSE output = -0.014772;

// Best in (weighted) recall bin #13, (0.65, 0.7], from 'outerLoop #8, null' and covering 2,651.0 wgt'ed positive and 0.0 wgt'ed negative examples:
//    Wgt'ed recall = 0.692, precision = 1.000, and F1 = 0.818 - learned after 7 total and 5 acceptable nodes.  Node score = -85.67034010305183

 FOR advisedby(a, b) IF (student(b)) THEN output = 0.000000 ELSE output = -0.063038;


////////////////////////////////////////////////////////////////////////////////
////
////     Gleaner for: outerLoop #9, null
////
////////////////////////////////////////////////////////////////////////////////

// Best in (weighted) recall bin #1, (0.05, 0.1], from 'outerLoop #9, null' and covering 286.0 wgt'ed positive and 0.0 wgt'ed negative examples:
//    Wgt'ed recall = 0.075, precision = 1.000, and F1 = 0.139 - learned after 24 total and 16 acceptable nodes.  Node score = -88.85675218805966

 FOR advisedby(a, b) IF (yearsInProgram(a, Year_6)) THEN output = -0.005681 ELSE output = -0.020525;

// Best in (weighted) recall bin #3, (0.15, 0.2], from 'outerLoop #9, null' and covering 722.0 wgt'ed positive and 0.0 wgt'ed negative examples:
//    Wgt'ed recall = 0.188, precision = 1.000, and F1 = 0.317 - learned after 21 total and 13 acceptable nodes.  Node score = -87.477146257418

 FOR advisedby(a, b) IF (tempAdvisedBy(anon4209, b)) THEN output = -0.043196 ELSE output = -0.009317;

// Best in (weighted) recall bin #4, (0.2, 0.25], from 'outerLoop #9, null' and covering 931.0 wgt'ed positive and 0.0 wgt'ed negative examples:
//    Wgt'ed recall = 0.243, precision = 1.000, and F1 = 0.391 - learned after 10 total and 8 acceptable nodes.  Node score = -87.46327767126226

 FOR advisedby(a, b) IF (hasPosition(b, Faculty)) THEN output = -0.053774 ELSE output = -0.008387;

// Best in (weighted) recall bin #5, (0.25, 0.3], from 'outerLoop #9, null' and covering 1,039.0 wgt'ed positive and 0.0 wgt'ed negative examples:
//    Wgt'ed recall = 0.271, precision = 1.000, and F1 = 0.427 - learned after 28 total and 20 acceptable nodes.  Node score = -88.37759847445183

 FOR advisedby(a, b) IF (ta(anon4219, b, anon4221)) THEN output = 0.000000 ELSE output = -0.026642;

// Best in (weighted) recall bin #6, (0.3, 0.35], from 'outerLoop #9, null' and covering 1,180.0 wgt'ed positive and 0.0 wgt'ed negative examples:
//    Wgt'ed recall = 0.308, precision = 1.000, and F1 = 0.471 - learned after 5 total and 3 acceptable nodes.  Node score = -85.67034010305203

 FOR advisedby(a, b) IF (professor(b)) THEN output = -0.063038 ELSE output = 0.000000;

// Best in (weighted) recall bin #12, (0.6, 0.65], from 'outerLoop #9, null' and covering 2,320.0 wgt'ed positive and 0.0 wgt'ed negative examples:
//    Wgt'ed recall = 0.606, precision = 1.000, and F1 = 0.754 - learned after 3 total and 1 acceptable nodes.  Node score = -88.89617493927352

 FOR advisedby(a, b) IF (publication(anon4195, b)) THEN output = -0.001461 ELSE output = -0.014772;

// Best in (weighted) recall bin #13, (0.65, 0.7], from 'outerLoop #9, null' and covering 2,651.0 wgt'ed positive and 0.0 wgt'ed negative examples:
//    Wgt'ed recall = 0.692, precision = 1.000, and F1 = 0.818 - learned after 7 total and 5 acceptable nodes.  Node score = -85.67034010305183

 FOR advisedby(a, b) IF (student(b)) THEN output = 0.000000 ELSE output = -0.063038;


////////////////////////////////////////////////////////////////////////////////
////
////     Gleaner for: outerLoop #10, null
////
////////////////////////////////////////////////////////////////////////////////

// Best in (weighted) recall bin #0, (-Infinity, 0.05], from 'outerLoop #10, null' and covering 148.0 wgt'ed positive and 0.0 wgt'ed negative examples:
//    Wgt'ed recall = 0.039, precision = 0.999, and F1 = 0.074 - learned after 11 total and 9 acceptable nodes.  Node score = -88.04593453834659

 FOR advisedby(a, b) IF (hasPosition(b, Faculty_adjunct)) THEN output = -0.094554 ELSE output = -0.016397;

// Best in (weighted) recall bin #3, (0.15, 0.2], from 'outerLoop #10, null' and covering 722.0 wgt'ed positive and 0.0 wgt'ed negative examples:
//    Wgt'ed recall = 0.188, precision = 1.000, and F1 = 0.317 - learned after 21 total and 13 acceptable nodes.  Node score = -87.477146257418

 FOR advisedby(a, b) IF (tempAdvisedBy(anon4597, b)) THEN output = -0.043196 ELSE output = -0.009317;

// Best in (weighted) recall bin #4, (0.2, 0.25], from 'outerLoop #10, null' and covering 931.0 wgt'ed positive and 0.0 wgt'ed negative examples:
//    Wgt'ed recall = 0.243, precision = 1.000, and F1 = 0.391 - learned after 10 total and 8 acceptable nodes.  Node score = -87.46327767126226

 FOR advisedby(a, b) IF (hasPosition(b, Faculty)) THEN output = -0.053774 ELSE output = -0.008387;

// Best in (weighted) recall bin #5, (0.25, 0.3], from 'outerLoop #10, null' and covering 1,039.0 wgt'ed positive and 0.0 wgt'ed negative examples:
//    Wgt'ed recall = 0.271, precision = 1.000, and F1 = 0.427 - learned after 28 total and 20 acceptable nodes.  Node score = -88.37759847445183

 FOR advisedby(a, b) IF (ta(anon4607, b, anon4609)) THEN output = 0.000000 ELSE output = -0.026642;

// Best in (weighted) recall bin #6, (0.3, 0.35], from 'outerLoop #10, null' and covering 1,180.0 wgt'ed positive and 0.0 wgt'ed negative examples:
//    Wgt'ed recall = 0.308, precision = 1.000, and F1 = 0.471 - learned after 5 total and 3 acceptable nodes.  Node score = -85.67034010305203

 FOR advisedby(a, b) IF (professor(b)) THEN output = -0.063038 ELSE output = 0.000000;

// Best in (weighted) recall bin #12, (0.6, 0.65], from 'outerLoop #10, null' and covering 2,320.0 wgt'ed positive and 0.0 wgt'ed negative examples:
//    Wgt'ed recall = 0.606, precision = 1.000, and F1 = 0.754 - learned after 3 total and 1 acceptable nodes.  Node score = -88.89617493927352

 FOR advisedby(a, b) IF (publication(anon4583, b)) THEN output = -0.001461 ELSE output = -0.014772;

// Best in (weighted) recall bin #13, (0.65, 0.7], from 'outerLoop #10, null' and covering 2,651.0 wgt'ed positive and 0.0 wgt'ed negative examples:
//    Wgt'ed recall = 0.692, precision = 1.000, and F1 = 0.818 - learned after 7 total and 5 acceptable nodes.  Node score = -85.67034010305183

 FOR advisedby(a, b) IF (student(b)) THEN output = 0.000000 ELSE output = -0.063038;


////////////////////////////////////////////////////////////////////////////////
////
////     Gleaner for: outerLoop #11, null
////
////////////////////////////////////////////////////////////////////////////////

// Best in (weighted) recall bin #0, (-Infinity, 0.05], from 'outerLoop #11, null' and covering 86.0 wgt'ed positive and 0.0 wgt'ed negative examples:
//    Wgt'ed recall = 0.022, precision = 0.999, and F1 = 0.044 - learned after 24 total and 16 acceptable nodes.  Node score = -88.91505909486378

 FOR advisedby(a, b) IF (yearsInProgram(a, Year_10)) THEN output = -0.019629 ELSE output = -0.019412;

// Best in (weighted) recall bin #3, (0.15, 0.2], from 'outerLoop #11, null' and covering 722.0 wgt'ed positive and 0.0 wgt'ed negative examples:
//    Wgt'ed recall = 0.188, precision = 1.000, and F1 = 0.317 - learned after 21 total and 13 acceptable nodes.  Node score = -87.477146257418

 FOR advisedby(a, b) IF (tempAdvisedBy(anon4985, b)) THEN output = -0.043196 ELSE output = -0.009317;

// Best in (weighted) recall bin #4, (0.2, 0.25], from 'outerLoop #11, null' and covering 931.0 wgt'ed positive and 0.0 wgt'ed negative examples:
//    Wgt'ed recall = 0.243, precision = 1.000, and F1 = 0.391 - learned after 10 total and 8 acceptable nodes.  Node score = -87.46327767126226

 FOR advisedby(a, b) IF (hasPosition(b, Faculty)) THEN output = -0.053774 ELSE output = -0.008387;

// Best in (weighted) recall bin #5, (0.25, 0.3], from 'outerLoop #11, null' and covering 1,039.0 wgt'ed positive and 0.0 wgt'ed negative examples:
//    Wgt'ed recall = 0.271, precision = 1.000, and F1 = 0.427 - learned after 28 total and 20 acceptable nodes.  Node score = -88.37759847445183

 FOR advisedby(a, b) IF (ta(anon4995, b, anon4997)) THEN output = 0.000000 ELSE output = -0.026642;

// Best in (weighted) recall bin #6, (0.3, 0.35], from 'outerLoop #11, null' and covering 1,180.0 wgt'ed positive and 0.0 wgt'ed negative examples:
//    Wgt'ed recall = 0.308, precision = 1.000, and F1 = 0.471 - learned after 5 total and 3 acceptable nodes.  Node score = -85.67034010305203

 FOR advisedby(a, b) IF (professor(b)) THEN output = -0.063038 ELSE output = 0.000000;

// Best in (weighted) recall bin #12, (0.6, 0.65], from 'outerLoop #11, null' and covering 2,320.0 wgt'ed positive and 0.0 wgt'ed negative examples:
//    Wgt'ed recall = 0.606, precision = 1.000, and F1 = 0.754 - learned after 3 total and 1 acceptable nodes.  Node score = -88.89617493927352

 FOR advisedby(a, b) IF (publication(anon4971, b)) THEN output = -0.001461 ELSE output = -0.014772;

// Best in (weighted) recall bin #13, (0.65, 0.7], from 'outerLoop #11, null' and covering 2,651.0 wgt'ed positive and 0.0 wgt'ed negative examples:
//    Wgt'ed recall = 0.692, precision = 1.000, and F1 = 0.818 - learned after 7 total and 5 acceptable nodes.  Node score = -85.67034010305183

 FOR advisedby(a, b) IF (student(b)) THEN output = 0.000000 ELSE output = -0.063038;


////////////////////////////////////////////////////////////////////////////////
////
////     Gleaner for: outerLoop #12, null
////
////////////////////////////////////////////////////////////////////////////////

// Best in (weighted) recall bin #3, (0.15, 0.2], from 'outerLoop #12, null' and covering 722.0 wgt'ed positive and 0.0 wgt'ed negative examples:
//    Wgt'ed recall = 0.188, precision = 1.000, and F1 = 0.317 - learned after 21 total and 13 acceptable nodes.  Node score = -87.477146257418

 FOR advisedby(a, b) IF (tempAdvisedBy(anon5373, b)) THEN output = -0.043196 ELSE output = -0.009317;

// Best in (weighted) recall bin #4, (0.2, 0.25], from 'outerLoop #12, null' and covering 931.0 wgt'ed positive and 0.0 wgt'ed negative examples:
//    Wgt'ed recall = 0.243, precision = 1.000, and F1 = 0.391 - learned after 11 total and 9 acceptable nodes.  Node score = -87.46327767126226

 FOR advisedby(a, b) IF (hasPosition(b, Faculty)) THEN output = -0.053774 ELSE output = -0.008387;

// Best in (weighted) recall bin #5, (0.25, 0.3], from 'outerLoop #12, null' and covering 1,039.0 wgt'ed positive and 0.0 wgt'ed negative examples:
//    Wgt'ed recall = 0.271, precision = 1.000, and F1 = 0.427 - learned after 27 total and 19 acceptable nodes.  Node score = -88.37759847445183

 FOR advisedby(a, b) IF (ta(anon5383, b, anon5385)) THEN output = 0.000000 ELSE output = -0.026642;

// Best in (weighted) recall bin #6, (0.3, 0.35], from 'outerLoop #12, null' and covering 1,180.0 wgt'ed positive and 0.0 wgt'ed negative examples:
//    Wgt'ed recall = 0.308, precision = 1.000, and F1 = 0.471 - learned after 5 total and 3 acceptable nodes.  Node score = -85.67034010305203

 FOR advisedby(a, b) IF (professor(b)) THEN output = -0.063038 ELSE output = 0.000000;

// Best in (weighted) recall bin #12, (0.6, 0.65], from 'outerLoop #12, null' and covering 2,320.0 wgt'ed positive and 0.0 wgt'ed negative examples:
//    Wgt'ed recall = 0.606, precision = 1.000, and F1 = 0.754 - learned after 3 total and 1 acceptable nodes.  Node score = -88.89617493927352

 FOR advisedby(a, b) IF (publication(anon5359, b)) THEN output = -0.001461 ELSE output = -0.014772;

// Best in (weighted) recall bin #13, (0.65, 0.7], from 'outerLoop #12, null' and covering 2,651.0 wgt'ed positive and 0.0 wgt'ed negative examples:
//    Wgt'ed recall = 0.692, precision = 1.000, and F1 = 0.818 - learned after 7 total and 5 acceptable nodes.  Node score = -85.67034010305183

 FOR advisedby(a, b) IF (student(b)) THEN output = 0.000000 ELSE output = -0.063038;


////////////////////////////////////////////////////////////////////////////////
////
////     Gleaner for: outerLoop #13, null
////
////////////////////////////////////////////////////////////////////////////////

// Best in (weighted) recall bin #3, (0.15, 0.2], from 'outerLoop #13, null' and covering 722.0 wgt'ed positive and 0.0 wgt'ed negative examples:
//    Wgt'ed recall = 0.188, precision = 1.000, and F1 = 0.317 - learned after 21 total and 13 acceptable nodes.  Node score = -87.477146257418

 FOR advisedby(a, b) IF (tempAdvisedBy(anon5753, b)) THEN output = -0.043196 ELSE output = -0.009317;

// Best in (weighted) recall bin #4, (0.2, 0.25], from 'outerLoop #13, null' and covering 931.0 wgt'ed positive and 0.0 wgt'ed negative examples:
//    Wgt'ed recall = 0.243, precision = 1.000, and F1 = 0.391 - learned after 10 total and 8 acceptable nodes.  Node score = -87.46327767126226

 FOR advisedby(a, b) IF (hasPosition(b, Faculty)) THEN output = -0.053774 ELSE output = -0.008387;

// Best in (weighted) recall bin #5, (0.25, 0.3], from 'outerLoop #13, null' and covering 1,039.0 wgt'ed positive and 0.0 wgt'ed negative examples:
//    Wgt'ed recall = 0.271, precision = 1.000, and F1 = 0.427 - learned after 28 total and 20 acceptable nodes.  Node score = -88.37759847445183

 FOR advisedby(a, b) IF (ta(anon5763, b, anon5765)) THEN output = 0.000000 ELSE output = -0.026642;

// Best in (weighted) recall bin #6, (0.3, 0.35], from 'outerLoop #13, null' and covering 1,180.0 wgt'ed positive and 0.0 wgt'ed negative examples:
//    Wgt'ed recall = 0.308, precision = 1.000, and F1 = 0.471 - learned after 5 total and 3 acceptable nodes.  Node score = -85.67034010305203

 FOR advisedby(a, b) IF (professor(b)) THEN output = -0.063038 ELSE output = 0.000000;

// Best in (weighted) recall bin #12, (0.6, 0.65], from 'outerLoop #13, null' and covering 2,320.0 wgt'ed positive and 0.0 wgt'ed negative examples:
//    Wgt'ed recall = 0.606, precision = 1.000, and F1 = 0.754 - learned after 3 total and 1 acceptable nodes.  Node score = -88.89617493927352

 FOR advisedby(a, b) IF (publication(anon5739, b)) THEN output = -0.001461 ELSE output = -0.014772;

// Best in (weighted) recall bin #13, (0.65, 0.7], from 'outerLoop #13, null' and covering 2,651.0 wgt'ed positive and 0.0 wgt'ed negative examples:
//    Wgt'ed recall = 0.692, precision = 1.000, and F1 = 0.818 - learned after 7 total and 5 acceptable nodes.  Node score = -85.67034010305183

 FOR advisedby(a, b) IF (student(b)) THEN output = 0.000000 ELSE output = -0.063038;


////////////////////////////////////////////////////////////////////////////////
////
////     Gleaner for: outerLoop #14, null
////
////////////////////////////////////////////////////////////////////////////////

// Best in (weighted) recall bin #1, (0.05, 0.1], from 'outerLoop #14, null' and covering 241.0 wgt'ed positive and 0.0 wgt'ed negative examples:
//    Wgt'ed recall = 0.063, precision = 1.000, and F1 = 0.118 - learned after 24 total and 16 acceptable nodes.  Node score = -88.8778582676953

 FOR advisedby(a, b) IF (yearsInProgram(a, Year_2)) THEN output = -0.007389 ELSE output = -0.020224;

// Best in (weighted) recall bin #3, (0.15, 0.2], from 'outerLoop #14, null' and covering 722.0 wgt'ed positive and 0.0 wgt'ed negative examples:
//    Wgt'ed recall = 0.188, precision = 1.000, and F1 = 0.317 - learned after 21 total and 13 acceptable nodes.  Node score = -87.477146257418

 FOR advisedby(a, b) IF (tempAdvisedBy(anon6141, b)) THEN output = -0.043196 ELSE output = -0.009317;

// Best in (weighted) recall bin #4, (0.2, 0.25], from 'outerLoop #14, null' and covering 931.0 wgt'ed positive and 0.0 wgt'ed negative examples:
//    Wgt'ed recall = 0.243, precision = 1.000, and F1 = 0.391 - learned after 10 total and 8 acceptable nodes.  Node score = -87.46327767126226

 FOR advisedby(a, b) IF (hasPosition(b, Faculty)) THEN output = -0.053774 ELSE output = -0.008387;

// Best in (weighted) recall bin #5, (0.25, 0.3], from 'outerLoop #14, null' and covering 1,039.0 wgt'ed positive and 0.0 wgt'ed negative examples:
//    Wgt'ed recall = 0.271, precision = 1.000, and F1 = 0.427 - learned after 28 total and 20 acceptable nodes.  Node score = -88.37759847445183

 FOR advisedby(a, b) IF (ta(anon6151, b, anon6153)) THEN output = 0.000000 ELSE output = -0.026642;

// Best in (weighted) recall bin #6, (0.3, 0.35], from 'outerLoop #14, null' and covering 1,180.0 wgt'ed positive and 0.0 wgt'ed negative examples:
//    Wgt'ed recall = 0.308, precision = 1.000, and F1 = 0.471 - learned after 5 total and 3 acceptable nodes.  Node score = -85.67034010305203

 FOR advisedby(a, b) IF (professor(b)) THEN output = -0.063038 ELSE output = 0.000000;

// Best in (weighted) recall bin #12, (0.6, 0.65], from 'outerLoop #14, null' and covering 2,320.0 wgt'ed positive and 0.0 wgt'ed negative examples:
//    Wgt'ed recall = 0.606, precision = 1.000, and F1 = 0.754 - learned after 3 total and 1 acceptable nodes.  Node score = -88.89617493927352

 FOR advisedby(a, b) IF (publication(anon6127, b)) THEN output = -0.001461 ELSE output = -0.014772;

// Best in (weighted) recall bin #13, (0.65, 0.7], from 'outerLoop #14, null' and covering 2,651.0 wgt'ed positive and 0.0 wgt'ed negative examples:
//    Wgt'ed recall = 0.692, precision = 1.000, and F1 = 0.818 - learned after 7 total and 5 acceptable nodes.  Node score = -85.67034010305183

 FOR advisedby(a, b) IF (student(b)) THEN output = 0.000000 ELSE output = -0.063038;


////////////////////////////////////////////////////////////////////////////////
////
////     Gleaner for: outerLoop #15, null
////
////////////////////////////////////////////////////////////////////////////////

// Best in (weighted) recall bin #1, (0.05, 0.1], from 'outerLoop #15, null' and covering 348.0 wgt'ed positive and 0.0 wgt'ed negative examples:
//    Wgt'ed recall = 0.091, precision = 1.000, and F1 = 0.167 - learned after 13 total and 11 acceptable nodes.  Node score = -88.88653355317909

 FOR advisedby(a, b) IF (inPhase(a, Pre_Quals)) THEN output = -0.010783 ELSE output = -0.020279;

// Best in (weighted) recall bin #2, (0.1, 0.15], from 'outerLoop #15, null' and covering 468.0 wgt'ed positive and 0.0 wgt'ed negative examples:
//    Wgt'ed recall = 0.122, precision = 1.000, and F1 = 0.218 - learned after 24 total and 16 acceptable nodes.  Node score = -88.83311830772044

 FOR advisedby(a, b) IF (yearsInProgram(a, Year_4)) THEN output = -0.007019 ELSE output = -0.021142;

// Best in (weighted) recall bin #3, (0.15, 0.2], from 'outerLoop #15, null' and covering 722.0 wgt'ed positive and 0.0 wgt'ed negative examples:
//    Wgt'ed recall = 0.188, precision = 1.000, and F1 = 0.317 - learned after 21 total and 13 acceptable nodes.  Node score = -87.477146257418

 FOR advisedby(a, b) IF (tempAdvisedBy(anon6529, b)) THEN output = -0.043196 ELSE output = -0.009317;

// Best in (weighted) recall bin #4, (0.2, 0.25], from 'outerLoop #15, null' and covering 931.0 wgt'ed positive and 0.0 wgt'ed negative examples:
//    Wgt'ed recall = 0.243, precision = 1.000, and F1 = 0.391 - learned after 10 total and 8 acceptable nodes.  Node score = -87.46327767126226

 FOR advisedby(a, b) IF (hasPosition(b, Faculty)) THEN output = -0.053774 ELSE output = -0.008387;

// Best in (weighted) recall bin #5, (0.25, 0.3], from 'outerLoop #15, null' and covering 1,039.0 wgt'ed positive and 0.0 wgt'ed negative examples:
//    Wgt'ed recall = 0.271, precision = 1.000, and F1 = 0.427 - learned after 28 total and 20 acceptable nodes.  Node score = -88.37759847445183

 FOR advisedby(a, b) IF (ta(anon6539, b, anon6541)) THEN output = 0.000000 ELSE output = -0.026642;

// Best in (weighted) recall bin #6, (0.3, 0.35], from 'outerLoop #15, null' and covering 1,180.0 wgt'ed positive and 0.0 wgt'ed negative examples:
//    Wgt'ed recall = 0.308, precision = 1.000, and F1 = 0.471 - learned after 5 total and 3 acceptable nodes.  Node score = -85.67034010305203

 FOR advisedby(a, b) IF (professor(b)) THEN output = -0.063038 ELSE output = 0.000000;

// Best in (weighted) recall bin #12, (0.6, 0.65], from 'outerLoop #15, null' and covering 2,320.0 wgt'ed positive and 0.0 wgt'ed negative examples:
//    Wgt'ed recall = 0.606, precision = 1.000, and F1 = 0.754 - learned after 3 total and 1 acceptable nodes.  Node score = -88.89617493927352

 FOR advisedby(a, b) IF (publication(anon6515, b)) THEN output = -0.001461 ELSE output = -0.014772;

// Best in (weighted) recall bin #13, (0.65, 0.7], from 'outerLoop #15, null' and covering 2,651.0 wgt'ed positive and 0.0 wgt'ed negative examples:
//    Wgt'ed recall = 0.692, precision = 1.000, and F1 = 0.818 - learned after 7 total and 5 acceptable nodes.  Node score = -85.67034010305183

 FOR advisedby(a, b) IF (student(b)) THEN output = 0.000000 ELSE output = -0.063038;


////////////////////////////////////////////////////////////////////////////////
////
////     Gleaner for: outerLoop #16, null
////
////////////////////////////////////////////////////////////////////////////////

// Best in (weighted) recall bin #3, (0.15, 0.2], from 'outerLoop #16, null' and covering 722.0 wgt'ed positive and 0.0 wgt'ed negative examples:
//    Wgt'ed recall = 0.188, precision = 1.000, and F1 = 0.317 - learned after 21 total and 13 acceptable nodes.  Node score = -87.477146257418

 FOR advisedby(a, b) IF (tempAdvisedBy(anon6917, b)) THEN output = -0.043196 ELSE output = -0.009317;

// Best in (weighted) recall bin #4, (0.2, 0.25], from 'outerLoop #16, null' and covering 931.0 wgt'ed positive and 0.0 wgt'ed negative examples:
//    Wgt'ed recall = 0.243, precision = 1.000, and F1 = 0.391 - learned after 10 total and 8 acceptable nodes.  Node score = -87.46327767126226

 FOR advisedby(a, b) IF (hasPosition(b, Faculty)) THEN output = -0.053774 ELSE output = -0.008387;

// Best in (weighted) recall bin #5, (0.25, 0.3], from 'outerLoop #16, null' and covering 1,039.0 wgt'ed positive and 0.0 wgt'ed negative examples:
//    Wgt'ed recall = 0.271, precision = 1.000, and F1 = 0.427 - learned after 28 total and 20 acceptable nodes.  Node score = -88.37759847445183

 FOR advisedby(a, b) IF (ta(anon6927, b, anon6929)) THEN output = 0.000000 ELSE output = -0.026642;

// Best in (weighted) recall bin #6, (0.3, 0.35], from 'outerLoop #16, null' and covering 1,180.0 wgt'ed positive and 0.0 wgt'ed negative examples:
//    Wgt'ed recall = 0.308, precision = 1.000, and F1 = 0.471 - learned after 5 total and 3 acceptable nodes.  Node score = -85.67034010305203

 FOR advisedby(a, b) IF (professor(b)) THEN output = -0.063038 ELSE output = 0.000000;

// Best in (weighted) recall bin #12, (0.6, 0.65], from 'outerLoop #16, null' and covering 2,320.0 wgt'ed positive and 0.0 wgt'ed negative examples:
//    Wgt'ed recall = 0.606, precision = 1.000, and F1 = 0.754 - learned after 3 total and 1 acceptable nodes.  Node score = -88.89617493927352

 FOR advisedby(a, b) IF (publication(anon6903, b)) THEN output = -0.001461 ELSE output = -0.014772;

// Best in (weighted) recall bin #13, (0.65, 0.7], from 'outerLoop #16, null' and covering 2,651.0 wgt'ed positive and 0.0 wgt'ed negative examples:
//    Wgt'ed recall = 0.692, precision = 1.000, and F1 = 0.818 - learned after 7 total and 5 acceptable nodes.  Node score = -85.67034010305183

 FOR advisedby(a, b) IF (student(b)) THEN output = 0.000000 ELSE output = -0.063038;


////////////////////////////////////////////////////////////////////////////////
////
////     Gleaner for: outerLoop #17, null
////
////////////////////////////////////////////////////////////////////////////////

// Best in (weighted) recall bin #3, (0.15, 0.2], from 'outerLoop #17, null' and covering 722.0 wgt'ed positive and 0.0 wgt'ed negative examples:
//    Wgt'ed recall = 0.188, precision = 1.000, and F1 = 0.317 - learned after 21 total and 13 acceptable nodes.  Node score = -87.477146257418

 FOR advisedby(a, b) IF (tempAdvisedBy(anon7305, b)) THEN output = -0.043196 ELSE output = -0.009317;

// Best in (weighted) recall bin #4, (0.2, 0.25], from 'outerLoop #17, null' and covering 931.0 wgt'ed positive and 0.0 wgt'ed negative examples:
//    Wgt'ed recall = 0.243, precision = 1.000, and F1 = 0.391 - learned after 10 total and 8 acceptable nodes.  Node score = -87.46327767126226

 FOR advisedby(a, b) IF (hasPosition(b, Faculty)) THEN output = -0.053774 ELSE output = -0.008387;

// Best in (weighted) recall bin #5, (0.25, 0.3], from 'outerLoop #17, null' and covering 1,039.0 wgt'ed positive and 0.0 wgt'ed negative examples:
//    Wgt'ed recall = 0.271, precision = 1.000, and F1 = 0.427 - learned after 28 total and 20 acceptable nodes.  Node score = -88.37759847445183

 FOR advisedby(a, b) IF (ta(anon7315, b, anon7317)) THEN output = 0.000000 ELSE output = -0.026642;

// Best in (weighted) recall bin #6, (0.3, 0.35], from 'outerLoop #17, null' and covering 1,180.0 wgt'ed positive and 0.0 wgt'ed negative examples:
//    Wgt'ed recall = 0.308, precision = 1.000, and F1 = 0.471 - learned after 5 total and 3 acceptable nodes.  Node score = -85.67034010305203

 FOR advisedby(a, b) IF (professor(b)) THEN output = -0.063038 ELSE output = 0.000000;

// Best in (weighted) recall bin #12, (0.6, 0.65], from 'outerLoop #17, null' and covering 2,320.0 wgt'ed positive and 0.0 wgt'ed negative examples:
//    Wgt'ed recall = 0.606, precision = 1.000, and F1 = 0.754 - learned after 3 total and 1 acceptable nodes.  Node score = -88.89617493927352

 FOR advisedby(a, b) IF (publication(anon7291, b)) THEN output = -0.001461 ELSE output = -0.014772;

// Best in (weighted) recall bin #13, (0.65, 0.7], from 'outerLoop #17, null' and covering 2,651.0 wgt'ed positive and 0.0 wgt'ed negative examples:
//    Wgt'ed recall = 0.692, precision = 1.000, and F1 = 0.818 - learned after 7 total and 5 acceptable nodes.  Node score = -85.67034010305183

 FOR advisedby(a, b) IF (student(b)) THEN output = 0.000000 ELSE output = -0.063038;


////////////////////////////////////////////////////////////////////////////////
////
////     Gleaner for: outerLoop #18, null
////
////////////////////////////////////////////////////////////////////////////////

// Best in (weighted) recall bin #1, (0.05, 0.1], from 'outerLoop #18, null' and covering 351.0 wgt'ed positive and 0.0 wgt'ed negative examples:
//    Wgt'ed recall = 0.092, precision = 1.000, and F1 = 0.168 - learned after 24 total and 16 acceptable nodes.  Node score = -88.84762305086487

 FOR advisedby(a, b) IF (yearsInProgram(a, Year_3)) THEN output = -0.006205 ELSE output = -0.020749;

// Best in (weighted) recall bin #3, (0.15, 0.2], from 'outerLoop #18, null' and covering 722.0 wgt'ed positive and 0.0 wgt'ed negative examples:
//    Wgt'ed recall = 0.188, precision = 1.000, and F1 = 0.317 - learned after 21 total and 13 acceptable nodes.  Node score = -87.477146257418

 FOR advisedby(a, b) IF (tempAdvisedBy(anon7693, b)) THEN output = -0.043196 ELSE output = -0.009317;

// Best in (weighted) recall bin #4, (0.2, 0.25], from 'outerLoop #18, null' and covering 931.0 wgt'ed positive and 0.0 wgt'ed negative examples:
//    Wgt'ed recall = 0.243, precision = 1.000, and F1 = 0.391 - learned after 10 total and 8 acceptable nodes.  Node score = -87.46327767126226

 FOR advisedby(a, b) IF (hasPosition(b, Faculty)) THEN output = -0.053774 ELSE output = -0.008387;

// Best in (weighted) recall bin #5, (0.25, 0.3], from 'outerLoop #18, null' and covering 1,039.0 wgt'ed positive and 0.0 wgt'ed negative examples:
//    Wgt'ed recall = 0.271, precision = 1.000, and F1 = 0.427 - learned after 28 total and 20 acceptable nodes.  Node score = -88.37759847445183

 FOR advisedby(a, b) IF (ta(anon7703, b, anon7705)) THEN output = 0.000000 ELSE output = -0.026642;

// Best in (weighted) recall bin #6, (0.3, 0.35], from 'outerLoop #18, null' and covering 1,180.0 wgt'ed positive and 0.0 wgt'ed negative examples:
//    Wgt'ed recall = 0.308, precision = 1.000, and F1 = 0.471 - learned after 5 total and 3 acceptable nodes.  Node score = -85.67034010305203

 FOR advisedby(a, b) IF (professor(b)) THEN output = -0.063038 ELSE output = 0.000000;

// Best in (weighted) recall bin #12, (0.6, 0.65], from 'outerLoop #18, null' and covering 2,320.0 wgt'ed positive and 0.0 wgt'ed negative examples:
//    Wgt'ed recall = 0.606, precision = 1.000, and F1 = 0.754 - learned after 3 total and 1 acceptable nodes.  Node score = -88.89617493927352

 FOR advisedby(a, b) IF (publication(anon7679, b)) THEN output = -0.001461 ELSE output = -0.014772;

// Best in (weighted) recall bin #13, (0.65, 0.7], from 'outerLoop #18, null' and covering 2,651.0 wgt'ed positive and 0.0 wgt'ed negative examples:
//    Wgt'ed recall = 0.692, precision = 1.000, and F1 = 0.818 - learned after 7 total and 5 acceptable nodes.  Node score = -85.67034010305183

 FOR advisedby(a, b) IF (student(b)) THEN output = 0.000000 ELSE output = -0.063038;


////////////////////////////////////////////////////////////////////////////////
////
////     Gleaner for: outerLoop #19, null
////
////////////////////////////////////////////////////////////////////////////////

// Best in (weighted) recall bin #0, (-Infinity, 0.05], from 'outerLoop #19, null' and covering 86.0 wgt'ed positive and 0.0 wgt'ed negative examples:
//    Wgt'ed recall = 0.022, precision = 0.999, and F1 = 0.044 - learned after 24 total and 16 acceptable nodes.  Node score = -88.91505909486378

 FOR advisedby(a, b) IF (yearsInProgram(a, Year_10)) THEN output = -0.019629 ELSE output = -0.019412;

// Best in (weighted) recall bin #3, (0.15, 0.2], from 'outerLoop #19, null' and covering 722.0 wgt'ed positive and 0.0 wgt'ed negative examples:
//    Wgt'ed recall = 0.188, precision = 1.000, and F1 = 0.317 - learned after 21 total and 13 acceptable nodes.  Node score = -87.477146257418

 FOR advisedby(a, b) IF (tempAdvisedBy(anon8081, b)) THEN output = -0.043196 ELSE output = -0.009317;

// Best in (weighted) recall bin #4, (0.2, 0.25], from 'outerLoop #19, null' and covering 931.0 wgt'ed positive and 0.0 wgt'ed negative examples:
//    Wgt'ed recall = 0.243, precision = 1.000, and F1 = 0.391 - learned after 10 total and 8 acceptable nodes.  Node score = -87.46327767126226

 FOR advisedby(a, b) IF (hasPosition(b, Faculty)) THEN output = -0.053774 ELSE output = -0.008387;

// Best in (weighted) recall bin #5, (0.25, 0.3], from 'outerLoop #19, null' and covering 1,039.0 wgt'ed positive and 0.0 wgt'ed negative examples:
//    Wgt'ed recall = 0.271, precision = 1.000, and F1 = 0.427 - learned after 28 total and 20 acceptable nodes.  Node score = -88.37759847445183

 FOR advisedby(a, b) IF (ta(anon8091, b, anon8093)) THEN output = 0.000000 ELSE output = -0.026642;

// Best in (weighted) recall bin #6, (0.3, 0.35], from 'outerLoop #19, null' and covering 1,180.0 wgt'ed positive and 0.0 wgt'ed negative examples:
//    Wgt'ed recall = 0.308, precision = 1.000, and F1 = 0.471 - learned after 5 total and 3 acceptable nodes.  Node score = -85.67034010305203

 FOR advisedby(a, b) IF (professor(b)) THEN output = -0.063038 ELSE output = 0.000000;

// Best in (weighted) recall bin #12, (0.6, 0.65], from 'outerLoop #19, null' and covering 2,320.0 wgt'ed positive and 0.0 wgt'ed negative examples:
//    Wgt'ed recall = 0.606, precision = 1.000, and F1 = 0.754 - learned after 3 total and 1 acceptable nodes.  Node score = -88.89617493927352

 FOR advisedby(a, b) IF (publication(anon8067, b)) THEN output = -0.001461 ELSE output = -0.014772;

// Best in (weighted) recall bin #13, (0.65, 0.7], from 'outerLoop #19, null' and covering 2,651.0 wgt'ed positive and 0.0 wgt'ed negative examples:
//    Wgt'ed recall = 0.692, precision = 1.000, and F1 = 0.818 - learned after 7 total and 5 acceptable nodes.  Node score = -85.67034010305183

 FOR advisedby(a, b) IF (student(b)) THEN output = 0.000000 ELSE output = -0.063038;


////////////////////////////////////////////////////////////////////////////////
////
////     Gleaner for: outerLoop #20, null
////
////////////////////////////////////////////////////////////////////////////////

// Best in (weighted) recall bin #1, (0.05, 0.1], from 'outerLoop #20, null' and covering 241.0 wgt'ed positive and 0.0 wgt'ed negative examples:
//    Wgt'ed recall = 0.063, precision = 1.000, and F1 = 0.118 - learned after 24 total and 16 acceptable nodes.  Node score = -88.8778582676953

 FOR advisedby(a, b) IF (yearsInProgram(a, Year_2)) THEN output = -0.007389 ELSE output = -0.020224;

// Best in (weighted) recall bin #3, (0.15, 0.2], from 'outerLoop #20, null' and covering 722.0 wgt'ed positive and 0.0 wgt'ed negative examples:
//    Wgt'ed recall = 0.188, precision = 1.000, and F1 = 0.317 - learned after 21 total and 13 acceptable nodes.  Node score = -87.477146257418

 FOR advisedby(a, b) IF (tempAdvisedBy(anon8469, b)) THEN output = -0.043196 ELSE output = -0.009317;

// Best in (weighted) recall bin #4, (0.2, 0.25], from 'outerLoop #20, null' and covering 931.0 wgt'ed positive and 0.0 wgt'ed negative examples:
//    Wgt'ed recall = 0.243, precision = 1.000, and F1 = 0.391 - learned after 10 total and 8 acceptable nodes.  Node score = -87.46327767126226

 FOR advisedby(a, b) IF (hasPosition(b, Faculty)) THEN output = -0.053774 ELSE output = -0.008387;

// Best in (weighted) recall bin #5, (0.25, 0.3], from 'outerLoop #20, null' and covering 1,039.0 wgt'ed positive and 0.0 wgt'ed negative examples:
//    Wgt'ed recall = 0.271, precision = 1.000, and F1 = 0.427 - learned after 28 total and 20 acceptable nodes.  Node score = -88.37759847445183

 FOR advisedby(a, b) IF (ta(anon8479, b, anon8481)) THEN output = 0.000000 ELSE output = -0.026642;

// Best in (weighted) recall bin #6, (0.3, 0.35], from 'outerLoop #20, null' and covering 1,180.0 wgt'ed positive and 0.0 wgt'ed negative examples:
//    Wgt'ed recall = 0.308, precision = 1.000, and F1 = 0.471 - learned after 5 total and 3 acceptable nodes.  Node score = -85.67034010305203

 FOR advisedby(a, b) IF (professor(b)) THEN output = -0.063038 ELSE output = 0.000000;

// Best in (weighted) recall bin #12, (0.6, 0.65], from 'outerLoop #20, null' and covering 2,320.0 wgt'ed positive and 0.0 wgt'ed negative examples:
//    Wgt'ed recall = 0.606, precision = 1.000, and F1 = 0.754 - learned after 3 total and 1 acceptable nodes.  Node score = -88.89617493927352

 FOR advisedby(a, b) IF (publication(anon8455, b)) THEN output = -0.001461 ELSE output = -0.014772;

// Best in (weighted) recall bin #13, (0.65, 0.7], from 'outerLoop #20, null' and covering 2,651.0 wgt'ed positive and 0.0 wgt'ed negative examples:
//    Wgt'ed recall = 0.692, precision = 1.000, and F1 = 0.818 - learned after 7 total and 5 acceptable nodes.  Node score = -85.67034010305183

 FOR advisedby(a, b) IF (student(b)) THEN output = 0.000000 ELSE output = -0.063038;

