digraph G{ 
1[label = "[atm(a, b, C, 27, c), bond(a, d, e, 2)]"];
1 -> 2[label="True"];
1 -> 3[label="False"];
2[shape = box,label = "0.007(0.502)"];
3[label = "[atm(a, f, C, 22, g), bond(a, h, f, 1)]"];
3 -> 4[label="True"];
3 -> 5[label="False"];
4[label = "[bond(a, i, h, 1), atm(a, j, C, 22, g)]"];
4 -> 6[label="True"];
4 -> 7[label="False"];
6[shape = box,label = "0.014(0.504)"];
7[label = "[bond(a, k, h, 2), nitro(a, m)]"];
7 -> 8[label="True"];
7 -> 9[label="False"];
8[shape = box,label = "0.053(0.513)"];
9[shape = box,label = "-0.082(0.480)"];
5[label = "[atm(a, n, CL, 93, p)]"];
5 -> 10[label="True"];
5 -> 11[label="False"];
10[shape = box,label = "-0.182(0.455)"];
11[label = "[atm(a, q, H, 1, r), methyl(a, s)]"];
11 -> 12[label="True"];
11 -> 13[label="False"];
12[shape = box,label = "0.055(0.514)"];
13[label = "[atm(a, t, C, 16, u), bond(a, v, t, 1)]"];
13 -> 14[label="True"];
13 -> 15[label="False"];
14[shape = box,label = "0.129(0.532)"];
15[label = "[atm(a, w, N, 32, x), nitro(a, y)]"];
15 -> 16[label="True"];
15 -> 17[label="False"];
16[shape = box,label = "-0.123(0.469)"];
17[shape = box,label = "-0.042(0.490)"];
}
