pos, 0.9363118797248151, active(D25)
pos, 0.348781586405701, active(D45)
pos, 0.1620818974966346, active(D54)
pos, 0.8939143243241423, active(D58)
pos, 0.5844583034671577, active(D75)
pos, 0.9292968581821447, active(D101)
pos, 0.5769412607705663, active(D140)
pos, 0.7722423509059373, active(D149)
pos, 0.9292968581821447, active(D159)
pos, 0.6661338413078796, active(D171)
pos, 0.9193398397702996, active(D8)
pos, 0.931095054647403, active(D47)
pos, 0.9398768861557835, active(D121)
pos, 0.8939143243241423, active(D134)
neg, 0.6470826312865839, active(D70)
neg, 0.41753111719296293, active(D77)
neg, 0.2896645036146613, active(D111)
neg, 0.3180246854477, active(D62)
neg, 0.3290616924468686, active(D179)

