digraph RDN{
0[style="filled" label="christian_religion(State)" color="gray52"];
11 -> 0[label="" style=solid];
3 -> 0[label="" style=solid];
32 -> 0[label="" style=solid];
21 -> 0[label="" style=solid];
2 -> 0[label="" style=solid];
31 -> 0[label="" style=solid];
6 -> 0[label="" style=solid];
1[style="filled" label="<=()" color="gray92"];
2[style="filled" label="language(State,Language,Perl)" color="gray92"];
3[style="filled" label="isMember(State,Org,Mtype)" color="gray92"];
4[style="filled" label="memberOfList(willAnything,willList)" color="gray82"];
12 -> 4[label="" style=dashed];
5[style="filled" label="number()" color="gray92"];
6[style="filled" label="greaterGdp(Gdp,Gdp)" color="gray82"];
20 -> 6[label="" style=dashed];
5 -> 6[label="" style=dashed];
7[style="filled" label="intersection()" color="gray82"];
7 -> 7[label="" style=dashed];
8[style="filled" label="different()" color="gray82"];
24 -> 8[label="" style=dashed];
9[style="filled" label="=<()" color="gray92"];
10[style="filled" label="var()" color="gray92"];
11[style="filled" label="economy(State,Gdp,Agric,Serv,Indus,Infl)" color="gray92"];
12[style="filled" label="list()" color="gray92"];
13[style="filled" label="equalWithSmallTolerance()" color="gray82"];
18 -> 13[label="" style=dashed];
5 -> 13[label="" style=dashed];
14[style="filled" label="fail()" color="gray92"];
15[style="filled" label="contains()" color="gray82"];
15 -> 15[label="" style=dashed];
16[style="filled" label="true()" color="gray92"];
17[style="filled" label="ground()" color="gray92"];
18[style="filled" label="<()" color="gray92"];
19[style="filled" label="multiplyListOfNumbers()" color="gray92"];
20[style="filled" label=">=()" color="gray92"];
21[style="filled" label="borders(State,State,Length)" color="gray92"];
22[style="filled" label="allNumbers(willList)" color="gray82"];
5 -> 22[label="" style=dashed];
22 -> 22[label="" style=dashed];
23[style="filled" label="isaInterestingNumber()" color="gray82"];
23 -> 23[label="" style=dashed];
13 -> 23[label="" style=dashed];
24[style="filled" label="\+()" color="gray92"];
25[style="filled" label="isaInterestingSymbol()" color="gray82"];
25 -> 25[label="" style=dashed];
26[style="filled" label="isaEqualTolerance(willNumber)" color="gray82"];
20 -> 26[label="" style=dashed];
5 -> 26[label="" style=dashed];
27[style="filled" label="addListOfNumbers()" color="gray92"];
28[style="filled" label="false()" color="gray92"];
29[style="filled" label="union()" color="gray82"];
29 -> 29[label="" style=dashed];
24 -> 29[label="" style=dashed];
30[style="filled" label="call()" color="gray92"];
31[style="filled" label="organization(Org,Name,City,State,Region,Date)" color="gray92"];
32[style="filled" label="ethnicGroup(State,Group,Perg)" color="gray92"];
33[style="filled" label="sameAs()" color="gray82"];
5 -> 33[label="" style=dashed];
33 -> 33[label="" style=dashed];
13 -> 33[label="" style=dashed];
}
