digraph G{ 
1[label = "[borders(a, b, c), ethnicGroup(a, d, e)]"];
1 -> 2[label="True"];
1 -> 3[label="False"];
2[label = "[borders(f, a, g), ethnicGroup(f, h, e)]"];
2 -> 4[label="True"];
2 -> 5[label="False"];
4[shape = box,label = "0.106(0.527)"];
5[label = "[borders(b, i, j)]"];
5 -> 6[label="True"];
5 -> 7[label="False"];
6[label = "[borders(k, i, c)]"];
6 -> 8[label="True"];
6 -> 9[label="False"];
8[shape = box,label = "-0.183(0.454)"];
9[label = "[ethnicGroup(b, m, e)]"];
9 -> 10[label="True"];
9 -> 11[label="False"];
10[shape = box,label = "0.035(0.509)"];
11[label = "[ethnicGroup(i, d, e), borders(a, i, n)]"];
11 -> 12[label="True"];
11 -> 13[label="False"];
12[shape = box,label = "-0.259(0.436)"];
13[shape = box,label = "-0.044(0.489)"];
7[shape = box,label = "0.114(0.529)"];
3[label = "[borders(p, a, q), organization(r, s, t, a, u, v)]"];
3 -> 14[label="True"];
3 -> 15[label="False"];
14[shape = box,label = "0.183(0.546)"];
15[label = "[language(a, w, x), ethnicGroup(a, y, z)]"];
15 -> 16[label="True"];
15 -> 17[label="False"];
16[shape = box,label = "0.115(0.529)"];
17[shape = box,label = "0.017(0.504)"];
}
