digraph G{ 
1[label = "[borders(b, a, c), borders(d, b, e)]"];
1 -> 2[label="True"];
1 -> 3[label="False"];
2[label = "[borders(f, d, g)]"];
2 -> 4[label="True"];
2 -> 5[label="False"];
4[shape = box,label = "-0.044(0.489)"];
5[label = "[language(d, h, i)]"];
5 -> 6[label="True"];
5 -> 7[label="False"];
6[shape = box,label = "-0.087(0.478)"];
7[shape = box,label = "0.183(0.546)"];
3[label = "[borders(j, a, k), language(j, m, n)]"];
3 -> 8[label="True"];
3 -> 9[label="False"];
8[shape = box,label = "0.195(0.549)"];
9[label = "[language(a, p, q), borders(r, a, s)]"];
9 -> 10[label="True"];
9 -> 11[label="False"];
10[shape = box,label = "0.216(0.554)"];
11[label = "[ethnicGroup(a, t, u), organization(v, w, x, a, y, z)]"];
11 -> 12[label="True"];
11 -> 13[label="False"];
12[shape = box,label = "-0.112(0.472)"];
13[label = "[language(a, aa, ab)]"];
13 -> 14[label="True"];
13 -> 15[label="False"];
14[shape = box,label = "0.091(0.523)"];
15[label = "[economy(a, ac, ad, ae, af, ag), greaterGdp(ac, ac)]"];
15 -> 16[label="True"];
15 -> 17[label="False"];
16[shape = box,label = "0.041(0.510)"];
17[shape = box,label = "-0.367(0.409)"];
}
