digraph G{ 
1[label = "[hasPosition(b, Faculty), student(a)]"];
1 -> 2[label="True"];
1 -> 3[label="False"];
2[label = "[tempAdvisedBy(c, b), inPhase(a, Post_Generals)]"];
2 -> 4[label="True"];
2 -> 5[label="False"];
4[shape = box,label = "-0.035(0.491)"];
5[label = "[tempAdvisedBy(d, b), ta(e, d, f)]"];
5 -> 6[label="True"];
5 -> 7[label="False"];
6[label = "[taughtBy(g, b, f), taughtBy(e, h, f)]"];
6 -> 8[label="True"];
6 -> 9[label="False"];
8[label = "[courseLevel(e, Level_300), publication(i, b)]"];
8 -> 10[label="True"];
8 -> 11[label="False"];
10[shape = box,label = "-0.137(0.466)"];
11[label = "[inPhase(a, Post_Quals)]"];
11 -> 12[label="True"];
11 -> 13[label="False"];
12[shape = box,label = "0.067(0.517)"];
13[shape = box,label = "-0.105(0.474)"];
9[label = "[publication(j, a)]"];
9 -> 14[label="True"];
9 -> 15[label="False"];
14[shape = box,label = "-0.079(0.480)"];
15[label = "[ta(k, a, m), taughtBy(n, b, m)]"];
15 -> 16[label="True"];
15 -> 17[label="False"];
16[shape = box,label = "0.024(0.506)"];
17[shape = box,label = "0.416(0.603)"];
7[shape = box,label = "-0.011(0.497)"];
3[shape = box,label = "-0.044(0.489)"];
}
