digraph G{ 
1[label = "[taughtBy(c, b, d), ta(c, a, d)]"];
1 -> 2[label="True"];
1 -> 3[label="False"];
2[label = "[publication(e, b)]"];
2 -> 4[label="True"];
2 -> 5[label="False"];
4[label = "[taughtBy(f, a, g), ta(f, h, g)]"];
4 -> 6[label="True"];
4 -> 7[label="False"];
6[shape = box,label = "-0.120(0.470)"];
7[label = "[tempAdvisedBy(i, b), inPhase(i, Pre_Quals)]"];
7 -> 8[label="True"];
7 -> 9[label="False"];
8[label = "[ta(j, i, d), taughtBy(j, b, k)]"];
8 -> 10[label="True"];
8 -> 11[label="False"];
10[shape = box,label = "0.196(0.549)"];
11[label = "[publication(m, a)]"];
11 -> 12[label="True"];
11 -> 13[label="False"];
12[shape = box,label = "0.458(0.613)"];
13[shape = box,label = "0.756(0.681)"];
9[label = "[publication(e, a)]"];
9 -> 14[label="True"];
9 -> 15[label="False"];
14[shape = box,label = "0.368(0.591)"];
15[shape = box,label = "0.010(0.502)"];
5[shape = box,label = "-0.116(0.471)"];
3[label = "[professor(b), student(a)]"];
3 -> 16[label="True"];
3 -> 17[label="False"];
16[shape = box,label = "-0.016(0.496)"];
17[shape = box,label = "-0.102(0.475)"];
}
