digraph G{ 
1[label = "[professor(b), student(a)]"];
1 -> 2[label="True"];
1 -> 3[label="False"];
2[label = "[publication(c, b), publication(c, a)]"];
2 -> 4[label="True"];
2 -> 5[label="False"];
4[label = "[publication(c, d), inPhase(d, Post_Generals)]"];
4 -> 6[label="True"];
4 -> 7[label="False"];
6[label = "[taughtBy(e, d, f)]"];
6 -> 8[label="True"];
6 -> 9[label="False"];
8[shape = box,label = "-0.053(0.487)"];
9[label = "[yearsInProgram(d, Year_12), tempAdvisedBy(g, b)]"];
9 -> 10[label="True"];
9 -> 11[label="False"];
10[shape = box,label = "-0.041(0.490)"];
11[label = "[yearsInProgram(a, Year_6)]"];
11 -> 12[label="True"];
11 -> 13[label="False"];
12[shape = box,label = "0.309(0.577)"];
13[shape = box,label = "0.094(0.524)"];
7[shape = box,label = "0.241(0.560)"];
5[label = "[inPhase(a, Post_Generals), publication(h, a)]"];
5 -> 14[label="True"];
5 -> 15[label="False"];
14[shape = box,label = "-0.062(0.485)"];
15[label = "[tempAdvisedBy(i, b), taughtBy(j, b, k)]"];
15 -> 16[label="True"];
15 -> 17[label="False"];
16[shape = box,label = "-0.017(0.496)"];
17[shape = box,label = "0.040(0.510)"];
3[shape = box,label = "-0.049(0.488)"];
}
