digraph G{ 
1[label = "[borders(a, b, c), borders(b, d, e)]"];
1 -> 2[label="True"];
1 -> 3[label="False"];
2[label = "[ethnicGroup(a, f, g), ethnicGroup(b, f, h)]"];
2 -> 4[label="True"];
2 -> 5[label="False"];
4[shape = box,label = "-0.061(0.485)"];
5[label = "[language(b, i, j), language(d, k, j)]"];
5 -> 6[label="True"];
5 -> 7[label="False"];
6[shape = box,label = "0.318(0.579)"];
7[shape = box,label = "0.031(0.508)"];
3[label = "[borders(a, m, n), language(m, p, q)]"];
3 -> 8[label="True"];
3 -> 9[label="False"];
8[label = "[language(a, p, r), ethnicGroup(m, s, t)]"];
8 -> 10[label="True"];
8 -> 11[label="False"];
10[shape = box,label = "-0.051(0.487)"];
11[shape = box,label = "0.228(0.557)"];
9[label = "[borders(a, u, v), borders(w, a, x)]"];
9 -> 12[label="True"];
9 -> 13[label="False"];
12[shape = box,label = "-0.082(0.480)"];
13[label = "[borders(y, a, z), organization(aa, ab, ac, y, ad, ae)]"];
13 -> 14[label="True"];
13 -> 15[label="False"];
14[shape = box,label = "0.115(0.529)"];
15[label = "[borders(af, a, ag), ethnicGroup(af, ah, ai)]"];
15 -> 16[label="True"];
15 -> 17[label="False"];
16[shape = box,label = "-0.165(0.459)"];
17[shape = box,label = "0.054(0.514)"];
}
