digraph G{ 
1[label = "[organization(b, c, d, a, e, f), borders(g, a, h)]"];
1 -> 2[label="True"];
1 -> 3[label="False"];
2[shape = box,label = "0.047(0.512)"];
3[label = "[borders(i, a, j), ethnicGroup(i, k, m)]"];
3 -> 4[label="True"];
3 -> 5[label="False"];
4[label = "[borders(n, i, p), borders(n, a, q)]"];
4 -> 6[label="True"];
4 -> 7[label="False"];
6[shape = box,label = "-0.076(0.481)"];
7[label = "[language(i, r, s)]"];
7 -> 8[label="True"];
7 -> 9[label="False"];
8[shape = box,label = "0.169(0.542)"];
9[shape = box,label = "-0.047(0.488)"];
5[label = "[borders(t, a, u)]"];
5 -> 10[label="True"];
5 -> 11[label="False"];
10[shape = box,label = "0.158(0.539)"];
11[label = "[ethnicGroup(a, v, w), isMember(a, x, y)]"];
11 -> 12[label="True"];
11 -> 13[label="False"];
12[shape = box,label = "0.027(0.507)"];
13[label = "[economy(a, z, aa, ab, ac, ad), greaterGdp(z, z)]"];
13 -> 14[label="True"];
13 -> 15[label="False"];
14[label = "[ethnicGroup(a, ae, af)]"];
14 -> 16[label="True"];
14 -> 17[label="False"];
16[shape = box,label = "0.139(0.535)"];
17[shape = box,label = "-0.025(0.494)"];
15[shape = box,label = "-0.275(0.432)"];
}
