digraph G{ 
1[label = "[borders(a, b, c), borders(b, d, e)]"];
1 -> 2[label="True"];
1 -> 3[label="False"];
2[label = "[language(d, f, g)]"];
2 -> 4[label="True"];
2 -> 5[label="False"];
4[label = "[language(a, h, g)]"];
4 -> 6[label="True"];
4 -> 7[label="False"];
6[shape = box,label = "0.441(0.609)"];
7[label = "[borders(a, d, i)]"];
7 -> 8[label="True"];
7 -> 9[label="False"];
8[shape = box,label = "0.098(0.525)"];
9[label = "[language(b, f, j)]"];
9 -> 10[label="True"];
9 -> 11[label="False"];
10[shape = box,label = "0.121(0.530)"];
11[shape = box,label = "0.294(0.573)"];
5[label = "[borders(d, k, m), borders(a, k, n)]"];
5 -> 12[label="True"];
5 -> 13[label="False"];
12[shape = box,label = "0.266(0.566)"];
13[shape = box,label = "-0.084(0.479)"];
3[label = "[borders(p, a, q), organization(r, s, t, p, u, v)]"];
3 -> 14[label="True"];
3 -> 15[label="False"];
14[shape = box,label = "0.262(0.565)"];
15[label = "[borders(w, a, x), ethnicGroup(w, y, z)]"];
15 -> 16[label="True"];
15 -> 17[label="False"];
16[shape = box,label = "-0.088(0.478)"];
17[shape = box,label = "0.220(0.555)"];
}
