digraph G{ 
1[label = "[borders(b, a, c), organization(d, e, f, b, g, h)]"];
1 -> 2[label="True"];
1 -> 3[label="False"];
2[shape = box,label = "0.042(0.511)"];
3[label = "[borders(a, i, j), organization(k, m, n, i, p, q)]"];
3 -> 4[label="True"];
3 -> 5[label="False"];
4[shape = box,label = "0.065(0.516)"];
5[label = "[borders(r, a, s), organization(t, u, v, a, w, x)]"];
5 -> 6[label="True"];
5 -> 7[label="False"];
6[shape = box,label = "-0.200(0.450)"];
7[label = "[borders(a, y, z), borders(y, aa, ab)]"];
7 -> 8[label="True"];
7 -> 9[label="False"];
8[label = "[language(a, ac, ad), language(aa, ac, ae)]"];
8 -> 10[label="True"];
8 -> 11[label="False"];
10[shape = box,label = "0.132(0.533)"];
11[label = "[borders(af, a, ag), borders(af, aa, ah)]"];
11 -> 12[label="True"];
11 -> 13[label="False"];
12[shape = box,label = "0.106(0.526)"];
13[shape = box,label = "-0.260(0.435)"];
9[label = "[borders(ai, a, aj), ethnicGroup(ai, ak, am)]"];
9 -> 14[label="True"];
9 -> 15[label="False"];
14[shape = box,label = "-0.093(0.477)"];
15[label = "[economy(a, an, ap, aq, ar, as), greaterGdp(an, an)]"];
15 -> 16[label="True"];
15 -> 17[label="False"];
16[shape = box,label = "0.047(0.512)"];
17[shape = box,label = "-0.202(0.450)"];
}
