digraph RDN{
0[style="filled" label="<=()" color="gray92"];
1[style="filled" label="memberOfList(willAnything,willList)" color="gray82"];
10 -> 1[label="" style=dashed];
2[style="filled" label="number()" color="gray92"];
3[style="filled" label="intersection()" color="gray82"];
3 -> 3[label="" style=dashed];
4[style="filled" label="atm(Drug,Atomid,Element,Atmtype,Charge)" color="gray92"];
5[style="filled" label="different()" color="gray82"];
23 -> 5[label="" style=dashed];
6[style="filled" label="=<()" color="gray92"];
7[style="filled" label="var()" color="gray92"];
8[style="filled" label="active(Drug)" color="gray52"];
4 -> 8[label="" style=solid];
9 -> 8[label="" style=solid];
25 -> 8[label="" style=solid];
30 -> 8[label="" style=solid];
31 -> 8[label="" style=solid];
20 -> 8[label="" style=solid];
9[style="filled" label="nitro(Drug,Ring)" color="gray92"];
10[style="filled" label="list()" color="gray92"];
11[style="filled" label="equalWithSmallTolerance()" color="gray82"];
16 -> 11[label="" style=dashed];
2 -> 11[label="" style=dashed];
12[style="filled" label="fail()" color="gray92"];
13[style="filled" label="contains()" color="gray82"];
13 -> 13[label="" style=dashed];
14[style="filled" label="true()" color="gray92"];
15[style="filled" label="ground()" color="gray92"];
16[style="filled" label="<()" color="gray92"];
17[style="filled" label="multiplyListOfNumbers()" color="gray92"];
18[style="filled" label=">=()" color="gray92"];
19[style="filled" label="=:=()" color="gray92"];
20[style="filled" label="ring_size_5(Drug,Ring)" color="gray92"];
21[style="filled" label="allNumbers(willList)" color="gray82"];
2 -> 21[label="" style=dashed];
21 -> 21[label="" style=dashed];
22[style="filled" label="isaInterestingNumber()" color="gray82"];
22 -> 22[label="" style=dashed];
11 -> 22[label="" style=dashed];
23[style="filled" label="\+()" color="gray92"];
24[style="filled" label="isaInterestingSymbol()" color="gray82"];
24 -> 24[label="" style=dashed];
25[style="filled" label="methyl(Drug,Ring)" color="gray92"];
26[style="filled" label="isaEqualTolerance(willNumber)" color="gray82"];
18 -> 26[label="" style=dashed];
2 -> 26[label="" style=dashed];
27[style="filled" label="addListOfNumbers()" color="gray92"];
28[style="filled" label="false()" color="gray92"];
29[style="filled" label="union()" color="gray82"];
29 -> 29[label="" style=dashed];
23 -> 29[label="" style=dashed];
30[style="filled" label="bond(Drug,Atomid,Atomid,Bondtype)" color="gray92"];
31[style="filled" label="benzene(Drug,Ring)" color="gray92"];
32[style="filled" label="call()" color="gray92"];
33[style="filled" label="sameAs()" color="gray82"];
2 -> 33[label="" style=dashed];
33 -> 33[label="" style=dashed];
11 -> 33[label="" style=dashed];
}
