digraph G{ 
1[label = "[hasPosition(b, Faculty), student(a)]"];
1 -> 2[label="True"];
1 -> 3[label="False"];
2[label = "[publication(c, a), publication(c, d)]"];
2 -> 4[label="True"];
2 -> 5[label="False"];
4[shape = box,label = "-0.003(0.499)"];
5[label = "[taughtBy(e, a, f), taughtBy(g, b, f)]"];
5 -> 6[label="True"];
5 -> 7[label="False"];
6[shape = box,label = "0.393(0.597)"];
7[label = "[ta(h, a, i), taughtBy(h, b, i)]"];
7 -> 8[label="True"];
7 -> 9[label="False"];
8[label = "[courseLevel(h, Level_400), taughtBy(h, b, j)]"];
8 -> 10[label="True"];
8 -> 11[label="False"];
10[label = "[tempAdvisedBy(k, b), taughtBy(m, b, j)]"];
10 -> 12[label="True"];
10 -> 13[label="False"];
12[shape = box,label = "0.159(0.540)"];
13[shape = box,label = "0.128(0.532)"];
11[label = "[publication(n, b), inPhase(a, Pre_Quals)]"];
11 -> 14[label="True"];
11 -> 15[label="False"];
14[shape = box,label = "-0.014(0.496)"];
15[shape = box,label = "0.042(0.510)"];
9[label = "[publication(p, b), taughtBy(q, a, r)]"];
9 -> 16[label="True"];
9 -> 17[label="False"];
16[shape = box,label = "0.026(0.507)"];
17[shape = box,label = "-0.000(0.500)"];
3[shape = box,label = "-0.041(0.490)"];
}
