digraph G{ 
1[label = "[student(a), hasPosition(b, Faculty)]"];
1 -> 2[label="True"];
1 -> 3[label="False"];
2[label = "[publication(c, a), publication(c, b)]"];
2 -> 4[label="True"];
2 -> 5[label="False"];
4[label = "[tempAdvisedBy(d, b), taughtBy(e, a, f)]"];
4 -> 6[label="True"];
4 -> 7[label="False"];
6[shape = box,label = "0.052(0.513)"];
7[label = "[publication(c, g), inPhase(g, Post_Generals)]"];
7 -> 8[label="True"];
7 -> 9[label="False"];
8[label = "[inPhase(a, Post_Quals), publication(h, g)]"];
8 -> 10[label="True"];
8 -> 11[label="False"];
10[shape = box,label = "-0.023(0.494)"];
11[label = "[tempAdvisedBy(i, b), publication(c, i)]"];
11 -> 12[label="True"];
11 -> 13[label="False"];
12[shape = box,label = "0.129(0.532)"];
13[shape = box,label = "0.006(0.502)"];
9[shape = box,label = "0.031(0.508)"];
5[label = "[tempAdvisedBy(j, b), tempAdvisedBy(k, b)]"];
5 -> 14[label="True"];
5 -> 15[label="False"];
14[shape = box,label = "-0.019(0.495)"];
15[label = "[publication(m, a), publication(m, n)]"];
15 -> 16[label="True"];
15 -> 17[label="False"];
16[shape = box,label = "-0.003(0.499)"];
17[shape = box,label = "0.079(0.520)"];
3[shape = box,label = "-0.046(0.488)"];
}
