digraph G{ 
1[label = "[hasPosition(b, Faculty), student(a)]"];
1 -> 2[label="True"];
1 -> 3[label="False"];
2[label = "[publication(c, a), inPhase(a, Post_Generals)]"];
2 -> 4[label="True"];
2 -> 5[label="False"];
4[shape = box,label = "-0.034(0.492)"];
5[label = "[tempAdvisedBy(d, b), publication(e, d)]"];
5 -> 6[label="True"];
5 -> 7[label="False"];
6[shape = box,label = "-0.048(0.488)"];
7[label = "[publication(f, b), publication(g, a)]"];
7 -> 8[label="True"];
7 -> 9[label="False"];
8[label = "[ta(h, a, i), taughtBy(h, b, j)]"];
8 -> 10[label="True"];
8 -> 11[label="False"];
10[shape = box,label = "0.168(0.542)"];
11[shape = box,label = "-0.025(0.494)"];
9[label = "[publication(k, a)]"];
9 -> 12[label="True"];
9 -> 13[label="False"];
12[label = "[publication(k, m), tempAdvisedBy(m, n)]"];
12 -> 14[label="True"];
12 -> 15[label="False"];
14[shape = box,label = "0.416(0.602)"];
15[shape = box,label = "0.045(0.511)"];
13[label = "[yearsInProgram(a, Year_3), publication(p, b)]"];
13 -> 16[label="True"];
13 -> 17[label="False"];
16[shape = box,label = "0.096(0.524)"];
17[shape = box,label = "0.012(0.503)"];
3[shape = box,label = "-0.043(0.489)"];
}
