digraph G{ 
1[label = "[inPhase(a, Post_Quals), professor(b)]"];
1 -> 2[label="True"];
1 -> 3[label="False"];
2[label = "[publication(c, b), publication(d, a)]"];
2 -> 4[label="True"];
2 -> 5[label="False"];
4[label = "[ta(e, a, f), taughtBy(e, b, g)]"];
4 -> 6[label="True"];
4 -> 7[label="False"];
6[shape = box,label = "0.187(0.547)"];
7[shape = box,label = "-0.051(0.487)"];
5[label = "[ta(h, a, i), taughtBy(h, b, i)]"];
5 -> 8[label="True"];
5 -> 9[label="False"];
8[shape = box,label = "0.262(0.565)"];
9[label = "[yearsInProgram(a, Year_2), tempAdvisedBy(j, b)]"];
9 -> 10[label="True"];
9 -> 11[label="False"];
10[shape = box,label = "-0.054(0.487)"];
11[label = "[tempAdvisedBy(k, b), inPhase(k, Post_Quals)]"];
11 -> 12[label="True"];
11 -> 13[label="False"];
12[label = "[yearsInProgram(k, Year_4)]"];
12 -> 14[label="True"];
12 -> 15[label="False"];
14[shape = box,label = "0.293(0.573)"];
15[shape = box,label = "-0.099(0.475)"];
13[label = "[hasPosition(b, Faculty), publication(m, a)]"];
13 -> 16[label="True"];
13 -> 17[label="False"];
16[shape = box,label = "0.245(0.561)"];
17[shape = box,label = "0.042(0.511)"];
3[shape = box,label = "-0.049(0.488)"];
}
