digraph G{ 
1[label = "[professor(b), student(a)]"];
1 -> 2[label="True"];
1 -> 3[label="False"];
2[label = "[publication(c, b), publication(c, a)]"];
2 -> 4[label="True"];
2 -> 5[label="False"];
4[label = "[hasPosition(b, Faculty)]"];
4 -> 6[label="True"];
4 -> 7[label="False"];
6[label = "[ta(d, a, e)]"];
6 -> 8[label="True"];
6 -> 9[label="False"];
8[label = "[taughtBy(d, b, f), tempAdvisedBy(g, b)]"];
8 -> 10[label="True"];
8 -> 11[label="False"];
10[shape = box,label = "0.309(0.577)"];
11[shape = box,label = "-0.004(0.499)"];
9[label = "[publication(c, h), yearsInProgram(h, Year_5)]"];
9 -> 12[label="True"];
9 -> 13[label="False"];
12[label = "[tempAdvisedBy(i, b), ta(j, i, k)]"];
12 -> 14[label="True"];
12 -> 15[label="False"];
14[shape = box,label = "0.360(0.589)"];
15[shape = box,label = "0.011(0.503)"];
13[label = "[taughtBy(m, b, n)]"];
13 -> 16[label="True"];
13 -> 17[label="False"];
16[shape = box,label = "0.414(0.602)"];
17[shape = box,label = "0.085(0.521)"];
7[shape = box,label = "0.709(0.670)"];
5[shape = box,label = "-0.034(0.491)"];
3[shape = box,label = "-0.086(0.478)"];
}
