digraph G{ 
1[label = "[professor(b), student(a)]"];
1 -> 2[label="True"];
1 -> 3[label="False"];
2[label = "[publication(c, a)]"];
2 -> 4[label="True"];
2 -> 5[label="False"];
4[shape = box,label = "-0.030(0.492)"];
5[label = "[tempAdvisedBy(d, b), inPhase(a, Pre_Quals)]"];
5 -> 6[label="True"];
5 -> 7[label="False"];
6[shape = box,label = "-0.041(0.490)"];
7[label = "[taughtBy(e, b, f), courseLevel(e, Level_400)]"];
7 -> 8[label="True"];
7 -> 9[label="False"];
8[label = "[yearsInProgram(a, Year_6), ta(e, a, g)]"];
8 -> 10[label="True"];
8 -> 11[label="False"];
10[shape = box,label = "0.501(0.623)"];
11[label = "[tempAdvisedBy(h, b), publication(i, h)]"];
11 -> 12[label="True"];
11 -> 13[label="False"];
12[shape = box,label = "-0.070(0.483)"];
13[shape = box,label = "0.053(0.513)"];
9[label = "[tempAdvisedBy(j, b), publication(k, j)]"];
9 -> 14[label="True"];
9 -> 15[label="False"];
14[shape = box,label = "0.264(0.566)"];
15[label = "[yearsInProgram(a, Year_2), inPhase(a, Post_Quals)]"];
15 -> 16[label="True"];
15 -> 17[label="False"];
16[shape = box,label = "0.124(0.531)"];
17[shape = box,label = "-0.066(0.484)"];
3[shape = box,label = "-0.047(0.488)"];
}
