digraph G{ 
1[label = "[methyl(a, b)]"];
1 -> 2[label="True"];
1 -> 3[label="False"];
2[label = "[atm(a, c, C, 14, d), bond(a, e, c, 1)]"];
2 -> 4[label="True"];
2 -> 5[label="False"];
4[shape = box,label = "0.573(0.640)"];
5[shape = box,label = "-0.086(0.479)"];
3[label = "[atm(a, f, N, 32, g), ring_size_6(a, h)]"];
3 -> 6[label="True"];
3 -> 7[label="False"];
6[label = "[atm(a, i, H, 3, j), ring_size_5(a, k)]"];
6 -> 8[label="True"];
6 -> 9[label="False"];
8[shape = box,label = "0.005(0.501)"];
9[label = "[atm(a, m, H, 3, n), atm(a, p, C, 29, q)]"];
9 -> 10[label="True"];
9 -> 11[label="False"];
10[shape = box,label = "0.004(0.501)"];
11[shape = box,label = "0.014(0.503)"];
7[label = "[hetero_aromatic_6_ring(a, r), hetero_aromatic_6_ring(a, s)]"];
7 -> 12[label="True"];
7 -> 13[label="False"];
12[shape = box,label = "0.058(0.515)"];
13[label = "[hetero_aromatic_5_ring(a, t), benzene(a, u)]"];
13 -> 14[label="True"];
13 -> 15[label="False"];
14[shape = box,label = "0.221(0.555)"];
15[label = "[carbon_6_ring(a, v), benzene(a, w)]"];
15 -> 16[label="True"];
15 -> 17[label="False"];
16[shape = box,label = "0.128(0.532)"];
17[shape = box,label = "0.320(0.579)"];
}
