digraph G{ 
1[label = "[student(a), professor(b)]"];
1 -> 2[label="True"];
1 -> 3[label="False"];
2[label = "[publication(c, a), publication(c, b)]"];
2 -> 4[label="True"];
2 -> 5[label="False"];
4[label = "[publication(c, d), inPhase(d, Post_Generals)]"];
4 -> 6[label="True"];
4 -> 7[label="False"];
6[label = "[yearsInProgram(d, Year_12), tempAdvisedBy(e, b)]"];
6 -> 8[label="True"];
6 -> 9[label="False"];
8[shape = box,label = "0.010(0.503)"];
9[label = "[inPhase(a, Post_Generals), publication(c, f)]"];
9 -> 10[label="True"];
9 -> 11[label="False"];
10[label = "[yearsInProgram(a, Year_6), taughtBy(g, f, h)]"];
10 -> 12[label="True"];
10 -> 13[label="False"];
12[shape = box,label = "0.012(0.503)"];
13[shape = box,label = "0.012(0.503)"];
11[shape = box,label = "-0.050(0.488)"];
7[shape = box,label = "0.056(0.514)"];
5[label = "[publication(i, a), ta(j, a, k)]"];
5 -> 14[label="True"];
5 -> 15[label="False"];
14[shape = box,label = "-0.020(0.495)"];
15[label = "[taughtBy(m, a, n), taughtBy(p, b, n)]"];
15 -> 16[label="True"];
15 -> 17[label="False"];
16[shape = box,label = "0.459(0.613)"];
17[shape = box,label = "-0.048(0.488)"];
3[shape = box,label = "-0.079(0.480)"];
}
