digraph G{ 
1[label = "[professor(b), student(a)]"];
1 -> 2[label="True"];
1 -> 3[label="False"];
2[label = "[publication(c, a), publication(c, b)]"];
2 -> 4[label="True"];
2 -> 5[label="False"];
4[label = "[ta(d, a, e), taughtBy(d, b, e)]"];
4 -> 6[label="True"];
4 -> 7[label="False"];
6[label = "[inPhase(a, Post_Generals), publication(c, f)]"];
6 -> 8[label="True"];
6 -> 9[label="False"];
8[shape = box,label = "0.078(0.519)"];
9[shape = box,label = "0.199(0.550)"];
7[label = "[yearsInProgram(a, Year_6), tempAdvisedBy(g, b)]"];
7 -> 10[label="True"];
7 -> 11[label="False"];
10[shape = box,label = "0.039(0.510)"];
11[label = "[ta(h, a, i), publication(j, a)]"];
11 -> 12[label="True"];
11 -> 13[label="False"];
12[label = "[tempAdvisedBy(k, b), ta(m, k, n)]"];
12 -> 14[label="True"];
12 -> 15[label="False"];
14[shape = box,label = "0.007(0.502)"];
15[shape = box,label = "-0.015(0.496)"];
13[label = "[inPhase(a, Post_Generals), hasPosition(b, Faculty)]"];
13 -> 16[label="True"];
13 -> 17[label="False"];
16[shape = box,label = "0.079(0.520)"];
17[shape = box,label = "0.155(0.539)"];
5[shape = box,label = "-0.016(0.496)"];
3[shape = box,label = "-0.112(0.472)"];
}
