digraph G{ 
1[label = "[hasPosition(b, Faculty), student(a)]"];
1 -> 2[label="True"];
1 -> 3[label="False"];
2[label = "[taughtBy(c, b, d), ta(c, a, d)]"];
2 -> 4[label="True"];
2 -> 5[label="False"];
4[label = "[courseLevel(c, Level_400), taughtBy(e, b, f)]"];
4 -> 6[label="True"];
4 -> 7[label="False"];
6[label = "[publication(g, a), taughtBy(h, b, i)]"];
6 -> 8[label="True"];
6 -> 9[label="False"];
8[shape = box,label = "0.003(0.501)"];
9[label = "[inPhase(a, Pre_Quals), taughtBy(c, b, j)]"];
9 -> 10[label="True"];
9 -> 11[label="False"];
10[shape = box,label = "0.018(0.505)"];
11[shape = box,label = "0.094(0.523)"];
7[label = "[inPhase(a, Post_Quals), ta(c, k, d)]"];
7 -> 12[label="True"];
7 -> 13[label="False"];
12[shape = box,label = "0.279(0.569)"];
13[label = "[publication(m, a), tempAdvisedBy(n, b)]"];
13 -> 14[label="True"];
13 -> 15[label="False"];
14[shape = box,label = "0.042(0.511)"];
15[label = "[yearsInProgram(a, Year_3), taughtBy(p, b, q)]"];
15 -> 16[label="True"];
15 -> 17[label="False"];
16[shape = box,label = "0.028(0.507)"];
17[shape = box,label = "-0.076(0.481)"];
5[shape = box,label = "-0.004(0.499)"];
3[shape = box,label = "-0.069(0.483)"];
}
