digraph G{ 
1[label = "[professor(b), student(a)]"];
1 -> 2[label="True"];
1 -> 3[label="False"];
2[label = "[publication(c, a), publication(c, b)]"];
2 -> 4[label="True"];
2 -> 5[label="False"];
4[label = "[ta(d, a, e)]"];
4 -> 6[label="True"];
4 -> 7[label="False"];
6[shape = box,label = "0.042(0.511)"];
7[label = "[yearsInProgram(a, Year_7), tempAdvisedBy(f, b)]"];
7 -> 8[label="True"];
7 -> 9[label="False"];
8[shape = box,label = "0.394(0.597)"];
9[label = "[taughtBy(g, b, h), ta(g, i, h)]"];
9 -> 10[label="True"];
9 -> 11[label="False"];
10[label = "[tempAdvisedBy(i, j), taughtBy(g, j, k)]"];
10 -> 12[label="True"];
10 -> 13[label="False"];
12[shape = box,label = "0.301(0.575)"];
13[shape = box,label = "0.072(0.518)"];
11[shape = box,label = "0.336(0.583)"];
5[label = "[inPhase(a, Post_Generals), publication(m, a)]"];
5 -> 14[label="True"];
5 -> 15[label="False"];
14[shape = box,label = "-0.085(0.479)"];
15[label = "[taughtBy(n, a, p), taughtBy(q, b, p)]"];
15 -> 16[label="True"];
15 -> 17[label="False"];
16[shape = box,label = "0.440(0.608)"];
17[shape = box,label = "0.002(0.501)"];
3[shape = box,label = "-0.070(0.483)"];
}
