digraph G{ 
1[label = "[professor(b), student(a)]"];
1 -> 2[label="True"];
1 -> 3[label="False"];
2[label = "[ta(c, a, d), taughtBy(c, b, e)]"];
2 -> 4[label="True"];
2 -> 5[label="False"];
4[label = "[inPhase(a, Post_Quals), taughtBy(f, b, d)]"];
4 -> 6[label="True"];
4 -> 7[label="False"];
6[label = "[publication(g, a), taughtBy(f, b, e)]"];
6 -> 8[label="True"];
6 -> 9[label="False"];
8[shape = box,label = "0.155(0.539)"];
9[shape = box,label = "0.639(0.655)"];
7[label = "[inPhase(a, Post_Generals), publication(h, b)]"];
7 -> 10[label="True"];
7 -> 11[label="False"];
10[label = "[publication(i, a)]"];
10 -> 12[label="True"];
10 -> 13[label="False"];
12[shape = box,label = "0.072(0.518)"];
13[label = "[ta(c, j, e), ta(k, j, d)]"];
13 -> 14[label="True"];
13 -> 15[label="False"];
14[shape = box,label = "0.123(0.531)"];
15[shape = box,label = "0.541(0.632)"];
11[shape = box,label = "-0.060(0.485)"];
5[label = "[publication(m, a), publication(m, b)]"];
5 -> 16[label="True"];
5 -> 17[label="False"];
16[shape = box,label = "0.104(0.526)"];
17[shape = box,label = "-0.031(0.492)"];
3[shape = box,label = "-0.065(0.484)"];
}
