digraph G{ 
1[label = "[professor(b), student(a)]"];
1 -> 2[label="True"];
1 -> 3[label="False"];
2[label = "[publication(c, b), publication(c, a)]"];
2 -> 4[label="True"];
2 -> 5[label="False"];
4[label = "[inPhase(a, Post_Generals), taughtBy(d, b, e)]"];
4 -> 6[label="True"];
4 -> 7[label="False"];
6[label = "[tempAdvisedBy(f, b), ta(g, f, h)]"];
6 -> 8[label="True"];
6 -> 9[label="False"];
8[shape = box,label = "0.858(0.702)"];
9[label = "[ta(d, a, e), tempAdvisedBy(i, b)]"];
9 -> 10[label="True"];
9 -> 11[label="False"];
10[shape = box,label = "0.858(0.702)"];
11[label = "[ta(j, a, k)]"];
11 -> 12[label="True"];
11 -> 13[label="False"];
12[shape = box,label = "0.001(0.500)"];
13[shape = box,label = "0.477(0.617)"];
7[label = "[publication(c, m), inPhase(m, Post_Generals)]"];
7 -> 14[label="True"];
7 -> 15[label="False"];
14[label = "[yearsInProgram(m, Year_5), tempAdvisedBy(n, b)]"];
14 -> 16[label="True"];
14 -> 17[label="False"];
16[shape = box,label = "-0.142(0.465)"];
17[shape = box,label = "0.108(0.527)"];
15[shape = box,label = "0.858(0.702)"];
5[shape = box,label = "-0.060(0.485)"];
3[shape = box,label = "-0.142(0.465)"];
}
