digraph G{ 
1[label = "[ring_size_5(a, b), atm(a, c, C, 29, d)]"];
1 -> 2[label="True"];
1 -> 3[label="False"];
2[shape = box,label = "0.161(0.540)"];
3[label = "[ball3(a, e)]"];
3 -> 4[label="True"];
3 -> 5[label="False"];
4[shape = box,label = "0.152(0.538)"];
5[label = "[atm(a, f, C, 27, g), methyl(a, h)]"];
5 -> 6[label="True"];
5 -> 7[label="False"];
6[shape = box,label = "-0.311(0.423)"];
7[label = "[atm(a, i, H, 1, j), benzene(a, k)]"];
7 -> 8[label="True"];
7 -> 9[label="False"];
8[label = "[atm(a, m, N, 32, n), atm(a, p, O, 40, n)]"];
8 -> 10[label="True"];
8 -> 11[label="False"];
10[label = "[ring_size_5(a, q)]"];
10 -> 12[label="True"];
10 -> 13[label="False"];
12[shape = box,label = "-0.187(0.453)"];
13[shape = box,label = "0.241(0.560)"];
11[shape = box,label = "-0.109(0.473)"];
9[label = "[atm(a, r, O, 50, s)]"];
9 -> 14[label="True"];
9 -> 15[label="False"];
14[shape = box,label = "-0.093(0.477)"];
15[label = "[methyl(a, t)]"];
15 -> 16[label="True"];
15 -> 17[label="False"];
16[shape = box,label = "-0.125(0.469)"];
17[shape = box,label = "0.105(0.526)"];
}
