digraph G{ 
1[label = "[ring_size_5(a, b), atm(a, c, C, 29, d)]"];
1 -> 2[label="True"];
1 -> 3[label="False"];
2[shape = box,label = "0.732(0.675)"];
3[label = "[ball3(a, e)]"];
3 -> 4[label="True"];
3 -> 5[label="False"];
4[shape = box,label = "0.743(0.678)"];
5[label = "[methyl(a, f)]"];
5 -> 6[label="True"];
5 -> 7[label="False"];
6[label = "[ring_size_5(a, g)]"];
6 -> 8[label="True"];
6 -> 9[label="False"];
8[shape = box,label = "0.023(0.506)"];
9[label = "[atm(a, h, O, 50, i)]"];
9 -> 10[label="True"];
9 -> 11[label="False"];
10[shape = box,label = "-0.177(0.456)"];
11[shape = box,label = "-0.196(0.451)"];
7[label = "[carbon_5_aromatic_ring(a, j)]"];
7 -> 12[label="True"];
7 -> 13[label="False"];
12[shape = box,label = "0.746(0.678)"];
13[label = "[carbon_6_ring(a, k)]"];
13 -> 14[label="True"];
13 -> 15[label="False"];
14[shape = box,label = "0.738(0.677)"];
15[label = "[hetero_aromatic_6_ring(a, m)]"];
15 -> 16[label="True"];
15 -> 17[label="False"];
16[shape = box,label = "-0.057(0.486)"];
17[shape = box,label = "0.306(0.576)"];
}
