////// Learned from a dataset containing 1,100 positive (1,100.0 weighted sum) and 0 negative (0.0 wgt'ed) examples.
////// The minimal (wgt'ed) coverage = 3.000, the maximal (wgt'ed) NEG coverage = 0.499, and the minimal (wgt'ed) precision = 0.001 (using m = 0.1)

useStdLogicNotation: true.


////////////////////////////////////////////////////////////////////////////////
////
////     Gleaner for: allPossibleMarkers
////
////////////////////////////////////////////////////////////////////////////////

// Best in (weighted) recall bin #0, (-Infinity, 0.05], from 'outerLoop #7, null' and covering 3.0 wgt'ed positive and 0.0 wgt'ed negative examples:
//    Wgt'ed recall = 0.048, precision = 0.968, and F1 = 0.091 - learned after 44 total and 22 acceptable nodes.  Node score = -1.5223283297683512

 FOR active(a) IF (ring_size_5(a, anon703435), atm(a, anon720349, C, 14, anon720355), atm(a, anon720825, C, 10, anon720831)) THEN output = 0.259378 ELSE output = 0.042897;

// Best in (weighted) recall bin #1, (0.05, 0.1], from 'outerLoop #7, null' and covering 3.0 wgt'ed positive and 0.0 wgt'ed negative examples:
//    Wgt'ed recall = 0.088, precision = 0.968, and F1 = 0.161 - learned after 178 total and 92 acceptable nodes.  Node score = -0.4816894740363485

 FOR active(a) IF (atm(a, anon663691, C, 29, anon663697), ring_size_5(a, anon664289), atm(a, anon680071, C, 10, anon663697), atm(a, anon684447, N, 32, anon684453)) THEN output = 0.174741 ELSE output = 0.072273;

// Best in (weighted) recall bin #2, (0.1, 0.15], from 'outerLoop #8, null' and covering 4.0 wgt'ed positive and 0.0 wgt'ed negative examples:
//    Wgt'ed recall = 0.148, precision = 0.976, and F1 = 0.256 - learned after 24 total and 3 acceptable nodes.  Node score = -0.08211806535689158

 FOR active(a) IF (ball3(a, anon659997), anthracene(a, anon692931)) THEN output = 0.075927 ELSE output = 0.096713;

// Best in (weighted) recall bin #3, (0.15, 0.2], from 'outerLoop #8, null' and covering 9.0 wgt'ed positive and 0.0 wgt'ed negative examples:
//    Wgt'ed recall = 0.160, precision = 0.989, and F1 = 0.276 - learned after 15 total and 4 acceptable nodes.  Node score = -1.472660623416983

 FOR active(a) IF (ring_size_5(a, anon734567), carbon_5_aromatic_ring(a, anon734567)) THEN output = 0.076698 ELSE output = 0.062549;

// Best in (weighted) recall bin #4, (0.2, 0.25], from 'outerLoop #8, null' and covering 12.0 wgt'ed positive and 0.0 wgt'ed negative examples:
//    Wgt'ed recall = 0.214, precision = 0.992, and F1 = 0.352 - learned after 53 total and 30 acceptable nodes.  Node score = -1.376653225739014

 FOR active(a) IF (ring_size_5(a, anon703435), atm(a, anon725651, H, 1, anon725657), benzene(a, anon726133)) THEN output = -0.024749 ELSE output = 0.095790;

// Best in (weighted) recall bin #5, (0.25, 0.3], from 'outerLoop #8, null' and covering 8.0 wgt'ed positive and 0.0 wgt'ed negative examples:
//    Wgt'ed recall = 0.295, precision = 0.988, and F1 = 0.455 - learned after 16 total and 2 acceptable nodes.  Node score = -0.08358909332582673

 FOR active(a) IF (ball3(a, anon659997), carbon_6_ring(a, anon692917)) THEN output = 0.093947 ELSE output = 0.093501;

// Best in (weighted) recall bin #6, (0.3, 0.35], from 'outerLoop #7, null' and covering 21.0 wgt'ed positive and 0.0 wgt'ed negative examples:
//    Wgt'ed recall = 0.333, precision = 0.995, and F1 = 0.499 - learned after 98 total and 43 acceptable nodes.  Node score = -1.5863221629288422

 FOR active(a) IF (ring_size_5(a, anon734567), atm(a, anon751557, C, 29, anon751563), bond(a, anon751557, anon752765, 1)) THEN output = 0.067560 ELSE output = 0.040145;

// Best in (weighted) recall bin #7, (0.35, 0.4], from 'outerLoop #7, null' and covering 4.0 wgt'ed positive and 0.0 wgt'ed negative examples:
//    Wgt'ed recall = 0.360, precision = 0.976, and F1 = 0.526 - learned after 19 total and 15 acceptable nodes.  Node score = -0.47861619510427056

 FOR active(a) IF (atm(a, anon229695, N, 34, anon229701), atm(a, anon231177, C, 21, anon231183), bond(a, anon229695, anon231177, 7)) THEN output = -0.278965 ELSE output = 0.020802;

// Best in (weighted) recall bin #8, (0.4, 0.45], from 'outerLoop #8, null' and covering 3.0 wgt'ed positive and 0.0 wgt'ed negative examples:
//    Wgt'ed recall = 0.423, precision = 0.968, and F1 = 0.588 - learned after 230 total and 154 acceptable nodes.  Node score = -0.7500045500000001

 FOR active(a) IF (atm(a, anon1127, C, 27, anon1133), hetero_aromatic_6_ring(a, anon23295), atm(a, anon29321, C, 22, anon29327), bond(a, anon34365, anon29321, 1)) THEN output = -0.141851 ELSE output = 0.108149;

// Best in (weighted) recall bin #9, (0.45, 0.5], from 'outerLoop #8, null' and covering 4.0 wgt'ed positive and 0.0 wgt'ed negative examples:
//    Wgt'ed recall = 0.494, precision = 0.976, and F1 = 0.656 - learned after 18 total and 17 acceptable nodes.  Node score = -0.2532486334165332

 FOR active(a) IF (atm(a, anon229695, N, 34, anon229701), atm(a, anon231177, C, 21, anon231183), atm(a, anon266025, H, 1, anon266031)) THEN output = 0.128492 ELSE output = -0.115232;

// Best in (weighted) recall bin #10, (0.5, 0.55], from 'outerLoop #7, null' and covering 6.0 wgt'ed positive and 0.0 wgt'ed negative examples:
//    Wgt'ed recall = 0.541, precision = 0.984, and F1 = 0.698 - learned after 176 total and 145 acceptable nodes.  Node score = -0.489844448383383

 FOR active(a) IF (atm(a, anon315017, N, 34, anon315023), atm(a, anon316519, C, 21, anon316525), methyl(a, anon336869), bond(a, anon316519, anon315017, 7)) THEN output = -0.100470 ELSE output = -0.051551;

// Best in (weighted) recall bin #11, (0.55, 0.6], from 'outerLoop #7, null' and covering 7.0 wgt'ed positive and 0.0 wgt'ed negative examples:
//    Wgt'ed recall = 0.579, precision = 0.986, and F1 = 0.729 - learned after 221 total and 140 acceptable nodes.  Node score = -0.33410928570109233

 FOR active(a) IF (atm(a, anon553403, H, 1, anon553409), benzene(a, anon554617), atm(a, anon607551, C, 22, anon607557), bond(a, anon612455, anon607551, 1)) THEN output = 0.159089 ELSE output = -0.216801;

// Best in (weighted) recall bin #12, (0.6, 0.65], from 'outerLoop #8, null' and covering 5.0 wgt'ed positive and 0.0 wgt'ed negative examples:
//    Wgt'ed recall = 0.617, precision = 0.980, and F1 = 0.758 - learned after 516 total and 410 acceptable nodes.  Node score = -0.14874301951515265

 FOR active(a) IF (atm(a, anon229695, N, 34, anon229701), atm(a, anon231177, C, 21, anon231183), atm(a, anon266025, C, 22, anon231183), methyl(a, anon279257)) THEN output = -0.122785 ELSE output = 0.222322;

// Best in (weighted) recall bin #13, (0.65, 0.7], from 'outerLoop #8, null' and covering 34.0 wgt'ed positive and 0.0 wgt'ed negative examples:
//    Wgt'ed recall = 0.653, precision = 0.997, and F1 = 0.789 - learned after 8 total and 3 acceptable nodes.  Node score = -1.9811795507406467

 FOR active(a) IF (ring_size_5(a, anon319091), atm(a, anon351417, C, 29, anon351423)) THEN output = 0.162634 ELSE output = 0.156930;

// Best in (weighted) recall bin #14, (0.7, 0.75], from 'outerLoop #7, null' and covering 9.0 wgt'ed positive and 0.0 wgt'ed negative examples:
//    Wgt'ed recall = 0.744, precision = 0.989, and F1 = 0.849 - learned after 195 total and 130 acceptable nodes.  Node score = -1.6086327142466519

 FOR active(a) IF (atm(a, anon789807, N, 38, anon789813), bond(a, anon792713, anon789807, 2)) THEN output = -0.079656 ELSE output = -0.198307;

// Best in (weighted) recall bin #15, (0.75, 0.8], from 'outerLoop #5, null' and covering 17.0 wgt'ed positive and 0.0 wgt'ed negative examples:
//    Wgt'ed recall = 0.769, precision = 0.994, and F1 = 0.867 - learned after 9 total and 1 acceptable nodes.  Node score = -2.193359048948194

 FOR active(a) IF (atm(a, anon802507, H, 1, anon802513), benzene(a, anon803087), atm(a, anon824717, N, 32, anon824723)) THEN output = -0.019525 ELSE output = -0.002529;

// Best in (weighted) recall bin #16, (0.8, 0.85], from 'outerLoop #8, null' and covering 22.0 wgt'ed positive and 0.0 wgt'ed negative examples:
//    Wgt'ed recall = 0.812, precision = 0.995, and F1 = 0.894 - learned after 26 total and 4 acceptable nodes.  Node score = -0.08283062366396939

 FOR active(a) IF (ball3(a, anon659997), phenanthrene(a, anon692933)) THEN output = 0.091105 ELSE output = 0.104759;
      /* FALSE NEG: active(D51) Actual Bool=true Prob=0.8952405891489144 Output=0.10475941085108564 */
      /* FALSE NEG: active(D104) Actual Bool=true Prob=0.8952405891489144 Output=0.10475941085108564 */
      /* FALSE NEG: active(D52) Actual Bool=true Prob=0.8952405891489144 Output=0.10475941085108564 */
      /* FALSE NEG: active(D71) Actual Bool=true Prob=0.8952405891489144 Output=0.10475941085108564 */
      /* FALSE NEG: active(D157) Actual Bool=true Prob=0.8952405891489144 Output=0.10475941085108564 */

// Best in (weighted) recall bin #17, (0.85, 0.9], from 'outerLoop #5, null' and covering 46.0 wgt'ed positive and 0.0 wgt'ed negative examples:
//    Wgt'ed recall = 0.883, precision = 0.998, and F1 = 0.937 - learned after 217 total and 55 acceptable nodes.  Node score = -10.491508739906468

 FOR active(a) IF (atm(a, anon93955, N, 38, anon93961), bond(a, anon97157, anon93955, 1)) THEN output = 0.173210 ELSE output = 0.126472;
      /* FALSE NEG: active(D21) Actual Bool=true Prob=0.22982855087423115 Output=0.7701714491257688 */
      /* FALSE NEG: active(D5) Actual Bool=false Prob=0.21461769938178055 Output=-0.21461769938178055 */
      /* FALSE NEG: active(D73) Actual Bool=false Prob=0.1955817865576237 Output=-0.1955817865576237 */
      /* FALSE NEG: active(D38) Actual Bool=false Prob=0.22982855087423115 Output=-0.22982855087423115 */
      /* FALSE NEG: active(D79) Actual Bool=true Prob=0.22982855087423115 Output=0.7701714491257688 */

// Best in (weighted) recall bin #18, (0.9, 0.95], from 'outerLoop #7, null' and covering 10.0 wgt'ed positive and 0.0 wgt'ed negative examples:
//    Wgt'ed recall = 0.901, precision = 0.990, and F1 = 0.943 - learned after 18 total and 14 acceptable nodes.  Node score = -Infinity

 FOR active(a) IF (atm(a, anon229695, N, 34, anon229701), atm(a, anon231177, C, 21, anon231183), bond(a, anon229695, anon251559, 1)) THEN output = -0.084746 ELSE output = -0.122785;
      /* FALSE NEG: active(D147) Actual Bool=false Prob=0.12278455246782898 Output=-0.12278455246782898 */

// Best in (weighted) recall bin #19, (0.95, 1.01], from 'outerLoop #6, null' and covering 16.0 wgt'ed positive and 0.0 wgt'ed negative examples:
//    Wgt'ed recall = 0.994, precision = 0.994, and F1 = 0.994 - learned after 1 total and 0 acceptable nodes.  Node score = -2.186756441598029

 FOR active(a) IF (atm(a, anon802507, H, 1, anon802513), benzene(a, anon803087), atm(a, anon824717, N, 32, anon824723), bond(a, anon827111, anon824717, 1)) THEN output = -0.004191 ELSE output = -0.046251;


////////////////////////////////////////////////////////////////////////////////
////
////     Gleaner for: outerLoop #1, null
////
////////////////////////////////////////////////////////////////////////////////

// Best in (weighted) recall bin #0, (-Infinity, 0.05], from 'outerLoop #1, null' and covering 7.0 wgt'ed positive and 0.0 wgt'ed negative examples:
//    Wgt'ed recall = 0.041, precision = 0.986, and F1 = 0.079 - learned after 197 total and 116 acceptable nodes.  Node score = -10.191547057518267

 FOR active(a) IF (methyl(a, anon799141), hetero_aromatic_5_ring(a, anon802225)) THEN output = -0.065585 ELSE output = 0.025768;

// Best in (weighted) recall bin #1, (0.05, 0.1], from 'outerLoop #1, null' and covering 14.0 wgt'ed positive and 0.0 wgt'ed negative examples:
//    Wgt'ed recall = 0.083, precision = 0.993, and F1 = 0.153 - learned after 14 total and 4 acceptable nodes.  Node score = -10.209092125871415

 FOR active(a) IF (carbon_6_ring(a, anon799129)) THEN output = 0.072175 ELSE output = 0.017451;

// Best in (weighted) recall bin #2, (0.1, 0.15], from 'outerLoop #1, null' and covering 22.0 wgt'ed positive and 0.0 wgt'ed negative examples:
//    Wgt'ed recall = 0.130, precision = 0.995, and F1 = 0.230 - learned after 47 total and 29 acceptable nodes.  Node score = -10.194365523431209

 FOR active(a) IF (phenanthrene(a, anon799145), ball3(a, anon799413)) THEN output = 0.067839 ELSE output = 0.015122;

// Best in (weighted) recall bin #3, (0.15, 0.2], from 'outerLoop #1, null' and covering 27.0 wgt'ed positive and 0.0 wgt'ed negative examples:
//    Wgt'ed recall = 0.160, precision = 0.996, and F1 = 0.275 - learned after 22 total and 11 acceptable nodes.  Node score = -10.173317204634609

 FOR active(a) IF (phenanthrene(a, anon799145)) THEN output = 0.070046 ELSE output = 0.012846;

// Best in (weighted) recall bin #4, (0.2, 0.25], from 'outerLoop #1, null' and covering 34.0 wgt'ed positive and 0.0 wgt'ed negative examples:
//    Wgt'ed recall = 0.201, precision = 0.997, and F1 = 0.335 - learned after 143 total and 88 acceptable nodes.  Node score = -10.530609898351567

 FOR active(a) IF (atm(a, anon730785, C, 29, anon730791), ring_size_5(a, anon732729)) THEN output = 0.068873 ELSE output = 0.015987;

// Best in (weighted) recall bin #5, (0.25, 0.3], from 'outerLoop #1, null' and covering 45.0 wgt'ed positive and 0.0 wgt'ed negative examples:
//    Wgt'ed recall = 0.266, precision = 0.998, and F1 = 0.420 - learned after 128 total and 76 acceptable nodes.  Node score = -10.586191965892482

 FOR active(a) IF (atm(a, anon730785, C, 29, anon730791), bond(a, anon730785, anon732711, 1)) THEN output = 0.044856 ELSE output = 0.020011;

// Best in (weighted) recall bin #6, (0.3, 0.35], from 'outerLoop #1, null' and covering 58.0 wgt'ed positive and 0.0 wgt'ed negative examples:
//    Wgt'ed recall = 0.343, precision = 0.998, and F1 = 0.511 - learned after 7 total and 3 acceptable nodes.  Node score = -10.555335330730433

 FOR active(a) IF (atm(a, anon730785, C, 29, anon730791)) THEN output = 0.050714 ELSE output = 0.014040;

// Best in (weighted) recall bin #7, (0.35, 0.4], from 'outerLoop #1, null' and covering 61.0 wgt'ed positive and 0.0 wgt'ed negative examples:
//    Wgt'ed recall = 0.361, precision = 0.998, and F1 = 0.530 - learned after 167 total and 103 acceptable nodes.  Node score = -10.218038100005986

 FOR active(a) IF (ring_size_5(a, anon799137), benzene(a, anon801937)) THEN output = 0.039567 ELSE output = 0.012054;

// Best in (weighted) recall bin #8, (0.4, 0.45], from 'outerLoop #1, null' and covering 75.0 wgt'ed positive and 0.0 wgt'ed negative examples:
//    Wgt'ed recall = 0.444, precision = 0.999, and F1 = 0.614 - learned after 5 total and 1 acceptable nodes.  Node score = -10.193180953129394

 FOR active(a) IF (atm(a, anon799111, C, 27, anon799117)) THEN output = 0.042064 ELSE output = 0.005964;

// Best in (weighted) recall bin #19, (0.95, 1.01], from 'outerLoop #1, null' and covering 3,340.0 wgt'ed positive and 0.0 wgt'ed negative examples:
//    Wgt'ed recall = 0.988, precision = 1.000, and F1 = 0.994 - learned after 13 total and 3 acceptable nodes.  Node score = -117063.94380788258

 FOR active(a) IF (benzene(a, anon853711)) THEN output = 2.636309 ELSE output = 1.925049;
      /* FALSE NEG: active(D150) Actual Bool=false Prob=0.14185106490048777 Output=-1.8234575718766686 */
      /* FALSE NEG: active(D63) Actual Bool=true Prob=0.14185106490048777 Output=5.673556506095312 */


////////////////////////////////////////////////////////////////////////////////
////
////     Gleaner for: outerLoop #2, null
////
////////////////////////////////////////////////////////////////////////////////

// Best in (weighted) recall bin #0, (-Infinity, 0.05], from 'outerLoop #2, null' and covering 7.0 wgt'ed positive and 0.0 wgt'ed negative examples:
//    Wgt'ed recall = 0.049, precision = 0.986, and F1 = 0.094 - learned after 178 total and 98 acceptable nodes.  Node score = -10.071049734316114

 FOR active(a) IF (methyl(a, anon802537), hetero_aromatic_5_ring(a, anon805031)) THEN output = -0.065585 ELSE output = 0.016913;

// Best in (weighted) recall bin #1, (0.05, 0.1], from 'outerLoop #2, null' and covering 9.0 wgt'ed positive and 0.0 wgt'ed negative examples:
//    Wgt'ed recall = 0.063, precision = 0.989, and F1 = 0.119 - learned after 15 total and 5 acceptable nodes.  Node score = -10.072345169947662

 FOR active(a) IF (carbon_6_ring(a, anon802525)) THEN output = 0.080512 ELSE output = 0.008267;

// Best in (weighted) recall bin #2, (0.1, 0.15], from 'outerLoop #2, null' and covering 4.0 wgt'ed positive and 0.0 wgt'ed negative examples:
//    Wgt'ed recall = 0.125, precision = 0.976, and F1 = 0.221 - learned after 36 total and 4 acceptable nodes.  Node score = -3.601616864528453

 FOR active(a) IF (atm(a, anon553403, H, 1, anon553409), benzene(a, anon554617), methyl(a, anon557287)) THEN output = 0.122419 ELSE output = -0.044306;

// Best in (weighted) recall bin #3, (0.15, 0.2], from 'outerLoop #2, null' and covering 24.0 wgt'ed positive and 0.0 wgt'ed negative examples:
//    Wgt'ed recall = 0.169, precision = 0.996, and F1 = 0.289 - learned after 94 total and 66 acceptable nodes.  Node score = -10.046907750535782

 FOR active(a) IF (atm(a, anon802507, N, 32, anon802513), benzene(a, anon803643)) THEN output = -0.036186 ELSE output = 0.022819;

// Best in (weighted) recall bin #4, (0.2, 0.25], from 'outerLoop #2, null' and covering 7.0 wgt'ed positive and 0.0 wgt'ed negative examples:
//    Wgt'ed recall = 0.218, precision = 0.986, and F1 = 0.357 - learned after 182 total and 71 acceptable nodes.  Node score = -3.6715787671037736

 FOR active(a) IF (atm(a, anon553403, H, 1, anon553409), benzene(a, anon554617), atm(a, anon557257, N, 32, anon557263), ring_size_5(a, anon560459)) THEN output = -0.078694 ELSE output = -0.008001;

// Best in (weighted) recall bin #5, (0.25, 0.3], from 'outerLoop #2, null' and covering 42.0 wgt'ed positive and 0.0 wgt'ed negative examples:
//    Wgt'ed recall = 0.296, precision = 0.998, and F1 = 0.456 - learned after 6 total and 1 acceptable nodes.  Node score = -10.564572529102241

 FOR active(a) IF (atm(a, anon703409, C, 10, anon703415)) THEN output = 0.023669 ELSE output = 0.015285;

// Best in (weighted) recall bin #6, (0.3, 0.35], from 'outerLoop #2, null' and covering 10.0 wgt'ed positive and 0.0 wgt'ed negative examples:
//    Wgt'ed recall = 0.312, precision = 0.990, and F1 = 0.474 - learned after 7 total and 0 acceptable nodes.  Node score = -3.6976608203288004

 FOR active(a) IF (atm(a, anon553403, H, 1, anon553409), benzene(a, anon554617), atm(a, anon557257, C, 29, anon557263)) THEN output = -0.032723 ELSE output = -0.019258;

// Best in (weighted) recall bin #7, (0.35, 0.4], from 'outerLoop #2, null' and covering 58.0 wgt'ed positive and 0.0 wgt'ed negative examples:
//    Wgt'ed recall = 0.367, precision = 0.998, and F1 = 0.537 - learned after 8 total and 3 acceptable nodes.  Node score = -13.175718667491397

 FOR active(a) IF (atm(a, anon319065, C, 29, anon319071)) THEN output = 0.127380 ELSE output = 0.070382;

// Best in (weighted) recall bin #8, (0.4, 0.45], from 'outerLoop #2, null' and covering 14.0 wgt'ed positive and 0.0 wgt'ed negative examples:
//    Wgt'ed recall = 0.436, precision = 0.993, and F1 = 0.606 - learned after 32 total and 3 acceptable nodes.  Node score = -3.6891696775284775

 FOR active(a) IF (atm(a, anon553403, H, 1, anon553409), benzene(a, anon554617), ring_size_5(a, anon557283)) THEN output = -0.043245 ELSE output = -0.008081;

// Best in (weighted) recall bin #9, (0.45, 0.5], from 'outerLoop #2, null' and covering 75.0 wgt'ed positive and 0.0 wgt'ed negative examples:
//    Wgt'ed recall = 0.474, precision = 0.999, and F1 = 0.643 - learned after 5 total and 1 acceptable nodes.  Node score = -13.209883224577354

 FOR active(a) IF (atm(a, anon319065, C, 27, anon319071)) THEN output = 0.115719 ELSE output = 0.069245;

// Best in (weighted) recall bin #11, (0.55, 0.6], from 'outerLoop #2, null' and covering 4.0 wgt'ed positive and 0.0 wgt'ed negative examples:
//    Wgt'ed recall = 0.563, precision = 0.976, and F1 = 0.714 - learned after 264 total and 158 acceptable nodes.  Node score = -0.6353351858943396

 FOR active(a) IF (hetero_aromatic_6_ring(a, anon356265), atm(a, anon359413, N, 38, anon359419), bond(a, anon364237, anon359413, 1)) THEN output = -0.010342 ELSE output = -0.235838;

// Best in (weighted) recall bin #14, (0.7, 0.75], from 'outerLoop #2, null' and covering 24.0 wgt'ed positive and 0.0 wgt'ed negative examples:
//    Wgt'ed recall = 0.748, precision = 0.996, and F1 = 0.854 - learned after 168 total and 70 acceptable nodes.  Node score = -4.0468062121554285

 FOR active(a) IF (atm(a, anon493493, H, 1, anon493499), benzene(a, anon493789), atm(a, anon496983, N, 32, anon496989), bond(a, anon500519, anon496983, 1)) THEN output = -0.027162 ELSE output = -0.034155;

// Best in (weighted) recall bin #15, (0.75, 0.8], from 'outerLoop #2, null' and covering 25.0 wgt'ed positive and 0.0 wgt'ed negative examples:
//    Wgt'ed recall = 0.779, precision = 0.996, and F1 = 0.874 - learned after 9 total and 1 acceptable nodes.  Node score = -3.6967075565457783

 FOR active(a) IF (atm(a, anon553403, H, 1, anon553409), benzene(a, anon554617), atm(a, anon557257, N, 32, anon557263)) THEN output = -0.027853 ELSE output = -0.007797;

// Best in (weighted) recall bin #16, (0.8, 0.85], from 'outerLoop #2, null' and covering 6.0 wgt'ed positive and 0.0 wgt'ed negative examples:
//    Wgt'ed recall = 0.845, precision = 0.984, and F1 = 0.909 - learned after 263 total and 157 acceptable nodes.  Node score = -Infinity

 FOR active(a) IF (hetero_aromatic_6_ring(a, anon281129), atm(a, anon284645, N, 38, anon284651), bond(a, anon284645, anon289469, 2)) THEN output = -0.098751 ELSE output = -0.292367;
      /* FALSE NEG: active(D19) Actual Bool=false Prob=0.29236673900366855 Output=-0.29236673900366855 */

// Best in (weighted) recall bin #19, (0.95, 1.01], from 'outerLoop #2, null' and covering 7.0 wgt'ed positive and 0.0 wgt'ed negative examples:
//    Wgt'ed recall = 0.986, precision = 0.986, and F1 = 0.986 - learned after 1 total and 0 acceptable nodes.  Node score = -13.363991304199642

 FOR active(a) IF (hetero_aromatic_6_ring(a, anon356265)) THEN output = -0.106983 ELSE output = 0.074121;


////////////////////////////////////////////////////////////////////////////////
////
////     Gleaner for: outerLoop #3, null
////
////////////////////////////////////////////////////////////////////////////////

// Best in (weighted) recall bin #0, (-Infinity, 0.05], from 'outerLoop #3, null' and covering 3.0 wgt'ed positive and 0.0 wgt'ed negative examples:
//    Wgt'ed recall = 0.036, precision = 0.968, and F1 = 0.069 - learned after 23 total and 10 acceptable nodes.  Node score = -6.572287360136229

 FOR active(a) IF (phenanthrene(a, anon632871)) THEN output = 0.121028 ELSE output = -0.015886;

// Best in (weighted) recall bin #1, (0.05, 0.1], from 'outerLoop #3, null' and covering 6.0 wgt'ed positive and 0.0 wgt'ed negative examples:
//    Wgt'ed recall = 0.071, precision = 0.984, and F1 = 0.133 - learned after 22 total and 9 acceptable nodes.  Node score = -6.512543686090347

 FOR active(a) IF (anthracene(a, anon632869)) THEN output = 0.121813 ELSE output = -0.021213;

// Best in (weighted) recall bin #2, (0.1, 0.15], from 'outerLoop #3, null' and covering 3.0 wgt'ed positive and 0.0 wgt'ed negative examples:
//    Wgt'ed recall = 0.107, precision = 0.968, and F1 = 0.192 - learned after 157 total and 79 acceptable nodes.  Node score = -3.0332523675690655

 FOR active(a) IF (atm(a, anon553403, H, 1, anon553409), benzene(a, anon554617), atm(a, anon566643, C, 26, anon566649), greaterCharge(anon566649, anon553409)) THEN output = 0.270522 ELSE output = -0.082085;

// Best in (weighted) recall bin #3, (0.15, 0.2], from 'outerLoop #3, null' and covering 5.0 wgt'ed positive and 0.0 wgt'ed negative examples:
//    Wgt'ed recall = 0.178, precision = 0.980, and F1 = 0.301 - learned after 149 total and 58 acceptable nodes.  Node score = -3.293494534752835

 FOR active(a) IF (atm(a, anon493493, H, 1, anon493499), benzene(a, anon493789), atm(a, anon506749, N, 32, anon506755), ring_size_5(a, anon509135)) THEN output = -0.298630 ELSE output = 0.000296;

// Best in (weighted) recall bin #4, (0.2, 0.25], from 'outerLoop #3, null' and covering 7.0 wgt'ed positive and 0.0 wgt'ed negative examples:
//    Wgt'ed recall = 0.225, precision = 0.986, and F1 = 0.366 - learned after 183 total and 72 acceptable nodes.  Node score = -3.143604726080806

 FOR active(a) IF (atm(a, anon802507, H, 1, anon802513), benzene(a, anon803087), atm(a, anon805629, N, 32, anon805635), ring_size_5(a, anon808831)) THEN output = -0.076650 ELSE output = -0.019946;

// Best in (weighted) recall bin #5, (0.25, 0.3], from 'outerLoop #3, null' and covering 20.0 wgt'ed positive and 0.0 wgt'ed negative examples:
//    Wgt'ed recall = 0.253, precision = 0.995, and F1 = 0.403 - learned after 6 total and 1 acceptable nodes.  Node score = -8.657625639614006

 FOR active(a) IF (atm(a, anon768059, C, 10, anon768065)) THEN output = 0.015612 ELSE output = -0.017775;

// Best in (weighted) recall bin #6, (0.3, 0.35], from 'outerLoop #3, null' and covering 10.0 wgt'ed positive and 0.0 wgt'ed negative examples:
//    Wgt'ed recall = 0.322, precision = 0.990, and F1 = 0.485 - learned after 7 total and 0 acceptable nodes.  Node score = -3.1608933001808968

 FOR active(a) IF (atm(a, anon802507, H, 1, anon802513), benzene(a, anon803087), atm(a, anon805629, C, 29, anon805635)) THEN output = -0.029724 ELSE output = -0.034192;

// Best in (weighted) recall bin #7, (0.35, 0.4], from 'outerLoop #3, null' and covering 10.0 wgt'ed positive and 0.0 wgt'ed negative examples:
//    Wgt'ed recall = 0.356, precision = 0.990, and F1 = 0.524 - learned after 33 total and 4 acceptable nodes.  Node score = -3.3001460990165516

 FOR active(a) IF (atm(a, anon553403, H, 1, anon553409), benzene(a, anon554617), ring_size_5(a, anon566669)) THEN output = -0.109511 ELSE output = -0.008081;

// Best in (weighted) recall bin #8, (0.4, 0.45], from 'outerLoop #3, null' and covering 34.0 wgt'ed positive and 0.0 wgt'ed negative examples:
//    Wgt'ed recall = 0.447, precision = 0.997, and F1 = 0.617 - learned after 5 total and 1 acceptable nodes.  Node score = -12.071411930058662

 FOR active(a) IF (atm(a, anon123005, C, 29, anon123011)) THEN output = 0.328162 ELSE output = 0.131409;

// Best in (weighted) recall bin #9, (0.45, 0.5], from 'outerLoop #3, null' and covering 14.0 wgt'ed positive and 0.0 wgt'ed negative examples:
//    Wgt'ed recall = 0.450, precision = 0.993, and F1 = 0.619 - learned after 32 total and 3 acceptable nodes.  Node score = -3.15444364712389

 FOR active(a) IF (atm(a, anon802507, H, 1, anon802513), benzene(a, anon803087), ring_size_5(a, anon805655)) THEN output = -0.048811 ELSE output = -0.019525;

// Best in (weighted) recall bin #10, (0.5, 0.55], from 'outerLoop #3, null' and covering 39.0 wgt'ed positive and 0.0 wgt'ed negative examples:
//    Wgt'ed recall = 0.512, precision = 0.997, and F1 = 0.677 - learned after 233 total and 115 acceptable nodes.  Node score = -12.02762120663505

 FOR active(a) IF (atm(a, anon123005, C, 22, anon123011), bond(a, anon126265, anon123005, 1)) THEN output = 0.317545 ELSE output = 0.116012;

// Best in (weighted) recall bin #14, (0.7, 0.75], from 'outerLoop #3, null' and covering 23.0 wgt'ed positive and 0.0 wgt'ed negative examples:
//    Wgt'ed recall = 0.740, precision = 0.996, and F1 = 0.849 - learned after 155 total and 57 acceptable nodes.  Node score = -3.157256085124016

 FOR active(a) IF (atm(a, anon802507, H, 1, anon802513), benzene(a, anon803087), atm(a, anon805629, N, 32, anon805635), bond(a, anon808813, anon805629, 1)) THEN output = -0.026244 ELSE output = -0.051458;

// Best in (weighted) recall bin #15, (0.75, 0.8], from 'outerLoop #3, null' and covering 24.0 wgt'ed positive and 0.0 wgt'ed negative examples:
//    Wgt'ed recall = 0.772, precision = 0.996, and F1 = 0.870 - learned after 9 total and 1 acceptable nodes.  Node score = -3.159773964573375

 FOR active(a) IF (atm(a, anon802507, H, 1, anon802513), benzene(a, anon803087), atm(a, anon805629, N, 32, anon805635)) THEN output = -0.036186 ELSE output = -0.020971;

// Best in (weighted) recall bin #16, (0.8, 0.85], from 'outerLoop #3, null' and covering 23.0 wgt'ed positive and 0.0 wgt'ed negative examples:
//    Wgt'ed recall = 0.819, precision = 0.996, and F1 = 0.898 - learned after 8 total and 0 acceptable nodes.  Node score = -3.6219158621298644

 FOR active(a) IF (atm(a, anon493493, H, 1, anon493499), benzene(a, anon493789), atm(a, anon506749, N, 32, anon506755)) THEN output = -0.070390 ELSE output = 0.026526;
      /* FALSE NEG: active(D151) Actual Bool=true Prob=0.7068960405539562 Output=0.29310395944604384 */
      /* FALSE NEG: active(D83) Actual Bool=true Prob=0.7588904657851447 Output=0.24110953421485526 */
      /* FALSE NEG: active(D154) Actual Bool=false Prob=0.34734321379467026 Output=-0.34734321379467026 */
      /* FALSE NEG: active(D9) Actual Bool=false Prob=0.34734321379467026 Output=-0.34734321379467026 */
      /* FALSE NEG: active(D172) Actual Bool=true Prob=0.7068960405539562 Output=0.29310395944604384 */

// Best in (weighted) recall bin #19, (0.95, 1.01], from 'outerLoop #3, null' and covering 1,580.0 wgt'ed positive and 0.0 wgt'ed negative examples:
//    Wgt'ed recall = 0.975, precision = 1.000, and F1 = 0.987 - learned after 14 total and 4 acceptable nodes.  Node score = -83720.01876220835

 FOR active(a) IF (benzene(a, anon869433)) THEN output = 0.966165 ELSE output = 1.925049;
      /* FALSE NEG: active(D150) Actual Bool=false Prob=0.14185106490048777 Output=-1.8234575718766686 */
      /* FALSE NEG: active(D63) Actual Bool=true Prob=0.14185106490048777 Output=5.673556506095312 */


////////////////////////////////////////////////////////////////////////////////
////
////     Gleaner for: outerLoop #4, null
////
////////////////////////////////////////////////////////////////////////////////

// Best in (weighted) recall bin #0, (-Infinity, 0.05], from 'outerLoop #4, null' and covering 3.0 wgt'ed positive and 0.0 wgt'ed negative examples:
//    Wgt'ed recall = 0.040, precision = 0.968, and F1 = 0.077 - learned after 23 total and 9 acceptable nodes.  Node score = -6.442197617334431

 FOR active(a) IF (phenanthrene(a, anon635663)) THEN output = 0.121028 ELSE output = -0.029963;

// Best in (weighted) recall bin #1, (0.05, 0.1], from 'outerLoop #4, null' and covering 3.0 wgt'ed positive and 0.0 wgt'ed negative examples:
//    Wgt'ed recall = 0.081, precision = 0.968, and F1 = 0.149 - learned after 7 total and 2 acceptable nodes.  Node score = -6.13444184836233

 FOR active(a) IF (atm(a, anon126913, C, 16, anon126919)) THEN output = 0.538169 ELSE output = 0.078762;

// Best in (weighted) recall bin #2, (0.1, 0.15], from 'outerLoop #4, null' and covering 3.0 wgt'ed positive and 0.0 wgt'ed negative examples:
//    Wgt'ed recall = 0.111, precision = 0.968, and F1 = 0.199 - learned after 203 total and 93 acceptable nodes.  Node score = -2.9240011168066364

 FOR active(a) IF (atm(a, anon802507, H, 1, anon802513), benzene(a, anon803087), atm(a, anon815043, C, 29, anon815049), ring_size_5(a, anon818947)) THEN output = -0.075322 ELSE output = -0.048745;

// Best in (weighted) recall bin #3, (0.15, 0.2], from 'outerLoop #4, null' and covering 5.0 wgt'ed positive and 0.0 wgt'ed negative examples:
//    Wgt'ed recall = 0.185, precision = 0.980, and F1 = 0.311 - learned after 150 total and 59 acceptable nodes.  Node score = -2.7716127253009413

 FOR active(a) IF (atm(a, anon802507, H, 1, anon802513), benzene(a, anon803087), atm(a, anon815043, N, 32, anon815049), ring_size_5(a, anon817465)) THEN output = -0.210256 ELSE output = -0.015662;

// Best in (weighted) recall bin #4, (0.2, 0.25], from 'outerLoop #4, null' and covering 5.0 wgt'ed positive and 0.0 wgt'ed negative examples:
//    Wgt'ed recall = 0.216, precision = 0.980, and F1 = 0.355 - learned after 27 total and 1 acceptable nodes.  Node score = -2.6302839461442016

 FOR active(a) IF (atm(a, anon493493, H, 1, anon493499), benzene(a, anon493789), hetero_aromatic_5_ring(a, anon516261)) THEN output = 0.026526 ELSE output = -0.006990;

// Best in (weighted) recall bin #5, (0.25, 0.3], from 'outerLoop #4, null' and covering 6.0 wgt'ed positive and 0.0 wgt'ed negative examples:
//    Wgt'ed recall = 0.260, precision = 0.984, and F1 = 0.411 - learned after 111 total and 33 acceptable nodes.  Node score = -2.394495005279046

 FOR active(a) IF (atm(a, anon493493, H, 1, anon493499), benzene(a, anon493789), atm(a, anon516239, N, 32, anon516245), atm(a, anon518589, O, 40, anon516245)) THEN output = 0.172308 ELSE output = -0.060414;

// Best in (weighted) recall bin #6, (0.3, 0.35], from 'outerLoop #4, null' and covering 8.0 wgt'ed positive and 0.0 wgt'ed negative examples:
//    Wgt'ed recall = 0.346, precision = 0.988, and F1 = 0.513 - learned after 339 total and 72 acceptable nodes.  Node score = -2.457387995755276

 FOR active(a) IF (atm(a, anon493493, H, 1, anon493499), benzene(a, anon493789), atm(a, anon516239, C, 22, anon516245), bond(a, anon524183, anon516239, 1)) THEN output = 0.120517 ELSE output = -0.063822;

// Best in (weighted) recall bin #7, (0.35, 0.4], from 'outerLoop #4, null' and covering 10.0 wgt'ed positive and 0.0 wgt'ed negative examples:
//    Wgt'ed recall = 0.369, precision = 0.990, and F1 = 0.538 - learned after 32 total and 3 acceptable nodes.  Node score = -2.8783714067371218

 FOR active(a) IF (atm(a, anon802507, H, 1, anon802513), benzene(a, anon803087), ring_size_5(a, anon815069)) THEN output = -0.106393 ELSE output = -0.019525;

// Best in (weighted) recall bin #8, (0.4, 0.45], from 'outerLoop #4, null' and covering 14.0 wgt'ed positive and 0.0 wgt'ed negative examples:
//    Wgt'ed recall = 0.436, precision = 0.993, and F1 = 0.606 - learned after 32 total and 3 acceptable nodes.  Node score = -4.635633289675341

 FOR active(a) IF (atm(a, anon365867, H, 1, anon365873), benzene(a, anon366181), ring_size_5(a, anon369751)) THEN output = -0.062417 ELSE output = 0.036426;

// Best in (weighted) recall bin #9, (0.45, 0.5], from 'outerLoop #4, null' and covering 36.0 wgt'ed positive and 0.0 wgt'ed negative examples:
//    Wgt'ed recall = 0.492, precision = 0.997, and F1 = 0.659 - learned after 178 total and 55 acceptable nodes.  Node score = -9.246127208998619

 FOR active(a) IF (atm(a, anon466193, C, 22, anon466199), bond(a, anon468587, anon466193, 1)) THEN output = -0.007699 ELSE output = -0.029724;

// Best in (weighted) recall bin #14, (0.7, 0.75], from 'outerLoop #4, null' and covering 17.0 wgt'ed positive and 0.0 wgt'ed negative examples:
//    Wgt'ed recall = 0.736, precision = 0.994, and F1 = 0.846 - learned after 121 total and 43 acceptable nodes.  Node score = -2.6305690205896424

 FOR active(a) IF (atm(a, anon493493, H, 1, anon493499), benzene(a, anon493789), atm(a, anon516239, N, 32, anon516245), bond(a, anon518597, anon516239, 1)) THEN output = 0.008239 ELSE output = -0.022210;

// Best in (weighted) recall bin #15, (0.75, 0.8], from 'outerLoop #4, null' and covering 18.0 wgt'ed positive and 0.0 wgt'ed negative examples:
//    Wgt'ed recall = 0.779, precision = 0.994, and F1 = 0.874 - learned after 8 total and 0 acceptable nodes.  Node score = -2.6302839961442013

 FOR active(a) IF (atm(a, anon493493, H, 1, anon493499), benzene(a, anon493789), atm(a, anon516239, N, 32, anon516245)) THEN output = -0.006990 ELSE output = 0.026526;

// Best in (weighted) recall bin #16, (0.8, 0.85], from 'outerLoop #4, null' and covering 22.0 wgt'ed positive and 0.0 wgt'ed negative examples:
//    Wgt'ed recall = 0.812, precision = 0.995, and F1 = 0.894 - learned after 9 total and 1 acceptable nodes.  Node score = -2.911048631335813

 FOR active(a) IF (atm(a, anon802507, H, 1, anon802513), benzene(a, anon803087), atm(a, anon815043, N, 32, anon815049)) THEN output = -0.062873 ELSE output = -0.002529;
      /* FALSE NEG: active(D151) Actual Bool=true Prob=0.7809894592256537 Output=0.21901054077434634 */
      /* FALSE NEG: active(D83) Actual Bool=true Prob=0.8231289101741377 Output=0.1768710898258623 */
      /* FALSE NEG: active(D154) Actual Bool=false Prob=0.3137691327561353 Output=-0.3137691327561353 */
      /* FALSE NEG: active(D9) Actual Bool=false Prob=0.3137691327561353 Output=-0.3137691327561353 */
      /* FALSE NEG: active(D172) Actual Bool=true Prob=0.7809894592256537 Output=0.21901054077434634 */

// Best in (weighted) recall bin #18, (0.9, 0.95], from 'outerLoop #4, null' and covering 23.0 wgt'ed positive and 0.0 wgt'ed negative examples:
//    Wgt'ed recall = 0.916, precision = 0.996, and F1 = 0.954 - learned after 9 total and 1 acceptable nodes.  Node score = -Infinity

 FOR active(a) IF (atm(a, anon553403, H, 1, anon553409), benzene(a, anon554617), atm(a, anon577693, N, 32, anon577699)) THEN output = -0.058495 ELSE output = -0.353381;
      /* FALSE NEG: active(D154) Actual Bool=false Prob=0.353380690058216 Output=-0.353380690058216 */
      /* FALSE NEG: active(D9) Actual Bool=false Prob=0.353380690058216 Output=-0.353380690058216 */

// Best in (weighted) recall bin #19, (0.95, 1.01], from 'outerLoop #4, null' and covering 1,400.0 wgt'ed positive and 0.0 wgt'ed negative examples:
//    Wgt'ed recall = 0.972, precision = 1.000, and F1 = 0.986 - learned after 13 total and 3 acceptable nodes.  Node score = -80253.69969006746

 FOR active(a) IF (benzene(a, anon873341)) THEN output = 0.435695 ELSE output = 1.925049;
      /* FALSE NEG: active(D150) Actual Bool=false Prob=0.14185106490048777 Output=-1.8234575718766686 */
      /* FALSE NEG: active(D63) Actual Bool=true Prob=0.14185106490048777 Output=5.673556506095312 */


////////////////////////////////////////////////////////////////////////////////
////
////     Gleaner for: outerLoop #5, null
////
////////////////////////////////////////////////////////////////////////////////

// Best in (weighted) recall bin #0, (-Infinity, 0.05], from 'outerLoop #5, null' and covering 3.0 wgt'ed positive and 0.0 wgt'ed negative examples:
//    Wgt'ed recall = 0.042, precision = 0.968, and F1 = 0.080 - learned after 6 total and 1 acceptable nodes.  Node score = -6.42477962193429

 FOR active(a) IF (atm(a, anon638949, C, 14, anon638955)) THEN output = 0.044059 ELSE output = -0.033181;

// Best in (weighted) recall bin #1, (0.05, 0.1], from 'outerLoop #5, null' and covering 7.0 wgt'ed positive and 0.0 wgt'ed negative examples:
//    Wgt'ed recall = 0.097, precision = 0.986, and F1 = 0.177 - learned after 122 total and 56 acceptable nodes.  Node score = -6.416297493536806

 FOR active(a) IF (methyl(a, anon638979), hetero_aromatic_5_ring(a, anon640401)) THEN output = -0.087462 ELSE output = -0.023771;

// Best in (weighted) recall bin #2, (0.1, 0.15], from 'outerLoop #5, null' and covering 5.0 wgt'ed positive and 0.0 wgt'ed negative examples:
//    Wgt'ed recall = 0.147, precision = 0.980, and F1 = 0.255 - learned after 112 total and 70 acceptable nodes.  Node score = -6.080955816646248

 FOR active(a) IF (atm(a, anon131037, H, 1, anon131043), hetero_aromatic_5_ring(a, anon132527)) THEN output = 0.173499 ELSE output = 0.062429;

// Best in (weighted) recall bin #3, (0.15, 0.2], from 'outerLoop #5, null' and covering 6.0 wgt'ed positive and 0.0 wgt'ed negative examples:
//    Wgt'ed recall = 0.176, precision = 0.984, and F1 = 0.299 - learned after 18 total and 3 acceptable nodes.  Node score = -5.902937261086208

 FOR active(a) IF (hetero_aromatic_5_ring(a, anon131059)) THEN output = 0.256681 ELSE output = 0.040637;

// Best in (weighted) recall bin #4, (0.2, 0.25], from 'outerLoop #5, null' and covering 5.0 wgt'ed positive and 0.0 wgt'ed negative examples:
//    Wgt'ed recall = 0.226, precision = 0.980, and F1 = 0.368 - learned after 28 total and 2 acceptable nodes.  Node score = -2.1933589989481943

 FOR active(a) IF (atm(a, anon802507, H, 1, anon802513), benzene(a, anon803087), hetero_aromatic_5_ring(a, anon824739)) THEN output = -0.002529 ELSE output = -0.019525;

// Best in (weighted) recall bin #5, (0.25, 0.3], from 'outerLoop #5, null' and covering 3.0 wgt'ed positive and 0.0 wgt'ed negative examples:
//    Wgt'ed recall = 0.297, precision = 0.968, and F1 = 0.455 - learned after 41 total and 31 acceptable nodes.  Node score = -1.3533747570636172

 FOR active(a) IF (atm(a, anon422063, N, 32, anon422069), atm(a, anon424567, O, 40, anon422069), ring_size_5(a, anon425237), benzene(a, anon425973)) THEN output = -0.187613 ELSE output = 0.221534;

// Best in (weighted) recall bin #6, (0.3, 0.35], from 'outerLoop #5, null' and covering 6.0 wgt'ed positive and 0.0 wgt'ed negative examples:
//    Wgt'ed recall = 0.331, precision = 0.984, and F1 = 0.496 - learned after 7 total and 6 acceptable nodes.  Node score = -2.0502700082672654

 FOR active(a) IF (atm(a, anon553403, H, 1, anon553409), benzene(a, anon554617), atm(a, anon587983, C, 29, anon587989)) THEN output = -0.029180 ELSE output = 0.002468;

// Best in (weighted) recall bin #7, (0.35, 0.4], from 'outerLoop #5, null' and covering 4.0 wgt'ed positive and 0.0 wgt'ed negative examples:
//    Wgt'ed recall = 0.396, precision = 0.976, and F1 = 0.563 - learned after 29 total and 24 acceptable nodes.  Node score = -1.4269331088242547

 FOR active(a) IF (atm(a, anon422063, N, 32, anon422069), atm(a, anon424567, O, 40, anon422069), ring_size_5(a, anon425237)) THEN output = -0.105410 ELSE output = 0.234923;

// Best in (weighted) recall bin #8, (0.4, 0.45], from 'outerLoop #5, null' and covering 22.0 wgt'ed positive and 0.0 wgt'ed negative examples:
//    Wgt'ed recall = 0.422, precision = 0.995, and F1 = 0.593 - learned after 4 total and 0 acceptable nodes.  Node score = -9.458372396730136

 FOR active(a) IF (atm(a, anon93955, C, 29, anon93961)) THEN output = 0.333337 ELSE output = 0.046436;

// Best in (weighted) recall bin #9, (0.45, 0.5], from 'outerLoop #5, null' and covering 5.0 wgt'ed positive and 0.0 wgt'ed negative examples:
//    Wgt'ed recall = 0.495, precision = 0.980, and F1 = 0.658 - learned after 308 total and 235 acceptable nodes.  Node score = -0.9613149560240374

 FOR active(a) IF (atm(a, anon422063, N, 32, anon422069), atm(a, anon424567, O, 40, anon422069), atm(a, anon425211, C, 22, anon425217), bond(a, anon422063, anon425211, 1)) THEN output = 0.371481 ELSE output = -0.173901;

// Best in (weighted) recall bin #10, (0.5, 0.55], from 'outerLoop #5, null' and covering 30.0 wgt'ed positive and 0.0 wgt'ed negative examples:
//    Wgt'ed recall = 0.508, precision = 0.997, and F1 = 0.673 - learned after 137 total and 35 acceptable nodes.  Node score = -8.54215653204799

 FOR active(a) IF (atm(a, anon775661, C, 22, anon775667), bond(a, anon777483, anon775661, 1)) THEN output = -0.015116 ELSE output = -0.011769;

// Best in (weighted) recall bin #12, (0.6, 0.65], from 'outerLoop #5, null' and covering 11.0 wgt'ed positive and 0.0 wgt'ed negative examples:
//    Wgt'ed recall = 0.643, precision = 0.991, and F1 = 0.780 - learned after 122 total and 65 acceptable nodes.  Node score = -1.9778153399357745

 FOR active(a) IF (atm(a, anon493493, H, 1, anon493499), benzene(a, anon493789), atm(a, anon525727, N, 32, anon525733), bond(a, anon528121, anon525727, 1)) THEN output = -0.081253 ELSE output = -0.022210;

// Best in (weighted) recall bin #14, (0.7, 0.75], from 'outerLoop #5, null' and covering 12.0 wgt'ed positive and 0.0 wgt'ed negative examples:
//    Wgt'ed recall = 0.702, precision = 0.992, and F1 = 0.822 - learned after 9 total and 8 acceptable nodes.  Node score = -1.9378082181630436

 FOR active(a) IF (atm(a, anon493493, H, 1, anon493499), benzene(a, anon493789), atm(a, anon525727, N, 32, anon525733)) THEN output = -0.096639 ELSE output = 0.026526;

// Best in (weighted) recall bin #15, (0.75, 0.8], from 'outerLoop #5, null' and covering 17.0 wgt'ed positive and 0.0 wgt'ed negative examples:
//    Wgt'ed recall = 0.769, precision = 0.994, and F1 = 0.867 - learned after 9 total and 1 acceptable nodes.  Node score = -2.193359048948194

 FOR active(a) IF (atm(a, anon802507, H, 1, anon802513), benzene(a, anon803087), atm(a, anon824717, N, 32, anon824723)) THEN output = -0.019525 ELSE output = -0.002529;

// Best in (weighted) recall bin #16, (0.8, 0.85], from 'outerLoop #5, null' and covering 57.0 wgt'ed positive and 0.0 wgt'ed negative examples:
//    Wgt'ed recall = 0.813, precision = 0.998, and F1 = 0.896 - learned after 218 total and 55 acceptable nodes.  Node score = -10.434994225505962

 FOR active(a) IF (atm(a, anon243607, N, 38, anon243613), bond(a, anon246797, anon243607, 1)) THEN output = 0.042877 ELSE output = -0.076160;
      /* FALSE NEG: active(D21) Actual Bool=true Prob=0.40355863753836424 Output=0.5964413624616358 */
      /* FALSE NEG: active(D38) Actual Bool=false Prob=0.40355863753836424 Output=-0.40355863753836424 */
      /* FALSE NEG: active(D79) Actual Bool=true Prob=0.2445371999457168 Output=0.7554628000542832 */
      /* FALSE NEG: active(D49) Actual Bool=true Prob=0.455522971325809 Output=0.544477028674191 */
      /* FALSE NEG: active(D3) Actual Bool=false Prob=0.25940079034737945 Output=-0.25940079034737945 */

// Best in (weighted) recall bin #17, (0.85, 0.9], from 'outerLoop #5, null' and covering 46.0 wgt'ed positive and 0.0 wgt'ed negative examples:
//    Wgt'ed recall = 0.883, precision = 0.998, and F1 = 0.937 - learned after 217 total and 55 acceptable nodes.  Node score = -10.491508739906468

 FOR active(a) IF (atm(a, anon93955, N, 38, anon93961), bond(a, anon97157, anon93955, 1)) THEN output = 0.173210 ELSE output = 0.126472;
      /* FALSE NEG: active(D21) Actual Bool=true Prob=0.22982855087423115 Output=0.7701714491257688 */
      /* FALSE NEG: active(D5) Actual Bool=false Prob=0.21461769938178055 Output=-0.21461769938178055 */
      /* FALSE NEG: active(D73) Actual Bool=false Prob=0.1955817865576237 Output=-0.1955817865576237 */
      /* FALSE NEG: active(D38) Actual Bool=false Prob=0.22982855087423115 Output=-0.22982855087423115 */
      /* FALSE NEG: active(D79) Actual Bool=true Prob=0.22982855087423115 Output=0.7701714491257688 */

// Best in (weighted) recall bin #18, (0.9, 0.95], from 'outerLoop #5, null' and covering 17.0 wgt'ed positive and 0.0 wgt'ed negative examples:
//    Wgt'ed recall = 0.939, precision = 0.994, and F1 = 0.966 - learned after 381 total and 240 acceptable nodes.  Node score = -Infinity

 FOR active(a) IF (atm(a, anon553403, H, 1, anon553409), benzene(a, anon554617), atm(a, anon587983, N, 32, anon587989), bond(a, anon597423, anon587983, 1)) THEN output = 0.006653 ELSE output = -0.258562;
      /* FALSE NEG: active(D73) Actual Bool=false Prob=0.25856171849719134 Output=-0.25856171849719134 */

// Best in (weighted) recall bin #19, (0.95, 1.01], from 'outerLoop #5, null' and covering 11.0 wgt'ed positive and 0.0 wgt'ed negative examples:
//    Wgt'ed recall = 0.991, precision = 0.991, and F1 = 0.991 - learned after 1 total and 0 acceptable nodes.  Node score = -4.341747313659581

 FOR active(a) IF (atm(a, anon365867, H, 1, anon365873), benzene(a, anon366181), atm(a, anon369725, N, 32, anon369731), atm(a, anon374729, O, 40, anon369731)) THEN output = 0.141920 ELSE output = -0.084729;


////////////////////////////////////////////////////////////////////////////////
////
////     Gleaner for: outerLoop #6, null
////
////////////////////////////////////////////////////////////////////////////////

// Best in (weighted) recall bin #0, (-Infinity, 0.05], from 'outerLoop #6, null' and covering 4.0 wgt'ed positive and 0.0 wgt'ed negative examples:
//    Wgt'ed recall = 0.045, precision = 0.976, and F1 = 0.087 - learned after 16 total and 6 acceptable nodes.  Node score = -9.641920611672601

 FOR active(a) IF (carbon_5_aromatic_ring(a, anon676137)) THEN output = 0.094230 ELSE output = -0.010057;

// Best in (weighted) recall bin #1, (0.05, 0.1], from 'outerLoop #6, null' and covering 3.0 wgt'ed positive and 0.0 wgt'ed negative examples:
//    Wgt'ed recall = 0.075, precision = 0.968, and F1 = 0.139 - learned after 54 total and 12 acceptable nodes.  Node score = -4.105921233953511

 FOR active(a) IF (atm(a, anon419153, C, 29, anon419159), ring_size_5(a, anon434067), methyl(a, anon434655)) THEN output = 0.181275 ELSE output = 0.072043;

// Best in (weighted) recall bin #2, (0.1, 0.15], from 'outerLoop #6, null' and covering 6.0 wgt'ed positive and 0.0 wgt'ed negative examples:
//    Wgt'ed recall = 0.150, precision = 0.984, and F1 = 0.260 - learned after 29 total and 2 acceptable nodes.  Node score = -4.13496859675545

 FOR active(a) IF (atm(a, anon419153, C, 29, anon419159), methyl(a, anon434071)) THEN output = 0.056248 ELSE output = 0.084469;

// Best in (weighted) recall bin #3, (0.15, 0.2], from 'outerLoop #6, null' and covering 9.0 wgt'ed positive and 0.0 wgt'ed negative examples:
//    Wgt'ed recall = 0.169, precision = 0.989, and F1 = 0.289 - learned after 21 total and 6 acceptable nodes.  Node score = -5.306586136502126

 FOR active(a) IF (methyl(a, anon642553)) THEN output = -0.086040 ELSE output = -0.033624;

// Best in (weighted) recall bin #4, (0.2, 0.25], from 'outerLoop #6, null' and covering 3.0 wgt'ed positive and 0.0 wgt'ed negative examples:
//    Wgt'ed recall = 0.248, precision = 0.968, and F1 = 0.395 - learned after 280 total and 179 acceptable nodes.  Node score = -1.4556052470743317

 FOR active(a) IF (atm(a, anon493493, H, 1, anon493499), benzene(a, anon493789), atm(a, anon535369, C, 22, anon535375), bond(a, anon541921, anon535369, 1)) THEN output = -0.156793 ELSE output = -0.076588;

// Best in (weighted) recall bin #5, (0.25, 0.3], from 'outerLoop #6, null' and covering 6.0 wgt'ed positive and 0.0 wgt'ed negative examples:
//    Wgt'ed recall = 0.271, precision = 0.984, and F1 = 0.426 - learned after 53 total and 21 acceptable nodes.  Node score = -4.031932747836477

 FOR active(a) IF (atm(a, anon93955, C, 29, anon93961), atm(a, anon97725, N, 32, anon97731), bond(a, anon98353, anon97725, 1)) THEN output = 0.061114 ELSE output = 0.435420;

// Best in (weighted) recall bin #6, (0.3, 0.35], from 'outerLoop #6, null' and covering 7.0 wgt'ed positive and 0.0 wgt'ed negative examples:
//    Wgt'ed recall = 0.332, precision = 0.986, and F1 = 0.496 - learned after 28 total and 1 acceptable nodes.  Node score = -2.4059925482670237

 FOR active(a) IF (atm(a, anon365867, H, 1, anon365873), benzene(a, anon366181), hetero_aromatic_5_ring(a, anon388649)) THEN output = -0.005388 ELSE output = -0.124399;

// Best in (weighted) recall bin #7, (0.35, 0.4], from 'outerLoop #6, null' and covering 5.0 wgt'ed positive and 0.0 wgt'ed negative examples:
//    Wgt'ed recall = 0.382, precision = 0.980, and F1 = 0.549 - learned after 9 total and 8 acceptable nodes.  Node score = -2.587082395698039

 FOR active(a) IF (atm(a, anon131037, C, 29, anon131043), atm(a, anon135061, N, 32, anon135067)) THEN output = 0.151641 ELSE output = 0.322628;

// Best in (weighted) recall bin #8, (0.4, 0.45], from 'outerLoop #6, null' and covering 9.0 wgt'ed positive and 0.0 wgt'ed negative examples:
//    Wgt'ed recall = 0.427, precision = 0.989, and F1 = 0.596 - learned after 32 total and 2 acceptable nodes.  Node score = -2.4657024984308333

 FOR active(a) IF (atm(a, anon365867, H, 1, anon365873), benzene(a, anon366181), ring_size_5(a, anon388653)) THEN output = -0.064591 ELSE output = -0.099832;

// Best in (weighted) recall bin #9, (0.45, 0.5], from 'outerLoop #6, null' and covering 6.0 wgt'ed positive and 0.0 wgt'ed negative examples:
//    Wgt'ed recall = 0.496, precision = 0.984, and F1 = 0.659 - learned after 7 total and 6 acceptable nodes.  Node score = -1.4286519670969597

 FOR active(a) IF (atm(a, anon493493, H, 1, anon493499), benzene(a, anon493789), atm(a, anon535369, C, 29, anon535375)) THEN output = -0.037884 ELSE output = -0.155395;

// Best in (weighted) recall bin #10, (0.5, 0.55], from 'outerLoop #6, null' and covering 28.0 wgt'ed positive and 0.0 wgt'ed negative examples:
//    Wgt'ed recall = 0.518, precision = 0.996, and F1 = 0.681 - learned after 189 total and 69 acceptable nodes.  Node score = -8.54704780640492

 FOR active(a) IF (atm(a, anon747691, C, 22, anon747697), bond(a, anon750403, anon747691, 1)) THEN output = 0.007030 ELSE output = 0.000459;

// Best in (weighted) recall bin #11, (0.55, 0.6], from 'outerLoop #6, null' and covering 13.0 wgt'ed positive and 0.0 wgt'ed negative examples:
//    Wgt'ed recall = 0.588, precision = 0.992, and F1 = 0.739 - learned after 16 total and 3 acceptable nodes.  Node score = -4.636751862215237

 FOR active(a) IF (atm(a, anon54511, N, 38, anon54517), bond(a, anon57421, anon54511, 2), bond(a, anon58587, anon54511, 1)) THEN output = 0.478913 ELSE output = 0.138822;

// Best in (weighted) recall bin #12, (0.6, 0.65], from 'outerLoop #6, null' and covering 13.0 wgt'ed positive and 0.0 wgt'ed negative examples:
//    Wgt'ed recall = 0.616, precision = 0.992, and F1 = 0.760 - learned after 89 total and 30 acceptable nodes.  Node score = -2.4451348314512704

 FOR active(a) IF (atm(a, anon365867, H, 1, anon365873), benzene(a, anon366181), atm(a, anon388627, N, 32, anon388633), bond(a, anon390239, anon388627, 1)) THEN output = -0.112834 ELSE output = -0.039057;

// Best in (weighted) recall bin #13, (0.65, 0.7], from 'outerLoop #6, null' and covering 14.0 wgt'ed positive and 0.0 wgt'ed negative examples:
//    Wgt'ed recall = 0.664, precision = 0.993, and F1 = 0.795 - learned after 11 total and 0 acceptable nodes.  Node score = -2.4059925982670234

 FOR active(a) IF (atm(a, anon365867, H, 1, anon365873), benzene(a, anon366181), atm(a, anon388627, N, 32, anon388633)) THEN output = -0.124399 ELSE output = -0.005388;

// Best in (weighted) recall bin #15, (0.75, 0.8], from 'outerLoop #6, null' and covering 47.0 wgt'ed positive and 0.0 wgt'ed negative examples:
//    Wgt'ed recall = 0.795, precision = 0.998, and F1 = 0.885 - learned after 230 total and 67 acceptable nodes.  Node score = -10.107763018977337

 FOR active(a) IF (atm(a, anon247373, N, 38, anon247379), bond(a, anon250939, anon247373, 1)) THEN output = 0.076952 ELSE output = -0.074720;

// Best in (weighted) recall bin #19, (0.95, 1.01], from 'outerLoop #6, null' and covering 16.0 wgt'ed positive and 0.0 wgt'ed negative examples:
//    Wgt'ed recall = 0.994, precision = 0.994, and F1 = 0.994 - learned after 1 total and 0 acceptable nodes.  Node score = -2.186756441598029

 FOR active(a) IF (atm(a, anon802507, H, 1, anon802513), benzene(a, anon803087), atm(a, anon824717, N, 32, anon824723), bond(a, anon827111, anon824717, 1)) THEN output = -0.004191 ELSE output = -0.046251;


////////////////////////////////////////////////////////////////////////////////
////
////     Gleaner for: outerLoop #7, null
////
////////////////////////////////////////////////////////////////////////////////

// Best in (weighted) recall bin #0, (-Infinity, 0.05], from 'outerLoop #7, null' and covering 3.0 wgt'ed positive and 0.0 wgt'ed negative examples:
//    Wgt'ed recall = 0.048, precision = 0.968, and F1 = 0.091 - learned after 44 total and 22 acceptable nodes.  Node score = -1.5223283297683512

 FOR active(a) IF (ring_size_5(a, anon703435), atm(a, anon720349, C, 14, anon720355), atm(a, anon720825, C, 10, anon720831)) THEN output = 0.259378 ELSE output = 0.042897;

// Best in (weighted) recall bin #1, (0.05, 0.1], from 'outerLoop #7, null' and covering 3.0 wgt'ed positive and 0.0 wgt'ed negative examples:
//    Wgt'ed recall = 0.088, precision = 0.968, and F1 = 0.161 - learned after 178 total and 92 acceptable nodes.  Node score = -0.4816894740363485

 FOR active(a) IF (atm(a, anon663691, C, 29, anon663697), ring_size_5(a, anon664289), atm(a, anon680071, C, 10, anon663697), atm(a, anon684447, N, 32, anon684453)) THEN output = 0.174741 ELSE output = 0.072273;

// Best in (weighted) recall bin #2, (0.1, 0.15], from 'outerLoop #7, null' and covering 4.0 wgt'ed positive and 0.0 wgt'ed negative examples:
//    Wgt'ed recall = 0.117, precision = 0.976, and F1 = 0.209 - learned after 13 total and 2 acceptable nodes.  Node score = -0.4647846701075213

 FOR active(a) IF (atm(a, anon663691, C, 29, anon663697), ring_size_5(a, anon664289), atm(a, anon680071, N, 32, anon680077)) THEN output = -0.019006 ELSE output = 0.094690;

// Best in (weighted) recall bin #3, (0.15, 0.2], from 'outerLoop #7, null' and covering 12.0 wgt'ed positive and 0.0 wgt'ed negative examples:
//    Wgt'ed recall = 0.190, precision = 0.992, and F1 = 0.319 - learned after 37 total and 14 acceptable nodes.  Node score = -1.5473937789259615

 FOR active(a) IF (ring_size_5(a, anon734567), hetero_aromatic_5_ring(a, anon734567), benzene(a, anon752023)) THEN output = -0.008474 ELSE output = 0.062873;

// Best in (weighted) recall bin #4, (0.2, 0.25], from 'outerLoop #7, null' and covering 14.0 wgt'ed positive and 0.0 wgt'ed negative examples:
//    Wgt'ed recall = 0.222, precision = 0.993, and F1 = 0.363 - learned after 96 total and 57 acceptable nodes.  Node score = -1.5223887506903688

 FOR active(a) IF (ring_size_5(a, anon703435), atm(a, anon720349, H, 1, anon720355), benzene(a, anon721735)) THEN output = -0.033023 ELSE output = 0.077842;

// Best in (weighted) recall bin #5, (0.25, 0.3], from 'outerLoop #7, null' and covering 3.0 wgt'ed positive and 0.0 wgt'ed negative examples:
//    Wgt'ed recall = 0.270, precision = 0.968, and F1 = 0.423 - learned after 88 total and 64 acceptable nodes.  Node score = -0.4435421019171024

 FOR active(a) IF (atm(a, anon229695, N, 34, anon229701), atm(a, anon231177, C, 21, anon231183), bond(a, anon229695, anon231177, 7), benzene(a, anon252831)) THEN output = -0.341096 ELSE output = 0.006630;

// Best in (weighted) recall bin #6, (0.3, 0.35], from 'outerLoop #7, null' and covering 21.0 wgt'ed positive and 0.0 wgt'ed negative examples:
//    Wgt'ed recall = 0.333, precision = 0.995, and F1 = 0.499 - learned after 98 total and 43 acceptable nodes.  Node score = -1.5863221629288422

 FOR active(a) IF (ring_size_5(a, anon734567), atm(a, anon751557, C, 29, anon751563), bond(a, anon751557, anon752765, 1)) THEN output = 0.067560 ELSE output = 0.040145;

// Best in (weighted) recall bin #7, (0.35, 0.4], from 'outerLoop #7, null' and covering 4.0 wgt'ed positive and 0.0 wgt'ed negative examples:
//    Wgt'ed recall = 0.360, precision = 0.976, and F1 = 0.526 - learned after 19 total and 15 acceptable nodes.  Node score = -0.47861619510427056

 FOR active(a) IF (atm(a, anon229695, N, 34, anon229701), atm(a, anon231177, C, 21, anon231183), bond(a, anon229695, anon231177, 7)) THEN output = -0.278965 ELSE output = 0.020802;

// Best in (weighted) recall bin #8, (0.4, 0.45], from 'outerLoop #7, null' and covering 5.0 wgt'ed positive and 0.0 wgt'ed negative examples:
//    Wgt'ed recall = 0.413, precision = 0.980, and F1 = 0.581 - learned after 5 total and 3 acceptable nodes.  Node score = -1.3404723477619178

 FOR active(a) IF (atm(a, anon789807, C, 27, anon789813)) THEN output = -0.296350 ELSE output = 0.024275;

// Best in (weighted) recall bin #9, (0.45, 0.5], from 'outerLoop #7, null' and covering 5.0 wgt'ed positive and 0.0 wgt'ed negative examples:
//    Wgt'ed recall = 0.450, precision = 0.980, and F1 = 0.617 - learned after 125 total and 104 acceptable nodes.  Node score = -0.3155428579731765

 FOR active(a) IF (atm(a, anon315017, N, 34, anon315023), atm(a, anon316519, C, 21, anon316525), atm(a, anon336839, O, 40, anon315023), bond(a, anon316519, anon315017, 7)) THEN output = 0.062218 ELSE output = -0.195277;

// Best in (weighted) recall bin #10, (0.5, 0.55], from 'outerLoop #7, null' and covering 6.0 wgt'ed positive and 0.0 wgt'ed negative examples:
//    Wgt'ed recall = 0.541, precision = 0.984, and F1 = 0.698 - learned after 176 total and 145 acceptable nodes.  Node score = -0.489844448383383

 FOR active(a) IF (atm(a, anon315017, N, 34, anon315023), atm(a, anon316519, C, 21, anon316525), methyl(a, anon336869), bond(a, anon316519, anon315017, 7)) THEN output = -0.100470 ELSE output = -0.051551;

// Best in (weighted) recall bin #11, (0.55, 0.6], from 'outerLoop #7, null' and covering 7.0 wgt'ed positive and 0.0 wgt'ed negative examples:
//    Wgt'ed recall = 0.579, precision = 0.986, and F1 = 0.729 - learned after 221 total and 140 acceptable nodes.  Node score = -0.33410928570109233

 FOR active(a) IF (atm(a, anon553403, H, 1, anon553409), benzene(a, anon554617), atm(a, anon607551, C, 22, anon607557), bond(a, anon612455, anon607551, 1)) THEN output = 0.159089 ELSE output = -0.216801;

// Best in (weighted) recall bin #12, (0.6, 0.65], from 'outerLoop #7, null' and covering 7.0 wgt'ed positive and 0.0 wgt'ed negative examples:
//    Wgt'ed recall = 0.631, precision = 0.986, and F1 = 0.769 - learned after 8 total and 7 acceptable nodes.  Node score = -0.32593473000515494

 FOR active(a) IF (atm(a, anon315017, N, 34, anon315023), atm(a, anon316519, C, 21, anon316525), atm(a, anon336839, C, 22, anon316525)) THEN output = 0.015861 ELSE output = -0.242899;

// Best in (weighted) recall bin #14, (0.7, 0.75], from 'outerLoop #7, null' and covering 9.0 wgt'ed positive and 0.0 wgt'ed negative examples:
//    Wgt'ed recall = 0.744, precision = 0.989, and F1 = 0.849 - learned after 195 total and 130 acceptable nodes.  Node score = -1.6086327142466519

 FOR active(a) IF (atm(a, anon789807, N, 38, anon789813), bond(a, anon792713, anon789807, 2)) THEN output = -0.079656 ELSE output = -0.198307;

// Best in (weighted) recall bin #15, (0.75, 0.8], from 'outerLoop #7, null' and covering 44.0 wgt'ed positive and 0.0 wgt'ed negative examples:
//    Wgt'ed recall = 0.757, precision = 0.998, and F1 = 0.861 - learned after 69 total and 26 acceptable nodes.  Node score = -3.9091768484512057

 FOR active(a) IF (atm(a, anon629561, C, 29, anon629567), bond(a, anon629561, anon646531, 1), bond(a, anon629561, anon647623, 7)) THEN output = 0.059495 ELSE output = 0.093904;

// Best in (weighted) recall bin #16, (0.8, 0.85], from 'outerLoop #7, null' and covering 9.0 wgt'ed positive and 0.0 wgt'ed negative examples:
//    Wgt'ed recall = 0.811, precision = 0.989, and F1 = 0.891 - learned after 20 total and 16 acceptable nodes.  Node score = -Infinity

 FOR active(a) IF (atm(a, anon229695, N, 34, anon229701), atm(a, anon231177, C, 21, anon231183), bond(a, anon231177, anon251559, 7)) THEN output = -0.044134 ELSE output = -0.286518;
      /* FALSE NEG: active(D147) Actual Bool=false Prob=0.12278455246782898 Output=-0.12278455246782898 */
      /* FALSE NEG: active(D154) Actual Bool=false Prob=0.4502514284234158 Output=-0.4502514284234158 */

// Best in (weighted) recall bin #18, (0.9, 0.95], from 'outerLoop #7, null' and covering 10.0 wgt'ed positive and 0.0 wgt'ed negative examples:
//    Wgt'ed recall = 0.901, precision = 0.990, and F1 = 0.943 - learned after 18 total and 14 acceptable nodes.  Node score = -Infinity

 FOR active(a) IF (atm(a, anon229695, N, 34, anon229701), atm(a, anon231177, C, 21, anon231183), bond(a, anon229695, anon251559, 1)) THEN output = -0.084746 ELSE output = -0.122785;
      /* FALSE NEG: active(D147) Actual Bool=false Prob=0.12278455246782898 Output=-0.12278455246782898 */

// Best in (weighted) recall bin #19, (0.95, 1.01], from 'outerLoop #7, null' and covering 12.0 wgt'ed positive and 0.0 wgt'ed negative examples:
//    Wgt'ed recall = 0.992, precision = 0.992, and F1 = 0.992 - learned after 1 total and 0 acceptable nodes.  Node score = -11.421557773965075

 FOR active(a) IF (atm(a, anon553403, H, 1, anon553409), benzene(a, anon554617)) THEN output = -0.023465 ELSE output = 0.052501;


////////////////////////////////////////////////////////////////////////////////
////
////     Gleaner for: outerLoop #8, null
////
////////////////////////////////////////////////////////////////////////////////

// Best in (weighted) recall bin #0, (-Infinity, 0.05], from 'outerLoop #8, null' and covering 3.0 wgt'ed positive and 0.0 wgt'ed negative examples:
//    Wgt'ed recall = 0.048, precision = 0.968, and F1 = 0.091 - learned after 123 total and 56 acceptable nodes.  Node score = -1.553778315958761

 FOR active(a) IF (ring_size_5(a, anon764629), atm(a, anon793819, C, 29, anon793825), methyl(a, anon795063)) THEN output = 0.092500 ELSE output = 0.041259;

// Best in (weighted) recall bin #1, (0.05, 0.1], from 'outerLoop #8, null' and covering 4.0 wgt'ed positive and 0.0 wgt'ed negative examples:
//    Wgt'ed recall = 0.071, precision = 0.976, and F1 = 0.133 - learned after 29 total and 9 acceptable nodes.  Node score = -1.3889843314844599

 FOR active(a) IF (ring_size_5(a, anon734567), methyl(a, anon756567)) THEN output = 0.205450 ELSE output = 0.054006;

// Best in (weighted) recall bin #2, (0.1, 0.15], from 'outerLoop #8, null' and covering 4.0 wgt'ed positive and 0.0 wgt'ed negative examples:
//    Wgt'ed recall = 0.148, precision = 0.976, and F1 = 0.256 - learned after 24 total and 3 acceptable nodes.  Node score = -0.08211806535689158

 FOR active(a) IF (ball3(a, anon659997), anthracene(a, anon692931)) THEN output = 0.075927 ELSE output = 0.096713;

// Best in (weighted) recall bin #3, (0.15, 0.2], from 'outerLoop #8, null' and covering 9.0 wgt'ed positive and 0.0 wgt'ed negative examples:
//    Wgt'ed recall = 0.160, precision = 0.989, and F1 = 0.276 - learned after 15 total and 4 acceptable nodes.  Node score = -1.472660623416983

 FOR active(a) IF (ring_size_5(a, anon734567), carbon_5_aromatic_ring(a, anon734567)) THEN output = 0.076698 ELSE output = 0.062549;

// Best in (weighted) recall bin #4, (0.2, 0.25], from 'outerLoop #8, null' and covering 12.0 wgt'ed positive and 0.0 wgt'ed negative examples:
//    Wgt'ed recall = 0.214, precision = 0.992, and F1 = 0.352 - learned after 53 total and 30 acceptable nodes.  Node score = -1.376653225739014

 FOR active(a) IF (ring_size_5(a, anon703435), atm(a, anon725651, H, 1, anon725657), benzene(a, anon726133)) THEN output = -0.024749 ELSE output = 0.095790;

// Best in (weighted) recall bin #5, (0.25, 0.3], from 'outerLoop #8, null' and covering 8.0 wgt'ed positive and 0.0 wgt'ed negative examples:
//    Wgt'ed recall = 0.295, precision = 0.988, and F1 = 0.455 - learned after 16 total and 2 acceptable nodes.  Node score = -0.08358909332582673

 FOR active(a) IF (ball3(a, anon659997), carbon_6_ring(a, anon692917)) THEN output = 0.093947 ELSE output = 0.093501;

// Best in (weighted) recall bin #6, (0.3, 0.35], from 'outerLoop #8, null' and covering 16.0 wgt'ed positive and 0.0 wgt'ed negative examples:
//    Wgt'ed recall = 0.307, precision = 0.994, and F1 = 0.469 - learned after 6 total and 2 acceptable nodes.  Node score = -1.9764267159103028

 FOR active(a) IF (ring_size_5(a, anon319091), atm(a, anon351417, C, 28, anon351423)) THEN output = 0.175567 ELSE output = 0.154034;

// Best in (weighted) recall bin #7, (0.35, 0.4], from 'outerLoop #8, null' and covering 20.0 wgt'ed positive and 0.0 wgt'ed negative examples:
//    Wgt'ed recall = 0.357, precision = 0.995, and F1 = 0.525 - learned after 7 total and 2 acceptable nodes.  Node score = -1.4658940924298907

 FOR active(a) IF (ring_size_5(a, anon734567), atm(a, anon756537, C, 10, anon756543)) THEN output = 0.081136 ELSE output = 0.055760;

// Best in (weighted) recall bin #8, (0.4, 0.45], from 'outerLoop #8, null' and covering 3.0 wgt'ed positive and 0.0 wgt'ed negative examples:
//    Wgt'ed recall = 0.423, precision = 0.968, and F1 = 0.588 - learned after 230 total and 154 acceptable nodes.  Node score = -0.7500045500000001

 FOR active(a) IF (atm(a, anon1127, C, 27, anon1133), hetero_aromatic_6_ring(a, anon23295), atm(a, anon29321, C, 22, anon29327), bond(a, anon34365, anon29321, 1)) THEN output = -0.141851 ELSE output = 0.108149;

// Best in (weighted) recall bin #9, (0.45, 0.5], from 'outerLoop #8, null' and covering 4.0 wgt'ed positive and 0.0 wgt'ed negative examples:
//    Wgt'ed recall = 0.494, precision = 0.976, and F1 = 0.656 - learned after 18 total and 17 acceptable nodes.  Node score = -0.2532486334165332

 FOR active(a) IF (atm(a, anon229695, N, 34, anon229701), atm(a, anon231177, C, 21, anon231183), atm(a, anon266025, H, 1, anon266031)) THEN output = 0.128492 ELSE output = -0.115232;

// Best in (weighted) recall bin #10, (0.5, 0.55], from 'outerLoop #8, null' and covering 34.0 wgt'ed positive and 0.0 wgt'ed negative examples:
//    Wgt'ed recall = 0.539, precision = 0.997, and F1 = 0.700 - learned after 8 total and 3 acceptable nodes.  Node score = -1.5331638356688742

 FOR active(a) IF (ring_size_5(a, anon764629), atm(a, anon793819, C, 29, anon793825)) THEN output = 0.063209 ELSE output = 0.020825;

// Best in (weighted) recall bin #11, (0.55, 0.6], from 'outerLoop #8, null' and covering 33.0 wgt'ed positive and 0.0 wgt'ed negative examples:
//    Wgt'ed recall = 0.588, precision = 0.997, and F1 = 0.740 - learned after 176 total and 83 acceptable nodes.  Node score = -1.4728981743002652

 FOR active(a) IF (ring_size_5(a, anon734567), atm(a, anon756537, C, 29, anon756543), bond(a, anon759203, anon756537, 1)) THEN output = 0.068808 ELSE output = 0.059105;

// Best in (weighted) recall bin #12, (0.6, 0.65], from 'outerLoop #8, null' and covering 5.0 wgt'ed positive and 0.0 wgt'ed negative examples:
//    Wgt'ed recall = 0.617, precision = 0.980, and F1 = 0.758 - learned after 516 total and 410 acceptable nodes.  Node score = -0.14874301951515265

 FOR active(a) IF (atm(a, anon229695, N, 34, anon229701), atm(a, anon231177, C, 21, anon231183), atm(a, anon266025, C, 22, anon231183), methyl(a, anon279257)) THEN output = -0.122785 ELSE output = 0.222322;

// Best in (weighted) recall bin #13, (0.65, 0.7], from 'outerLoop #8, null' and covering 34.0 wgt'ed positive and 0.0 wgt'ed negative examples:
//    Wgt'ed recall = 0.653, precision = 0.997, and F1 = 0.789 - learned after 8 total and 3 acceptable nodes.  Node score = -1.9811795507406467

 FOR active(a) IF (ring_size_5(a, anon319091), atm(a, anon351417, C, 29, anon351423)) THEN output = 0.162634 ELSE output = 0.156930;

// Best in (weighted) recall bin #14, (0.7, 0.75], from 'outerLoop #8, null' and covering 6.0 wgt'ed positive and 0.0 wgt'ed negative examples:
//    Wgt'ed recall = 0.741, precision = 0.984, and F1 = 0.845 - learned after 14 total and 13 acceptable nodes.  Node score = -Infinity

 FOR active(a) IF (atm(a, anon229695, N, 34, anon229701), atm(a, anon231177, C, 21, anon231183), atm(a, anon266025, C, 10, anon266031)) THEN output = -0.117749 ELSE output = 0.379769;

// Best in (weighted) recall bin #16, (0.8, 0.85], from 'outerLoop #8, null' and covering 22.0 wgt'ed positive and 0.0 wgt'ed negative examples:
//    Wgt'ed recall = 0.812, precision = 0.995, and F1 = 0.894 - learned after 26 total and 4 acceptable nodes.  Node score = -0.08283062366396939

 FOR active(a) IF (ball3(a, anon659997), phenanthrene(a, anon692933)) THEN output = 0.091105 ELSE output = 0.104759;
      /* FALSE NEG: active(D51) Actual Bool=true Prob=0.8952405891489144 Output=0.10475941085108564 */
      /* FALSE NEG: active(D104) Actual Bool=true Prob=0.8952405891489144 Output=0.10475941085108564 */
      /* FALSE NEG: active(D52) Actual Bool=true Prob=0.8952405891489144 Output=0.10475941085108564 */
      /* FALSE NEG: active(D71) Actual Bool=true Prob=0.8952405891489144 Output=0.10475941085108564 */
      /* FALSE NEG: active(D157) Actual Bool=true Prob=0.8952405891489144 Output=0.10475941085108564 */

// Best in (weighted) recall bin #17, (0.85, 0.9], from 'outerLoop #8, null' and covering 7.0 wgt'ed positive and 0.0 wgt'ed negative examples:
//    Wgt'ed recall = 0.864, precision = 0.986, and F1 = 0.921 - learned after 7 total and 6 acceptable nodes.  Node score = -Infinity

 FOR active(a) IF (atm(a, anon229695, N, 34, anon229701), atm(a, anon231177, C, 21, anon231183), atm(a, anon266025, O, 40, anon229701)) THEN output = 0.020802 ELSE output = -0.092573;
      /* FALSE NEG: active(D150) Actual Bool=false Prob=0.09257347350288302 Output=-0.09257347350288302 */

// Best in (weighted) recall bin #19, (0.95, 1.01], from 'outerLoop #8, null' and covering 7.0 wgt'ed positive and 0.0 wgt'ed negative examples:
//    Wgt'ed recall = 0.986, precision = 0.986, and F1 = 0.986 - learned after 1 total and 0 acceptable nodes.  Node score = -5.489498178319272

 FOR active(a) IF (atm(a, anon1127, C, 27, anon1133), hetero_aromatic_6_ring(a, anon23295)) THEN output = 0.001006 ELSE output = 0.784620;


////////////////////////////////////////////////////////////////////////////////
////
////     Gleaner for: outerLoop #9, null
////
////////////////////////////////////////////////////////////////////////////////

// Best in (weighted) recall bin #0, (-Infinity, 0.05], from 'outerLoop #9, null' and covering 5.0 wgt'ed positive and 0.0 wgt'ed negative examples:
//    Wgt'ed recall = 0.042, precision = 0.980, and F1 = 0.081 - learned after 16 total and 6 acceptable nodes.  Node score = -7.161246216597468

 FOR active(a) IF (hetero_aromatic_6_ring(a, anon621679)) THEN output = -0.068285 ELSE output = 0.072841;

// Best in (weighted) recall bin #1, (0.05, 0.1], from 'outerLoop #9, null' and covering 4.0 wgt'ed positive and 0.0 wgt'ed negative examples:
//    Wgt'ed recall = 0.073, precision = 0.976, and F1 = 0.135 - learned after 52 total and 30 acceptable nodes.  Node score = -6.512927667988727

 FOR active(a) IF (atm(a, anon849429, C, 27, anon849435), methyl(a, anon849735)) THEN output = -0.090530 ELSE output = -0.012157;

// Best in (weighted) recall bin #2, (0.1, 0.15], from 'outerLoop #9, null' and covering 7.0 wgt'ed positive and 0.0 wgt'ed negative examples:
//    Wgt'ed recall = 0.127, precision = 0.986, and F1 = 0.225 - learned after 16 total and 4 acceptable nodes.  Node score = -6.529193606577519

 FOR active(a) IF (hetero_aromatic_6_ring(a, anon849449)) THEN output = -0.046357 ELSE output = -0.013700;

// Best in (weighted) recall bin #3, (0.15, 0.2], from 'outerLoop #9, null' and covering 11.0 wgt'ed positive and 0.0 wgt'ed negative examples:
//    Wgt'ed recall = 0.200, precision = 0.991, and F1 = 0.332 - learned after 68 total and 42 acceptable nodes.  Node score = -6.508751475590803

 FOR active(a) IF (methyl(a, anon849459), benzene(a, anon850287)) THEN output = -0.062136 ELSE output = -0.006787;

// Best in (weighted) recall bin #4, (0.2, 0.25], from 'outerLoop #9, null' and covering 12.0 wgt'ed positive and 0.0 wgt'ed negative examples:
//    Wgt'ed recall = 0.218, precision = 0.992, and F1 = 0.357 - learned after 21 total and 6 acceptable nodes.  Node score = -6.506700276767375

 FOR active(a) IF (methyl(a, anon849459)) THEN output = -0.061330 ELSE output = -0.005725;

// Best in (weighted) recall bin #5, (0.25, 0.3], from 'outerLoop #9, null' and covering 16.0 wgt'ed positive and 0.0 wgt'ed negative examples:
//    Wgt'ed recall = 0.290, precision = 0.994, and F1 = 0.449 - learned after 5 total and 1 acceptable nodes.  Node score = -6.499735452571798

 FOR active(a) IF (atm(a, anon849429, C, 27, anon849435)) THEN output = -0.057785 ELSE output = -0.001476;

// Best in (weighted) recall bin #6, (0.3, 0.35], from 'outerLoop #9, null' and covering 41.0 wgt'ed positive and 0.0 wgt'ed negative examples:
//    Wgt'ed recall = 0.347, precision = 0.998, and F1 = 0.515 - learned after 28 total and 14 acceptable nodes.  Node score = -7.085435933930474

 FOR active(a) IF (ring_size_5(a, anon621685), benzene(a, anon621965)) THEN output = 0.119056 ELSE output = 0.039068;

// Best in (weighted) recall bin #7, (0.35, 0.4], from 'outerLoop #9, null' and covering 42.0 wgt'ed positive and 0.0 wgt'ed negative examples:
//    Wgt'ed recall = 0.356, precision = 0.998, and F1 = 0.524 - learned after 19 total and 8 acceptable nodes.  Node score = -7.073878095165854

 FOR active(a) IF (ring_size_5(a, anon621685)) THEN output = 0.119796 ELSE output = 0.037607;

// Best in (weighted) recall bin #9, (0.45, 0.5], from 'outerLoop #9, null' and covering 27.0 wgt'ed positive and 0.0 wgt'ed negative examples:
//    Wgt'ed recall = 0.490, precision = 0.996, and F1 = 0.657 - learned after 204 total and 102 acceptable nodes.  Node score = -6.515641187402229

 FOR active(a) IF (atm(a, anon849429, C, 22, anon849435), bond(a, anon852309, anon849429, 1)) THEN output = -0.037309 ELSE output = 0.000901;

// Best in (weighted) recall bin #11, (0.55, 0.6], from 'outerLoop #9, null' and covering 69.0 wgt'ed positive and 0.0 wgt'ed negative examples:
//    Wgt'ed recall = 0.584, precision = 0.999, and F1 = 0.737 - learned after 5 total and 1 acceptable nodes.  Node score = -7.255035444537749

 FOR active(a) IF (atm(a, anon621659, C, 27, anon621665)) THEN output = 0.069938 ELSE output = 0.062527;

// Best in (weighted) recall bin #19, (0.95, 1.01], from 'outerLoop #9, null' and covering 117.0 wgt'ed positive and 0.0 wgt'ed negative examples:
//    Wgt'ed recall = 0.991, precision = 0.999, and F1 = 0.995 - learned after 4 total and 0 acceptable nodes.  Node score = -Infinity

 FOR active(a) IF (atm(a, anon621659, C, 22, anon621665)) THEN output = 0.066149 ELSE output = 0.150144;
      /* FALSE NEG: active(D63) Actual Bool=true Prob=0.849855733079959 Output=0.15014426692004101 */

