digraph G{ 
1[label = "[student(a), professor(b)]"];
1 -> 2[label="True"];
1 -> 3[label="False"];
2[label = "[publication(c, a), publication(c, b)]"];
2 -> 4[label="True"];
2 -> 5[label="False"];
4[label = "[taughtBy(d, b, e), ta(d, f, e)]"];
4 -> 6[label="True"];
4 -> 7[label="False"];
6[shape = box,label = "0.004(0.501)"];
7[shape = box,label = "0.029(0.507)"];
5[label = "[publication(g, a), ta(h, a, i)]"];
5 -> 8[label="True"];
5 -> 9[label="False"];
8[shape = box,label = "-0.013(0.497)"];
9[label = "[publication(j, b), yearsInProgram(a, Year_3)]"];
9 -> 10[label="True"];
9 -> 11[label="False"];
10[label = "[tempAdvisedBy(k, b), taughtBy(m, b, n)]"];
10 -> 12[label="True"];
10 -> 13[label="False"];
12[label = "[ta(m, p, q), courseLevel(m, Level_400)]"];
12 -> 14[label="True"];
12 -> 15[label="False"];
14[shape = box,label = "-0.000(0.500)"];
15[shape = box,label = "0.008(0.502)"];
13[label = "[publication(j, r), yearsInProgram(r, Year_3)]"];
13 -> 16[label="True"];
13 -> 17[label="False"];
16[shape = box,label = "0.395(0.597)"];
17[shape = box,label = "0.003(0.501)"];
11[shape = box,label = "-0.002(0.500)"];
3[shape = box,label = "-0.052(0.487)"];
}
