digraph G{ 
1[label = "[phenanthrene(a, b)]"];
1 -> 2[label="True"];
1 -> 3[label="False"];
2[label = "[anthracene(a, c)]"];
2 -> 4[label="True"];
2 -> 5[label="False"];
4[shape = box,label = "0.103(0.526)"];
5[label = "[carbon_6_ring(a, d)]"];
5 -> 6[label="True"];
5 -> 7[label="False"];
6[shape = box,label = "0.106(0.526)"];
7[shape = box,label = "0.148(0.537)"];
3[label = "[atm(a, e, C, 29, f), ring_size_5(a, g)]"];
3 -> 8[label="True"];
3 -> 9[label="False"];
8[shape = box,label = "0.127(0.532)"];
9[label = "[methyl(a, h)]"];
9 -> 10[label="True"];
9 -> 11[label="False"];
10[shape = box,label = "-0.077(0.481)"];
11[label = "[carbon_6_ring(a, i)]"];
11 -> 12[label="True"];
11 -> 13[label="False"];
12[shape = box,label = "0.128(0.532)"];
13[label = "[atm(a, j, N, 32, k), ring_size_5(a, m)]"];
13 -> 14[label="True"];
13 -> 15[label="False"];
14[shape = box,label = "-0.194(0.452)"];
15[label = "[ring_size_5(a, n)]"];
15 -> 16[label="True"];
15 -> 17[label="False"];
16[shape = box,label = "0.119(0.530)"];
17[shape = box,label = "0.000(0.500)"];
}
