digraph G{ 
1[label = "[methyl(a, b)]"];
1 -> 2[label="True"];
1 -> 3[label="False"];
2[label = "[atm(a, c, C, 29, d), ring_size_5(a, e)]"];
2 -> 4[label="True"];
2 -> 5[label="False"];
4[shape = box,label = "0.662(0.660)"];
5[shape = box,label = "-0.044(0.489)"];
3[label = "[hetero_aromatic_6_ring(a, f)]"];
3 -> 6[label="True"];
3 -> 7[label="False"];
6[shape = box,label = "-0.126(0.469)"];
7[label = "[atm(a, g, N, 32, h), benzene(a, i)]"];
7 -> 8[label="True"];
7 -> 9[label="False"];
8[label = "[ring_size_5(a, j)]"];
8 -> 10[label="True"];
8 -> 11[label="False"];
10[shape = box,label = "0.049(0.512)"];
11[label = "[atm(a, k, O, 40, h)]"];
11 -> 12[label="True"];
11 -> 13[label="False"];
12[shape = box,label = "0.622(0.651)"];
13[label = "[atm(a, m, C, 22, n), bond(a, p, m, 1)]"];
13 -> 14[label="True"];
13 -> 15[label="False"];
14[shape = box,label = "-0.034(0.492)"];
15[shape = box,label = "0.022(0.506)"];
9[label = "[atm(a, q, C, 27, r)]"];
9 -> 16[label="True"];
9 -> 17[label="False"];
16[shape = box,label = "0.573(0.639)"];
17[shape = box,label = "0.351(0.587)"];
}
