digraph G{ 
1[label = "[atm(a, b, H, 1, c), benzene(a, d)]"];
1 -> 2[label="True"];
1 -> 3[label="False"];
2[label = "[methyl(a, e)]"];
2 -> 4[label="True"];
2 -> 5[label="False"];
4[shape = box,label = "0.086(0.522)"];
5[label = "[atm(a, f, C, 26, c)]"];
5 -> 6[label="True"];
5 -> 7[label="False"];
6[shape = box,label = "0.169(0.542)"];
7[label = "[atm(a, g, N, 32, h), atm(a, i, O, 40, h)]"];
7 -> 8[label="True"];
7 -> 9[label="False"];
8[label = "[ring_size_5(a, j)]"];
8 -> 10[label="True"];
8 -> 11[label="False"];
10[shape = box,label = "-0.100(0.475)"];
11[shape = box,label = "0.147(0.537)"];
9[label = "[ring_size_5(a, k)]"];
9 -> 12[label="True"];
9 -> 13[label="False"];
12[shape = box,label = "-0.270(0.433)"];
13[shape = box,label = "-0.114(0.471)"];
3[label = "[hetero_aromatic_6_ring(a, m)]"];
3 -> 14[label="True"];
3 -> 15[label="False"];
14[label = "[atm(a, n, N, 38, p), bond(a, q, n, 1)]"];
14 -> 16[label="True"];
14 -> 17[label="False"];
16[shape = box,label = "0.010(0.503)"];
17[shape = box,label = "-0.219(0.445)"];
15[shape = box,label = "0.054(0.513)"];
}
