digraph G{ 
1[label = "[atm(a, b, N, 34, c), atm(a, d, C, 21, e)]"];
1 -> 2[label="True"];
1 -> 3[label="False"];
2[label = "[atm(a, f, C, 22, e)]"];
2 -> 4[label="True"];
2 -> 5[label="False"];
4[shape = box,label = "-0.021(0.495)"];
5[shape = box,label = "-0.220(0.445)"];
3[label = "[ring_size_5(a, g)]"];
3 -> 6[label="True"];
3 -> 7[label="False"];
6[shape = box,label = "0.080(0.520)"];
7[label = "[ball3(a, h)]"];
7 -> 8[label="True"];
7 -> 9[label="False"];
8[shape = box,label = "0.083(0.521)"];
9[label = "[methyl(a, i)]"];
9 -> 10[label="True"];
9 -> 11[label="False"];
10[shape = box,label = "-0.090(0.478)"];
11[label = "[atm(a, j, C, 29, k)]"];
11 -> 12[label="True"];
11 -> 13[label="False"];
12[label = "[atm(a, m, C, 22, n), bond(a, p, m, 1)]"];
12 -> 14[label="True"];
12 -> 15[label="False"];
14[shape = box,label = "-0.019(0.495)"];
15[shape = box,label = "0.086(0.522)"];
13[label = "[phenanthrene(a, q)]"];
13 -> 16[label="True"];
13 -> 17[label="False"];
16[shape = box,label = "0.085(0.521)"];
17[shape = box,label = "-0.024(0.494)"];
}
