digraph G{ 
1[label = "[atm(a, b, C, 27, c)]"];
1 -> 2[label="True"];
1 -> 3[label="False"];
2[shape = box,label = "0.138(0.535)"];
3[label = "[atm(a, d, CL, 93, e), bond(a, f, d, 1)]"];
3 -> 4[label="True"];
3 -> 5[label="False"];
4[shape = box,label = "-0.086(0.479)"];
5[label = "[atm(a, g, H, 1, h), benzene(a, i)]"];
5 -> 6[label="True"];
5 -> 7[label="False"];
6[label = "[atm(a, j, C, 26, h)]"];
6 -> 8[label="True"];
6 -> 9[label="False"];
8[shape = box,label = "0.117(0.529)"];
9[label = "[ring_size_5(a, k)]"];
9 -> 10[label="True"];
9 -> 11[label="False"];
10[label = "[atm(a, m, C, 14, n)]"];
10 -> 12[label="True"];
10 -> 13[label="False"];
12[shape = box,label = "0.143(0.536)"];
13[shape = box,label = "-0.301(0.425)"];
11[label = "[atm(a, p, C, 22, q), bond(a, r, p, 1)]"];
11 -> 14[label="True"];
11 -> 15[label="False"];
14[shape = box,label = "0.142(0.535)"];
15[shape = box,label = "-0.124(0.469)"];
7[label = "[atm(a, s, C, 29, t)]"];
7 -> 16[label="True"];
7 -> 17[label="False"];
16[shape = box,label = "0.168(0.542)"];
17[shape = box,label = "0.001(0.500)"];
}
