digraph G{ 
1[label = "[methyl(a, b)]"];
1 -> 2[label="True"];
1 -> 3[label="False"];
2[label = "[hetero_aromatic_5_ring(a, c)]"];
2 -> 4[label="True"];
2 -> 5[label="False"];
4[shape = box,label = "-0.130(0.468)"];
5[label = "[ring_size_5(a, d)]"];
5 -> 6[label="True"];
5 -> 7[label="False"];
6[shape = box,label = "0.436(0.607)"];
7[shape = box,label = "-0.042(0.489)"];
3[label = "[hetero_aromatic_6_ring(a, e)]"];
3 -> 8[label="True"];
3 -> 9[label="False"];
8[shape = box,label = "-0.079(0.480)"];
9[label = "[atm(a, f, N, 32, g), benzene(a, h)]"];
9 -> 10[label="True"];
9 -> 11[label="False"];
10[label = "[ring_size_5(a, i)]"];
10 -> 12[label="True"];
10 -> 13[label="False"];
12[shape = box,label = "-0.021(0.495)"];
13[label = "[atm(a, j, O, 40, k), greaterCharge(g, k)]"];
13 -> 14[label="True"];
13 -> 15[label="False"];
14[shape = box,label = "0.455(0.612)"];
15[label = "[atm(a, m, C, 22, n), bond(a, p, m, 1)]"];
15 -> 16[label="True"];
15 -> 17[label="False"];
16[shape = box,label = "-0.088(0.478)"];
17[shape = box,label = "-0.035(0.491)"];
11[shape = box,label = "0.277(0.569)"];
}
