digraph G{ 
1[label = "[ball3(a, b)]"];
1 -> 2[label="True"];
1 -> 3[label="False"];
2[shape = box,label = "0.100(0.525)"];
3[label = "[atm(a, c, C, 29, d), ring_size_5(a, e)]"];
3 -> 4[label="True"];
3 -> 5[label="False"];
4[label = "[methyl(a, f)]"];
4 -> 6[label="True"];
4 -> 7[label="False"];
6[shape = box,label = "0.085(0.521)"];
7[shape = box,label = "0.093(0.523)"];
5[label = "[carbon_5_aromatic_ring(a, g)]"];
5 -> 8[label="True"];
5 -> 9[label="False"];
8[shape = box,label = "0.114(0.528)"];
9[label = "[carbon_6_ring(a, h)]"];
9 -> 10[label="True"];
9 -> 11[label="False"];
10[shape = box,label = "0.111(0.528)"];
11[label = "[methyl(a, i)]"];
11 -> 12[label="True"];
11 -> 13[label="False"];
12[label = "[ring_size_5(a, j), benzene(a, k)]"];
12 -> 14[label="True"];
12 -> 15[label="False"];
14[shape = box,label = "-0.005(0.499)"];
15[shape = box,label = "-0.095(0.476)"];
13[label = "[atm(a, m, N, 32, n), ring_size_5(a, p)]"];
13 -> 16[label="True"];
13 -> 17[label="False"];
16[shape = box,label = "-0.235(0.442)"];
17[shape = box,label = "0.008(0.502)"];
}
