digraph RDN{
0[style="filled" label="memberOfList(willAnything,willList)" color="gray82"];
25 -> 0[label="" style=dashed];
1[style="filled" label="number()" color="gray92"];
2[style="filled" label="var()" color="gray92"];
3[style="filled" label="active(Drug)" color="gray52"];
22 -> 3[label="" style=solid];
15 -> 3[label="" style=solid];
35 -> 3[label="" style=solid];
37 -> 3[label="" style=solid];
29 -> 3[label="" style=solid];
33 -> 3[label="" style=solid];
19 -> 3[label="" style=solid];
5 -> 3[label="" style=solid];
31 -> 3[label="" style=solid];
20 -> 3[label="" style=solid];
38 -> 3[label="" style=solid];
12 -> 3[label="" style=solid];
4[style="filled" label="equalWithSmallTolerance()" color="gray82"];
8 -> 4[label="" style=dashed];
1 -> 4[label="" style=dashed];
5[style="filled" label="anthracene(Drug,Ringlist)" color="gray92"];
6[style="filled" label="fail()" color="gray92"];
7[style="filled" label="contains()" color="gray82"];
7 -> 7[label="" style=dashed];
8[style="filled" label="<()" color="gray92"];
9[style="filled" label="multiplyListOfNumbers()" color="gray92"];
10[style="filled" label="=:=()" color="gray92"];
11[style="filled" label="\+()" color="gray92"];
12[style="filled" label="carbon_5_aromatic_ring(Drug,Ring)" color="gray92"];
13[style="filled" label="isaEqualTolerance(willNumber)" color="gray82"];
28 -> 13[label="" style=dashed];
1 -> 13[label="" style=dashed];
14[style="filled" label="addListOfNumbers()" color="gray92"];
15[style="filled" label="hetero_aromatic_6_ring(Drug,Ring)" color="gray92"];
16[style="filled" label="union()" color="gray82"];
16 -> 16[label="" style=dashed];
11 -> 16[label="" style=dashed];
17[style="filled" label="call()" color="gray92"];
18[style="filled" label="<=()" color="gray92"];
19[style="filled" label="ball3(Drug,Ringlist)" color="gray92"];
20[style="filled" label="phenanthrene(Drug,Ringlist)" color="gray92"];
21[style="filled" label="intersection()" color="gray82"];
21 -> 21[label="" style=dashed];
22[style="filled" label="atm(Drug,Atomid,Element,Atmtype,Charge)" color="gray92"];
23[style="filled" label="different()" color="gray82"];
11 -> 23[label="" style=dashed];
24[style="filled" label="=<()" color="gray92"];
25[style="filled" label="list()" color="gray92"];
26[style="filled" label="true()" color="gray92"];
27[style="filled" label="ground()" color="gray92"];
28[style="filled" label=">=()" color="gray92"];
29[style="filled" label="ring_size_5(Drug,Ring)" color="gray92"];
30[style="filled" label="allNumbers(willList)" color="gray82"];
1 -> 30[label="" style=dashed];
30 -> 30[label="" style=dashed];
31[style="filled" label="carbon_6_ring(Drug,Ring)" color="gray92"];
32[style="filled" label="isaInterestingNumber()" color="gray82"];
32 -> 32[label="" style=dashed];
4 -> 32[label="" style=dashed];
33[style="filled" label="hetero_aromatic_5_ring(Drug,Ring)" color="gray92"];
34[style="filled" label="isaInterestingSymbol()" color="gray82"];
34 -> 34[label="" style=dashed];
35[style="filled" label="methyl(Drug,Ring)" color="gray92"];
36[style="filled" label="false()" color="gray92"];
37[style="filled" label="bond(Drug,Atomid,Atomid,Bondtype)" color="gray92"];
38[style="filled" label="benzene(Drug,Ring)" color="gray92"];
39[style="filled" label="sameAs()" color="gray82"];
1 -> 39[label="" style=dashed];
39 -> 39[label="" style=dashed];
4 -> 39[label="" style=dashed];
}
