digraph G{ 
1[label = "[ball3(a, b)]"];
1 -> 2[label="True"];
1 -> 3[label="False"];
2[shape = box,label = "0.090(0.523)"];
3[label = "[atm(a, c, C, 27, d), ring_size_5(a, e)]"];
3 -> 4[label="True"];
3 -> 5[label="False"];
4[shape = box,label = "0.086(0.522)"];
5[label = "[carbon_6_ring(a, f)]"];
5 -> 6[label="True"];
5 -> 7[label="False"];
6[shape = box,label = "0.097(0.524)"];
7[label = "[atm(a, g, N, 32, h), benzene(a, i)]"];
7 -> 8[label="True"];
7 -> 9[label="False"];
8[label = "[atm(a, j, O, 40, h)]"];
8 -> 10[label="True"];
8 -> 11[label="False"];
10[label = "[ring_size_5(a, k)]"];
10 -> 12[label="True"];
10 -> 13[label="False"];
12[shape = box,label = "-0.037(0.491)"];
13[shape = box,label = "0.141(0.535)"];
11[shape = box,label = "-0.127(0.468)"];
9[label = "[methyl(a, m)]"];
9 -> 14[label="True"];
9 -> 15[label="False"];
14[shape = box,label = "-0.060(0.485)"];
15[label = "[ring_size_5(a, n)]"];
15 -> 16[label="True"];
15 -> 17[label="False"];
16[shape = box,label = "0.099(0.525)"];
17[shape = box,label = "0.014(0.504)"];
}
