digraph G{ 
1[label = "[ball3(a, b)]"];
1 -> 2[label="True"];
1 -> 3[label="False"];
2[shape = box,label = "0.075(0.519)"];
3[label = "[atm(a, c, H, 1, d), benzene(a, e)]"];
3 -> 4[label="True"];
3 -> 5[label="False"];
4[label = "[atm(a, f, N, 32, g), atm(a, h, O, 40, g)]"];
4 -> 6[label="True"];
4 -> 7[label="False"];
6[shape = box,label = "0.057(0.514)"];
7[label = "[hetero_aromatic_5_ring(a, i)]"];
7 -> 8[label="True"];
7 -> 9[label="False"];
8[label = "[atm(a, j, C, 26, d), atm(a, k, C, 21, m)]"];
8 -> 10[label="True"];
8 -> 11[label="False"];
10[shape = box,label = "0.148(0.537)"];
11[shape = box,label = "-0.255(0.437)"];
9[label = "[atm(a, n, C, 22, p), bond(a, q, n, 1)]"];
9 -> 12[label="True"];
9 -> 13[label="False"];
12[shape = box,label = "-0.183(0.454)"];
13[label = "[atm(a, r, C, 29, s)]"];
13 -> 14[label="True"];
13 -> 15[label="False"];
14[shape = box,label = "-0.019(0.495)"];
15[shape = box,label = "-0.136(0.466)"];
5[label = "[ring_size_5(a, t)]"];
5 -> 16[label="True"];
5 -> 17[label="False"];
16[shape = box,label = "0.070(0.518)"];
17[shape = box,label = "0.000(0.500)"];
}
