digraph G{ 
1[label = "[ball3(a, b)]"];
1 -> 2[label="True"];
1 -> 3[label="False"];
2[shape = box,label = "0.081(0.520)"];
3[label = "[atm(a, c, C, 29, d)]"];
3 -> 4[label="True"];
3 -> 5[label="False"];
4[label = "[ring_size_5(a, e)]"];
4 -> 6[label="True"];
4 -> 7[label="False"];
6[shape = box,label = "0.062(0.516)"];
7[label = "[methyl(a, f)]"];
7 -> 8[label="True"];
7 -> 9[label="False"];
8[shape = box,label = "-0.096(0.476)"];
9[shape = box,label = "0.047(0.512)"];
5[label = "[atm(a, g, C, 16, h), benzene(a, i)]"];
5 -> 10[label="True"];
5 -> 11[label="False"];
10[shape = box,label = "-0.162(0.460)"];
11[label = "[anthracene(a, j)]"];
11 -> 12[label="True"];
11 -> 13[label="False"];
12[shape = box,label = "0.114(0.529)"];
13[label = "[carbon_5_aromatic_ring(a, k)]"];
13 -> 14[label="True"];
13 -> 15[label="False"];
14[shape = box,label = "0.092(0.523)"];
15[label = "[phenanthrene(a, m)]"];
15 -> 16[label="True"];
15 -> 17[label="False"];
16[shape = box,label = "0.094(0.523)"];
17[shape = box,label = "-0.014(0.496)"];
}
