digraph G{ 
1[label = "[methyl(a, b)]"];
1 -> 2[label="True"];
1 -> 3[label="False"];
2[label = "[ring_size_5(a, c), benzene(a, d)]"];
2 -> 4[label="True"];
2 -> 5[label="False"];
4[label = "[hetero_aromatic_5_ring(a, c)]"];
4 -> 6[label="True"];
4 -> 7[label="False"];
6[shape = box,label = "-0.112(0.472)"];
7[shape = box,label = "0.586(0.643)"];
5[shape = box,label = "-0.077(0.481)"];
3[label = "[atm(a, e, C, 29, f), ring_size_5(a, g)]"];
3 -> 8[label="True"];
3 -> 9[label="False"];
8[shape = box,label = "0.578(0.641)"];
9[label = "[ball3(a, h)]"];
9 -> 10[label="True"];
9 -> 11[label="False"];
10[shape = box,label = "0.605(0.647)"];
11[label = "[carbon_6_ring(a, i)]"];
11 -> 12[label="True"];
11 -> 13[label="False"];
12[shape = box,label = "0.583(0.642)"];
13[label = "[carbon_5_aromatic_ring(a, j)]"];
13 -> 14[label="True"];
13 -> 15[label="False"];
14[shape = box,label = "0.620(0.650)"];
15[label = "[atm(a, k, N, 32, m), ring_size_5(a, n)]"];
15 -> 16[label="True"];
15 -> 17[label="False"];
16[shape = box,label = "-0.286(0.429)"];
17[shape = box,label = "0.215(0.554)"];
}
