digraph G{ 
1[label = "[borders(a, b, c)]"];
1 -> 2[label="True"];
1 -> 3[label="False"];
2[label = "[borders(b, d, e)]"];
2 -> 4[label="True"];
2 -> 5[label="False"];
4[label = "[ethnicGroup(a, f, g)]"];
4 -> 6[label="True"];
4 -> 7[label="False"];
6[label = "[ethnicGroup(d, f, g)]"];
6 -> 8[label="True"];
6 -> 9[label="False"];
8[shape = box,label = "-0.120(0.470)"];
9[shape = box,label = "0.004(0.501)"];
7[shape = box,label = "0.025(0.506)"];
5[label = "[language(a, h, i)]"];
5 -> 10[label="True"];
5 -> 11[label="False"];
10[label = "[language(b, h, j)]"];
10 -> 12[label="True"];
10 -> 13[label="False"];
12[shape = box,label = "0.057(0.514)"];
13[shape = box,label = "0.067(0.517)"];
11[label = "[organization(k, m, n, b, p, q)]"];
11 -> 14[label="True"];
11 -> 15[label="False"];
14[shape = box,label = "0.026(0.507)"];
15[label = "[organization(r, s, t, a, u, v)]"];
15 -> 16[label="True"];
15 -> 17[label="False"];
16[shape = box,label = "0.011(0.503)"];
17[shape = box,label = "0.122(0.530)"];
3[label = "[organization(w, x, y, a, z, aa)]"];
3 -> 18[label="True"];
3 -> 19[label="False"];
18[label = "[ethnicGroup(a, ab, ac)]"];
18 -> 20[label="True"];
18 -> 21[label="False"];
20[shape = box,label = "0.005(0.501)"];
21[shape = box,label = "0.057(0.514)"];
19[label = "[language(a, ad, ae)]"];
19 -> 22[label="True"];
19 -> 23[label="False"];
22[shape = box,label = "0.023(0.506)"];
23[label = "[ethnicGroup(a, af, ag)]"];
23 -> 24[label="True"];
23 -> 25[label="False"];
24[shape = box,label = "0.011(0.503)"];
25[shape = box,label = "0.076(0.519)"];
}
