digraph G{ 
1[label = "[atm(a, b, O, 50, c)]"];
1 -> 2[label="True"];
1 -> 3[label="False"];
2[label = "[methyl(a, d)]"];
2 -> 4[label="True"];
2 -> 5[label="False"];
4[shape = box,label = "-0.096(0.476)"];
5[shape = box,label = "-0.066(0.483)"];
3[label = "[atm(a, e, H, 1, f), benzene(a, g)]"];
3 -> 6[label="True"];
3 -> 7[label="False"];
6[label = "[methyl(a, h)]"];
6 -> 8[label="True"];
6 -> 9[label="False"];
8[shape = box,label = "0.118(0.529)"];
9[label = "[atm(a, i, N, 32, j), ring_size_5(a, k)]"];
9 -> 10[label="True"];
9 -> 11[label="False"];
10[shape = box,label = "-0.238(0.441)"];
11[label = "[atm(a, m, C, 26, n), greaterCharge(n, f)]"];
11 -> 12[label="True"];
11 -> 13[label="False"];
12[shape = box,label = "0.228(0.557)"];
13[shape = box,label = "-0.019(0.495)"];
7[label = "[methyl(a, p)]"];
7 -> 14[label="True"];
7 -> 15[label="False"];
14[shape = box,label = "-0.022(0.495)"];
15[label = "[hetero_aromatic_6_ring(a, q)]"];
15 -> 16[label="True"];
15 -> 17[label="False"];
16[shape = box,label = "-0.075(0.481)"];
17[shape = box,label = "0.133(0.533)"];
}
