digraph G{ 
1[label = "[borders(a, b, c)]"];
1 -> 2[label="True"];
1 -> 3[label="False"];
2[label = "[borders(b, d, e)]"];
2 -> 4[label="True"];
2 -> 5[label="False"];
4[label = "[ethnicGroup(b, f, g)]"];
4 -> 6[label="True"];
4 -> 7[label="False"];
6[shape = box,label = "-0.001(0.500)"];
7[shape = box,label = "0.070(0.518)"];
5[label = "[language(a, h, i)]"];
5 -> 8[label="True"];
5 -> 9[label="False"];
8[label = "[language(b, h, j)]"];
8 -> 10[label="True"];
8 -> 11[label="False"];
10[shape = box,label = "0.030(0.508)"];
11[shape = box,label = "-0.012(0.497)"];
9[label = "[organization(k, m, n, b, p, q)]"];
9 -> 12[label="True"];
9 -> 13[label="False"];
12[shape = box,label = "0.006(0.501)"];
13[label = "[organization(r, s, t, a, u, v)]"];
13 -> 14[label="True"];
13 -> 15[label="False"];
14[shape = box,label = "0.018(0.504)"];
15[shape = box,label = "0.068(0.517)"];
3[label = "[organization(w, x, y, a, z, aa)]"];
3 -> 16[label="True"];
3 -> 17[label="False"];
16[label = "[ethnicGroup(a, ab, ac)]"];
16 -> 18[label="True"];
16 -> 19[label="False"];
18[shape = box,label = "0.007(0.502)"];
19[shape = box,label = "0.014(0.504)"];
17[label = "[language(a, ad, ae)]"];
17 -> 20[label="True"];
17 -> 21[label="False"];
20[label = "[ethnicGroup(a, af, ag)]"];
20 -> 22[label="True"];
20 -> 23[label="False"];
22[shape = box,label = "0.016(0.504)"];
23[shape = box,label = "-0.002(0.500)"];
21[label = "[ethnicGroup(a, ah, ai)]"];
21 -> 24[label="True"];
21 -> 25[label="False"];
24[shape = box,label = "0.004(0.501)"];
25[shape = box,label = "0.016(0.504)"];
}
