digraph G{ 
1[label = "[borders(a, b, c)]"];
1 -> 2[label="True"];
1 -> 3[label="False"];
2[label = "[borders(b, d, e)]"];
2 -> 4[label="True"];
2 -> 5[label="False"];
4[label = "[language(b, f, g)]"];
4 -> 6[label="True"];
4 -> 7[label="False"];
6[label = "[language(d, f, h)]"];
6 -> 8[label="True"];
6 -> 9[label="False"];
8[shape = box,label = "0.041(0.510)"];
9[shape = box,label = "0.042(0.511)"];
7[label = "[borders(d, i, j)]"];
7 -> 10[label="True"];
7 -> 11[label="False"];
10[shape = box,label = "0.020(0.505)"];
11[shape = box,label = "0.243(0.561)"];
5[label = "[language(b, k, m)]"];
5 -> 12[label="True"];
5 -> 13[label="False"];
12[label = "[language(a, k, n)]"];
12 -> 14[label="True"];
12 -> 15[label="False"];
14[shape = box,label = "0.165(0.541)"];
15[shape = box,label = "0.075(0.519)"];
13[shape = box,label = "0.036(0.509)"];
3[label = "[organization(p, q, r, a, s, t)]"];
3 -> 16[label="True"];
3 -> 17[label="False"];
16[label = "[ethnicGroup(a, u, v)]"];
16 -> 18[label="True"];
16 -> 19[label="False"];
18[shape = box,label = "0.010(0.502)"];
19[shape = box,label = "0.159(0.540)"];
17[label = "[language(a, w, x)]"];
17 -> 20[label="True"];
17 -> 21[label="False"];
20[label = "[ethnicGroup(a, y, z)]"];
20 -> 22[label="True"];
20 -> 23[label="False"];
22[shape = box,label = "0.029(0.507)"];
23[shape = box,label = "-0.015(0.496)"];
21[label = "[ethnicGroup(a, aa, ab)]"];
21 -> 24[label="True"];
21 -> 25[label="False"];
24[shape = box,label = "0.036(0.509)"];
25[shape = box,label = "0.177(0.544)"];
}
