digraph G{ 
1[label = "[ring_size_5(a, b), benzene(a, c)]"];
1 -> 2[label="True"];
1 -> 3[label="False"];
2[label = "[hetero_aromatic_5_ring(a, b), methyl(a, d)]"];
2 -> 4[label="True"];
2 -> 5[label="False"];
4[shape = box,label = "-0.142(0.465)"];
5[label = "[anthracene(a, e)]"];
5 -> 6[label="True"];
5 -> 7[label="False"];
6[shape = box,label = "0.215(0.553)"];
7[shape = box,label = "0.331(0.582)"];
3[label = "[ball3(a, f)]"];
3 -> 8[label="True"];
3 -> 9[label="False"];
8[shape = box,label = "0.438(0.608)"];
9[label = "[methyl(a, g)]"];
9 -> 10[label="True"];
9 -> 11[label="False"];
10[shape = box,label = "-0.122(0.470)"];
11[label = "[atm(a, h, H, 3, i), hetero_aromatic_6_ring(a, j)]"];
11 -> 12[label="True"];
11 -> 13[label="False"];
12[shape = box,label = "0.031(0.508)"];
13[label = "[atm(a, k, C, 22, m), carbon_6_ring(a, n)]"];
13 -> 14[label="True"];
13 -> 15[label="False"];
14[shape = box,label = "0.061(0.515)"];
15[label = "[atm(a, p, O, 40, q), bond(a, p, r, 2)]"];
15 -> 16[label="True"];
15 -> 17[label="False"];
16[shape = box,label = "0.282(0.570)"];
17[shape = box,label = "0.082(0.521)"];
}
