digraph G{ 
1[label = "[hetero_aromatic_5_ring(a, b), methyl(a, c)]"];
1 -> 2[label="True"];
1 -> 3[label="False"];
2[shape = box,label = "-2.407(0.083)"];
3[label = "[ball3(a, d), methyl(a, e)]"];
3 -> 4[label="True"];
3 -> 5[label="False"];
4[shape = box,label = "4.720(0.991)"];
5[label = "[hetero_aromatic_6_ring(a, f), methyl(a, g)]"];
5 -> 6[label="True"];
5 -> 7[label="False"];
6[shape = box,label = "-2.465(0.078)"];
7[label = "[ball3(a, h), anthracene(a, i)]"];
7 -> 8[label="True"];
7 -> 9[label="False"];
8[shape = box,label = "2.239(0.904)"];
9[label = "[carbon_5_aromatic_ring(a, j), hetero_aromatic_5_ring(a, k)]"];
9 -> 10[label="True"];
9 -> 11[label="False"];
10[shape = box,label = "8.582(1.000)"];
11[label = "[carbon_5_aromatic_ring(a, m), anthracene(a, n)]"];
11 -> 12[label="True"];
11 -> 13[label="False"];
12[shape = box,label = "4.158(0.985)"];
13[shape = box,label = "3.041(0.954)"];
}
