digraph G{ 
1[label = "[atm(a, b, C, 27, c), hetero_aromatic_6_ring(a, d)]"];
1 -> 2[label="True"];
1 -> 3[label="False"];
2[shape = box,label = "-0.001(0.500)"];
3[label = "[ring_size_5(a, e), atm(a, f, C, 22, g)]"];
3 -> 4[label="True"];
3 -> 5[label="False"];
4[shape = box,label = "0.008(0.502)"];
5[label = "[atm(a, h, C, 27, i), bond(a, h, j, 7)]"];
5 -> 6[label="True"];
5 -> 7[label="False"];
6[label = "[atm(a, j, C, 27, i), bond(a, k, m, 2)]"];
6 -> 8[label="True"];
6 -> 9[label="False"];
8[label = "[bond(a, m, n, 1), bond(a, m, p, 2)]"];
8 -> 10[label="True"];
8 -> 11[label="False"];
10[shape = box,label = "-0.053(0.487)"];
11[shape = box,label = "0.026(0.506)"];
9[shape = box,label = "0.026(0.507)"];
7[label = "[atm(a, q, F, 92, r), atm(a, s, F, 92, r)]"];
7 -> 12[label="True"];
7 -> 13[label="False"];
12[shape = box,label = "-0.061(0.485)"];
13[label = "[atm(a, t, N, 38, u), methyl(a, v)]"];
13 -> 14[label="True"];
13 -> 15[label="False"];
14[shape = box,label = "-0.068(0.483)"];
15[label = "[atm(a, w, O, 40, x), atm(a, y, O, 50, z)]"];
15 -> 16[label="True"];
15 -> 17[label="False"];
16[shape = box,label = "-0.016(0.496)"];
17[shape = box,label = "0.013(0.503)"];
}
