digraph G{ 
1[label = "[atm(a, b, C, 27, c), hetero_aromatic_6_ring(a, d)]"];
1 -> 2[label="True"];
1 -> 3[label="False"];
2[shape = box,label = "-0.000(0.500)"];
3[label = "[carbon_6_ring(a, e)]"];
3 -> 4[label="True"];
3 -> 5[label="False"];
4[shape = box,label = "0.093(0.523)"];
5[label = "[atm(a, f, C, 27, g), bond(a, h, i, 1)]"];
5 -> 6[label="True"];
5 -> 7[label="False"];
6[shape = box,label = "0.002(0.500)"];
7[label = "[ring_size_5(a, j), nitro(a, k)]"];
7 -> 8[label="True"];
7 -> 9[label="False"];
8[label = "[atm(a, m, C, 26, n), atm(a, p, C, 21, q)]"];
8 -> 10[label="True"];
8 -> 11[label="False"];
10[label = "[methyl(a, r)]"];
10 -> 12[label="True"];
10 -> 13[label="False"];
12[shape = box,label = "-0.047(0.488)"];
13[shape = box,label = "-0.034(0.492)"];
11[shape = box,label = "0.040(0.510)"];
9[label = "[atm(a, s, N, 38, t), methyl(a, u)]"];
9 -> 14[label="True"];
9 -> 15[label="False"];
14[shape = box,label = "-0.059(0.485)"];
15[label = "[atm(a, v, C, 29, w), nitro(a, x)]"];
15 -> 16[label="True"];
15 -> 17[label="False"];
16[shape = box,label = "0.008(0.502)"];
17[shape = box,label = "-0.042(0.489)"];
}
