digraph G{ 
1[label = "[methyl(a, b)]"];
1 -> 2[label="True"];
1 -> 3[label="False"];
2[label = "[ring_size_5(a, c), benzene(a, d)]"];
2 -> 4[label="True"];
2 -> 5[label="False"];
4[label = "[hetero_aromatic_5_ring(a, c)]"];
4 -> 6[label="True"];
4 -> 7[label="False"];
6[shape = box,label = "-0.125(0.469)"];
7[shape = box,label = "0.761(0.681)"];
5[shape = box,label = "-0.118(0.471)"];
3[label = "[atm(a, e, H, 1, f)]"];
3 -> 8[label="True"];
3 -> 9[label="False"];
8[label = "[atm(a, g, C, 22, h), bond(a, i, g, 1)]"];
8 -> 10[label="True"];
8 -> 11[label="False"];
10[label = "[bond(a, j, i, 1), atm(a, j, C, 22, h)]"];
10 -> 12[label="True"];
10 -> 13[label="False"];
12[shape = box,label = "0.699(0.668)"];
13[shape = box,label = "-0.011(0.497)"];
11[label = "[hetero_aromatic_5_ring(a, k)]"];
11 -> 14[label="True"];
11 -> 15[label="False"];
14[shape = box,label = "0.261(0.565)"];
15[shape = box,label = "-0.004(0.499)"];
9[label = "[hetero_aromatic_6_ring(a, m)]"];
9 -> 16[label="True"];
9 -> 17[label="False"];
16[shape = box,label = "-0.052(0.487)"];
17[shape = box,label = "0.589(0.643)"];
}
