////// Learned from a dataset containing 46,860 positive (46,860.0 weighted sum) and 0 negative (0.0 wgt'ed) examples.
////// The minimal (wgt'ed) coverage = 3.000, the maximal (wgt'ed) NEG coverage = 0.499, and the minimal (wgt'ed) precision = 0.001 (using m = 0.1)

useStdLogicNotation: true.


////////////////////////////////////////////////////////////////////////////////
////
////     Gleaner for: allPossibleMarkers
////
////////////////////////////////////////////////////////////////////////////////

// Best in (weighted) recall bin #0, (-Infinity, 0.05], from 'outerLoop #1, null' and covering 111.0 wgt'ed positive and 0.0 wgt'ed negative examples:
//    Wgt'ed recall = 0.047, precision = 0.999, and F1 = 0.090 - learned after 52 total and 35 acceptable nodes.  Node score = -71.68911072171649

 FOR advisedby(a, b) IF (hasPosition(b, anon96175), yearsInProgram(a, Year_4)) THEN output = 0.027511 ELSE output = -0.116597;

// Best in (weighted) recall bin #1, (0.05, 0.1], from 'outerLoop #2, null' and covering 227.0 wgt'ed positive and 0.0 wgt'ed negative examples:
//    Wgt'ed recall = 0.097, precision = 1.000, and F1 = 0.177 - learned after 176 total and 112 acceptable nodes.  Node score = -69.6832183148695

 FOR advisedby(a, b) IF (hasPosition(b, Faculty), ta(anon24299, a, anon24301)) THEN output = 0.001411 ELSE output = -0.123856;

// Best in (weighted) recall bin #2, (0.1, 0.15], from 'outerLoop #2, null' and covering 249.0 wgt'ed positive and 0.0 wgt'ed negative examples:
//    Wgt'ed recall = 0.106, precision = 1.000, and F1 = 0.192 - learned after 157 total and 103 acceptable nodes.  Node score = -69.46236889514957

 FOR advisedby(a, b) IF (hasPosition(b, anon55837), ta(anon57727, a, anon57729)) THEN output = 0.002696 ELSE output = -0.124925;

// Best in (weighted) recall bin #3, (0.15, 0.2], from 'outerLoop #2, null' and covering 429.0 wgt'ed positive and 0.0 wgt'ed negative examples:
//    Wgt'ed recall = 0.183, precision = 1.000, and F1 = 0.310 - learned after 204 total and 112 acceptable nodes.  Node score = -65.46192882057046

 FOR advisedby(a, b) IF (professor(b), student(a), publication(anon66689, b)) THEN output = 0.000658 ELSE output = -0.138419;

// Best in (weighted) recall bin #4, (0.2, 0.25], from 'outerLoop #1, null' and covering 482.0 wgt'ed positive and 0.0 wgt'ed negative examples:
//    Wgt'ed recall = 0.206, precision = 1.000, and F1 = 0.341 - learned after 32 total and 24 acceptable nodes.  Node score = -65.56964785518238

 FOR advisedby(a, b) IF (hasPosition(b, anon118155), student(a)) THEN output = 0.003148 ELSE output = -0.139930;

// Best in (weighted) recall bin #5, (0.25, 0.3], from 'outerLoop #1, null' and covering 697.0 wgt'ed positive and 0.0 wgt'ed negative examples:
//    Wgt'ed recall = 0.297, precision = 1.000, and F1 = 0.459 - learned after 9 total and 7 acceptable nodes.  Node score = -68.16194540805098

 FOR advisedby(a, b) IF (hasPosition(b, anon118155)) THEN output = -0.037787 ELSE output = -0.141284;

// Best in (weighted) recall bin #6, (0.3, 0.35], from 'outerLoop #1, null' and covering 716.0 wgt'ed positive and 0.0 wgt'ed negative examples:
//    Wgt'ed recall = 0.306, precision = 1.000, and F1 = 0.468 - learned after 5 total and 3 acceptable nodes.  Node score = -68.17258172485433

 FOR advisedby(a, b) IF (professor(b)) THEN output = -0.039246 ELSE output = -0.141851;

// Best in (weighted) recall bin #7, (0.35, 0.4], from 'outerLoop #2, null' and covering 872.0 wgt'ed positive and 0.0 wgt'ed negative examples:
//    Wgt'ed recall = 0.372, precision = 1.000, and F1 = 0.542 - learned after 13 total and 11 acceptable nodes.  Node score = -71.90286280440273

 FOR advisedby(a, b) IF (inPhase(b, Post_Generals)) THEN output = -0.141851 ELSE output = -0.092914;

// Best in (weighted) recall bin #8, (0.4, 0.45], from 'outerLoop #2, null' and covering 1,039.0 wgt'ed positive and 0.0 wgt'ed negative examples:
//    Wgt'ed recall = 0.443, precision = 1.000, and F1 = 0.614 - learned after 213 total and 132 acceptable nodes.  Node score = -77.11858976059561

 FOR advisedby(a, b) IF (student(a), publication(anon40009, b)) THEN output = -0.002360 ELSE output = -0.136716;

// Best in (weighted) recall bin #9, (0.45, 0.5], from 'outerLoop #2, null' and covering 1,133.0 wgt'ed positive and 0.0 wgt'ed negative examples:
//    Wgt'ed recall = 0.484, precision = 1.000, and F1 = 0.652 - learned after 56 total and 37 acceptable nodes.  Node score = -71.14297743813276

 FOR advisedby(a, b) IF (student(b), student(a)) THEN output = -0.141851 ELSE output = -0.082358;

// Best in (weighted) recall bin #12, (0.6, 0.65], from 'outerLoop #1, null' and covering 1,492.0 wgt'ed positive and 0.0 wgt'ed negative examples:
//    Wgt'ed recall = 0.637, precision = 1.000, and F1 = 0.778 - learned after 3 total and 1 acceptable nodes.  Node score = -82.94612697112744

 FOR advisedby(a, b) IF (publication(anon112763, b)) THEN output = -0.004450 ELSE output = -0.135934;

// Best in (weighted) recall bin #13, (0.65, 0.7], from 'outerLoop #1, null' and covering 1,627.0 wgt'ed positive and 0.0 wgt'ed negative examples:
//    Wgt'ed recall = 0.694, precision = 1.000, and F1 = 0.820 - learned after 7 total and 5 acceptable nodes.  Node score = -68.17258172485509

 FOR advisedby(a, b) IF (student(b)) THEN output = -0.141851 ELSE output = -0.039246;


////////////////////////////////////////////////////////////////////////////////
////
////     Gleaner for: outerLoop #1, null
////
////////////////////////////////////////////////////////////////////////////////

// Best in (weighted) recall bin #0, (-Infinity, 0.05], from 'outerLoop #1, null' and covering 111.0 wgt'ed positive and 0.0 wgt'ed negative examples:
//    Wgt'ed recall = 0.047, precision = 0.999, and F1 = 0.090 - learned after 52 total and 35 acceptable nodes.  Node score = -71.68911072171649

 FOR advisedby(a, b) IF (hasPosition(b, anon96175), yearsInProgram(a, Year_4)) THEN output = 0.027511 ELSE output = -0.116597;

// Best in (weighted) recall bin #1, (0.05, 0.1], from 'outerLoop #1, null' and covering 171.0 wgt'ed positive and 0.0 wgt'ed negative examples:
//    Wgt'ed recall = 0.073, precision = 0.999, and F1 = 0.136 - learned after 41 total and 31 acceptable nodes.  Node score = -69.99877756888898

 FOR advisedby(a, b) IF (hasPosition(b, anon100989), inPhase(a, Post_Quals)) THEN output = 0.033190 ELSE output = -0.121228;

// Best in (weighted) recall bin #2, (0.1, 0.15], from 'outerLoop #1, null' and covering 249.0 wgt'ed positive and 0.0 wgt'ed negative examples:
//    Wgt'ed recall = 0.106, precision = 1.000, and F1 = 0.192 - learned after 53 total and 36 acceptable nodes.  Node score = -69.5069669208723

 FOR advisedby(a, b) IF (hasPosition(b, anon112767), ta(anon113151, a, anon113153)) THEN output = 0.003581 ELSE output = -0.124639;

// Best in (weighted) recall bin #3, (0.15, 0.2], from 'outerLoop #1, null' and covering 429.0 wgt'ed positive and 0.0 wgt'ed negative examples:
//    Wgt'ed recall = 0.183, precision = 1.000, and F1 = 0.310 - learned after 171 total and 94 acceptable nodes.  Node score = -65.46588017151025

 FOR advisedby(a, b) IF (hasPosition(b, anon118155), student(a), publication(anon118943, b), publication(anon118943, anon119355), taughtBy(anon120637, anon119355, anon120639)) THEN output = 0.000116 ELSE output = -0.137994;

// Best in (weighted) recall bin #4, (0.2, 0.25], from 'outerLoop #1, null' and covering 482.0 wgt'ed positive and 0.0 wgt'ed negative examples:
//    Wgt'ed recall = 0.206, precision = 1.000, and F1 = 0.341 - learned after 32 total and 24 acceptable nodes.  Node score = -65.56964785518238

 FOR advisedby(a, b) IF (hasPosition(b, anon118155), student(a)) THEN output = 0.003148 ELSE output = -0.139930;

// Best in (weighted) recall bin #5, (0.25, 0.3], from 'outerLoop #1, null' and covering 697.0 wgt'ed positive and 0.0 wgt'ed negative examples:
//    Wgt'ed recall = 0.297, precision = 1.000, and F1 = 0.459 - learned after 9 total and 7 acceptable nodes.  Node score = -68.16194540805098

 FOR advisedby(a, b) IF (hasPosition(b, anon118155)) THEN output = -0.037787 ELSE output = -0.141284;

// Best in (weighted) recall bin #6, (0.3, 0.35], from 'outerLoop #1, null' and covering 716.0 wgt'ed positive and 0.0 wgt'ed negative examples:
//    Wgt'ed recall = 0.306, precision = 1.000, and F1 = 0.468 - learned after 5 total and 3 acceptable nodes.  Node score = -68.17258172485433

 FOR advisedby(a, b) IF (professor(b)) THEN output = -0.039246 ELSE output = -0.141851;

// Best in (weighted) recall bin #7, (0.35, 0.4], from 'outerLoop #1, null' and covering 872.0 wgt'ed positive and 0.0 wgt'ed negative examples:
//    Wgt'ed recall = 0.372, precision = 1.000, and F1 = 0.542 - learned after 13 total and 11 acceptable nodes.  Node score = -72.01094364845554

 FOR advisedby(a, b) IF (inPhase(b, Post_Generals)) THEN output = -0.141851 ELSE output = -0.092150;

// Best in (weighted) recall bin #8, (0.4, 0.45], from 'outerLoop #1, null' and covering 1,039.0 wgt'ed positive and 0.0 wgt'ed negative examples:
//    Wgt'ed recall = 0.443, precision = 1.000, and F1 = 0.614 - learned after 78 total and 50 acceptable nodes.  Node score = -85.34719381726573

 FOR advisedby(a, b) IF (student(b), publication(anon52795, a)) THEN output = -0.008721 ELSE output = -0.078842;

// Best in (weighted) recall bin #9, (0.45, 0.5], from 'outerLoop #1, null' and covering 1,133.0 wgt'ed positive and 0.0 wgt'ed negative examples:
//    Wgt'ed recall = 0.484, precision = 1.000, and F1 = 0.652 - learned after 82 total and 53 acceptable nodes.  Node score = -72.94845861011542

 FOR advisedby(a, b) IF (student(b), student(a)) THEN output = -0.141851 ELSE output = -0.073948;

// Best in (weighted) recall bin #12, (0.6, 0.65], from 'outerLoop #1, null' and covering 1,492.0 wgt'ed positive and 0.0 wgt'ed negative examples:
//    Wgt'ed recall = 0.637, precision = 1.000, and F1 = 0.778 - learned after 3 total and 1 acceptable nodes.  Node score = -82.94612697112744

 FOR advisedby(a, b) IF (publication(anon112763, b)) THEN output = -0.004450 ELSE output = -0.135934;

// Best in (weighted) recall bin #13, (0.65, 0.7], from 'outerLoop #1, null' and covering 1,627.0 wgt'ed positive and 0.0 wgt'ed negative examples:
//    Wgt'ed recall = 0.694, precision = 1.000, and F1 = 0.820 - learned after 7 total and 5 acceptable nodes.  Node score = -68.17258172485509

 FOR advisedby(a, b) IF (student(b)) THEN output = -0.141851 ELSE output = -0.039246;


////////////////////////////////////////////////////////////////////////////////
////
////     Gleaner for: outerLoop #2, null
////
////////////////////////////////////////////////////////////////////////////////

// Best in (weighted) recall bin #0, (-Infinity, 0.05], from 'outerLoop #2, null' and covering 42.0 wgt'ed positive and 0.0 wgt'ed negative examples:
//    Wgt'ed recall = 0.018, precision = 0.998, and F1 = 0.035 - learned after 75 total and 44 acceptable nodes.  Node score = -72.79312504757169

 FOR advisedby(a, b) IF (hasPosition(b, anon63213), student(a), taughtBy(anon64013, a, anon64015)) THEN output = 0.008845 ELSE output = -0.112999;

// Best in (weighted) recall bin #1, (0.05, 0.1], from 'outerLoop #2, null' and covering 227.0 wgt'ed positive and 0.0 wgt'ed negative examples:
//    Wgt'ed recall = 0.097, precision = 1.000, and F1 = 0.177 - learned after 176 total and 112 acceptable nodes.  Node score = -69.6832183148695

 FOR advisedby(a, b) IF (hasPosition(b, Faculty), ta(anon24299, a, anon24301)) THEN output = 0.001411 ELSE output = -0.123856;

// Best in (weighted) recall bin #2, (0.1, 0.15], from 'outerLoop #2, null' and covering 249.0 wgt'ed positive and 0.0 wgt'ed negative examples:
//    Wgt'ed recall = 0.106, precision = 1.000, and F1 = 0.192 - learned after 157 total and 103 acceptable nodes.  Node score = -69.46236889514957

 FOR advisedby(a, b) IF (hasPosition(b, anon55837), ta(anon57727, a, anon57729)) THEN output = 0.002696 ELSE output = -0.124925;

// Best in (weighted) recall bin #3, (0.15, 0.2], from 'outerLoop #2, null' and covering 429.0 wgt'ed positive and 0.0 wgt'ed negative examples:
//    Wgt'ed recall = 0.183, precision = 1.000, and F1 = 0.310 - learned after 204 total and 112 acceptable nodes.  Node score = -65.46192882057046

 FOR advisedby(a, b) IF (professor(b), student(a), publication(anon66689, b)) THEN output = 0.000658 ELSE output = -0.138419;

// Best in (weighted) recall bin #4, (0.2, 0.25], from 'outerLoop #2, null' and covering 494.0 wgt'ed positive and 0.0 wgt'ed negative examples:
//    Wgt'ed recall = 0.211, precision = 1.000, and F1 = 0.348 - learned after 31 total and 23 acceptable nodes.  Node score = -65.68440244723479

 FOR advisedby(a, b) IF (professor(b), student(a)) THEN output = -0.001417 ELSE output = -0.140422;

// Best in (weighted) recall bin #5, (0.25, 0.3], from 'outerLoop #2, null' and covering 697.0 wgt'ed positive and 0.0 wgt'ed negative examples:
//    Wgt'ed recall = 0.297, precision = 1.000, and F1 = 0.459 - learned after 9 total and 7 acceptable nodes.  Node score = -68.18966412530318

 FOR advisedby(a, b) IF (hasPosition(b, anon55837)) THEN output = -0.039964 ELSE output = -0.141261;

// Best in (weighted) recall bin #6, (0.3, 0.35], from 'outerLoop #2, null' and covering 716.0 wgt'ed positive and 0.0 wgt'ed negative examples:
//    Wgt'ed recall = 0.306, precision = 1.000, and F1 = 0.468 - learned after 5 total and 3 acceptable nodes.  Node score = -68.18702654404474

 FOR advisedby(a, b) IF (professor(b)) THEN output = -0.041269 ELSE output = -0.141851;

// Best in (weighted) recall bin #7, (0.35, 0.4], from 'outerLoop #2, null' and covering 872.0 wgt'ed positive and 0.0 wgt'ed negative examples:
//    Wgt'ed recall = 0.372, precision = 1.000, and F1 = 0.542 - learned after 13 total and 11 acceptable nodes.  Node score = -71.90286280440273

 FOR advisedby(a, b) IF (inPhase(b, Post_Generals)) THEN output = -0.141851 ELSE output = -0.092914;

// Best in (weighted) recall bin #8, (0.4, 0.45], from 'outerLoop #2, null' and covering 1,039.0 wgt'ed positive and 0.0 wgt'ed negative examples:
//    Wgt'ed recall = 0.443, precision = 1.000, and F1 = 0.614 - learned after 213 total and 132 acceptable nodes.  Node score = -77.11858976059561

 FOR advisedby(a, b) IF (student(a), publication(anon40009, b)) THEN output = -0.002360 ELSE output = -0.136716;

// Best in (weighted) recall bin #9, (0.45, 0.5], from 'outerLoop #2, null' and covering 1,133.0 wgt'ed positive and 0.0 wgt'ed negative examples:
//    Wgt'ed recall = 0.484, precision = 1.000, and F1 = 0.652 - learned after 56 total and 37 acceptable nodes.  Node score = -71.14297743813276

 FOR advisedby(a, b) IF (student(b), student(a)) THEN output = -0.141851 ELSE output = -0.082358;

// Best in (weighted) recall bin #12, (0.6, 0.65], from 'outerLoop #2, null' and covering 1,492.0 wgt'ed positive and 0.0 wgt'ed negative examples:
//    Wgt'ed recall = 0.637, precision = 1.000, and F1 = 0.778 - learned after 3 total and 1 acceptable nodes.  Node score = -83.26143506025541

 FOR advisedby(a, b) IF (publication(anon55833, b)) THEN output = -0.004171 ELSE output = -0.136777;

// Best in (weighted) recall bin #13, (0.65, 0.7], from 'outerLoop #2, null' and covering 1,627.0 wgt'ed positive and 0.0 wgt'ed negative examples:
//    Wgt'ed recall = 0.694, precision = 1.000, and F1 = 0.820 - learned after 7 total and 5 acceptable nodes.  Node score = -68.18702654404602

 FOR advisedby(a, b) IF (student(b)) THEN output = -0.141851 ELSE output = -0.041269;


////////////////////////////////////////////////////////////////////////////////
////
////     Gleaner for: outerLoop #3, null
////
////////////////////////////////////////////////////////////////////////////////

// Best in (weighted) recall bin #0, (-Infinity, 0.05], from 'outerLoop #3, null' and covering 117.0 wgt'ed positive and 0.0 wgt'ed negative examples:
//    Wgt'ed recall = 0.050, precision = 0.999, and F1 = 0.095 - learned after 25 total and 17 acceptable nodes.  Node score = -73.25308269697041

 FOR advisedby(a, b) IF (yearsInProgram(b, Year_12)) THEN output = -0.141851 ELSE output = -0.109184;

// Best in (weighted) recall bin #1, (0.05, 0.1], from 'outerLoop #3, null' and covering 221.0 wgt'ed positive and 0.0 wgt'ed negative examples:
//    Wgt'ed recall = 0.094, precision = 1.000, and F1 = 0.172 - learned after 200 total and 129 acceptable nodes.  Node score = -71.03698690892598

 FOR advisedby(a, b) IF (tempAdvisedBy(anon40371, b), ta(anon42705, anon40371, anon42707)) THEN output = -0.005651 ELSE output = -0.120967;

// Best in (weighted) recall bin #2, (0.1, 0.15], from 'outerLoop #3, null' and covering 249.0 wgt'ed positive and 0.0 wgt'ed negative examples:
//    Wgt'ed recall = 0.106, precision = 1.000, and F1 = 0.192 - learned after 161 total and 107 acceptable nodes.  Node score = -69.54862814913729

 FOR advisedby(a, b) IF (hasPosition(b, anon25597), ta(anon27527, a, anon27529)) THEN output = 0.003327 ELSE output = -0.124745;

// Best in (weighted) recall bin #3, (0.15, 0.2], from 'outerLoop #3, null' and covering 435.0 wgt'ed positive and 0.0 wgt'ed negative examples:
//    Wgt'ed recall = 0.186, precision = 1.000, and F1 = 0.313 - learned after 21 total and 13 acceptable nodes.  Node score = -71.54533692011749

 FOR advisedby(a, b) IF (tempAdvisedBy(anon25607, b)) THEN output = -0.021427 ELSE output = -0.125618;

// Best in (weighted) recall bin #4, (0.2, 0.25], from 'outerLoop #3, null' and covering 494.0 wgt'ed positive and 0.0 wgt'ed negative examples:
//    Wgt'ed recall = 0.211, precision = 1.000, and F1 = 0.348 - learned after 33 total and 25 acceptable nodes.  Node score = -65.68440244723583

 FOR advisedby(a, b) IF (professor(b), student(a)) THEN output = 7.28781e-16 ELSE output = -0.140422;

// Best in (weighted) recall bin #5, (0.25, 0.3], from 'outerLoop #3, null' and covering 697.0 wgt'ed positive and 0.0 wgt'ed negative examples:
//    Wgt'ed recall = 0.297, precision = 1.000, and F1 = 0.459 - learned after 9 total and 7 acceptable nodes.  Node score = -68.25216057274456

 FOR advisedby(a, b) IF (hasPosition(b, anon25597)) THEN output = -0.038981 ELSE output = -0.141233;

// Best in (weighted) recall bin #6, (0.3, 0.35], from 'outerLoop #3, null' and covering 716.0 wgt'ed positive and 0.0 wgt'ed negative examples:
//    Wgt'ed recall = 0.306, precision = 1.000, and F1 = 0.468 - learned after 5 total and 3 acceptable nodes.  Node score = -68.24313706384783

 FOR advisedby(a, b) IF (professor(b)) THEN output = -0.040291 ELSE output = -0.141851;

// Best in (weighted) recall bin #7, (0.35, 0.4], from 'outerLoop #3, null' and covering 872.0 wgt'ed positive and 0.0 wgt'ed negative examples:
//    Wgt'ed recall = 0.372, precision = 1.000, and F1 = 0.542 - learned after 13 total and 11 acceptable nodes.  Node score = -72.0338605273371

 FOR advisedby(a, b) IF (inPhase(b, Post_Generals)) THEN output = -0.141851 ELSE output = -0.092417;

// Best in (weighted) recall bin #8, (0.4, 0.45], from 'outerLoop #3, null' and covering 1,039.0 wgt'ed positive and 0.0 wgt'ed negative examples:
//    Wgt'ed recall = 0.443, precision = 1.000, and F1 = 0.614 - learned after 225 total and 144 acceptable nodes.  Node score = -77.17483645828847

 FOR advisedby(a, b) IF (student(a), publication(anon43585, b)) THEN output = -0.002301 ELSE output = -0.136645;

// Best in (weighted) recall bin #9, (0.45, 0.5], from 'outerLoop #3, null' and covering 1,133.0 wgt'ed positive and 0.0 wgt'ed negative examples:
//    Wgt'ed recall = 0.484, precision = 1.000, and F1 = 0.652 - learned after 228 total and 146 acceptable nodes.  Node score = -71.25824180530887

 FOR advisedby(a, b) IF (student(a), student(b)) THEN output = -0.141851 ELSE output = -0.081754;

// Best in (weighted) recall bin #12, (0.6, 0.65], from 'outerLoop #3, null' and covering 1,492.0 wgt'ed positive and 0.0 wgt'ed negative examples:
//    Wgt'ed recall = 0.637, precision = 1.000, and F1 = 0.778 - learned after 3 total and 1 acceptable nodes.  Node score = -83.34728451513745

 FOR advisedby(a, b) IF (publication(anon25593, b)) THEN output = -0.004130 ELSE output = -0.136635;

// Best in (weighted) recall bin #13, (0.65, 0.7], from 'outerLoop #3, null' and covering 1,627.0 wgt'ed positive and 0.0 wgt'ed negative examples:
//    Wgt'ed recall = 0.694, precision = 1.000, and F1 = 0.820 - learned after 7 total and 5 acceptable nodes.  Node score = -68.2431370638488

 FOR advisedby(a, b) IF (student(b)) THEN output = -0.141851 ELSE output = -0.040291;


////////////////////////////////////////////////////////////////////////////////
////
////     Gleaner for: outerLoop #4, null
////
////////////////////////////////////////////////////////////////////////////////

// Best in (weighted) recall bin #0, (-Infinity, 0.05], from 'outerLoop #4, null' and covering 97.0 wgt'ed positive and 0.0 wgt'ed negative examples:
//    Wgt'ed recall = 0.041, precision = 0.999, and F1 = 0.080 - learned after 221 total and 141 acceptable nodes.  Node score = -73.27423676337355

 FOR advisedby(a, b) IF (inPhase(b, Post_Generals), taughtBy(anon32097, b, anon32099)) THEN output = -0.141851 ELSE output = -0.109475;

// Best in (weighted) recall bin #1, (0.05, 0.1], from 'outerLoop #4, null' and covering 221.0 wgt'ed positive and 0.0 wgt'ed negative examples:
//    Wgt'ed recall = 0.094, precision = 1.000, and F1 = 0.172 - learned after 196 total and 125 acceptable nodes.  Node score = -71.0370873749729

 FOR advisedby(a, b) IF (tempAdvisedBy(anon29199, b), ta(anon31493, anon29199, anon31495)) THEN output = -0.005650 ELSE output = -0.120967;

// Best in (weighted) recall bin #2, (0.1, 0.15], from 'outerLoop #4, null' and covering 249.0 wgt'ed positive and 0.0 wgt'ed negative examples:
//    Wgt'ed recall = 0.106, precision = 1.000, and F1 = 0.192 - learned after 157 total and 103 acceptable nodes.  Node score = -69.54862814913714

 FOR advisedby(a, b) IF (hasPosition(b, anon29189), ta(anon31079, a, anon31081)) THEN output = 0.003327 ELSE output = -0.124745;

// Best in (weighted) recall bin #3, (0.15, 0.2], from 'outerLoop #4, null' and covering 435.0 wgt'ed positive and 0.0 wgt'ed negative examples:
//    Wgt'ed recall = 0.186, precision = 1.000, and F1 = 0.313 - learned after 21 total and 13 acceptable nodes.  Node score = -71.5453369201174

 FOR advisedby(a, b) IF (tempAdvisedBy(anon29199, b)) THEN output = -0.021427 ELSE output = -0.125618;

// Best in (weighted) recall bin #4, (0.2, 0.25], from 'outerLoop #4, null' and covering 494.0 wgt'ed positive and 0.0 wgt'ed negative examples:
//    Wgt'ed recall = 0.211, precision = 1.000, and F1 = 0.348 - learned after 32 total and 24 acceptable nodes.  Node score = -65.68463908959792

 FOR advisedby(a, b) IF (professor(b), student(a)) THEN output = -2.19292e-16 ELSE output = -0.140422;

// Best in (weighted) recall bin #5, (0.25, 0.3], from 'outerLoop #4, null' and covering 697.0 wgt'ed positive and 0.0 wgt'ed negative examples:
//    Wgt'ed recall = 0.297, precision = 1.000, and F1 = 0.459 - learned after 9 total and 7 acceptable nodes.  Node score = -68.25216057274447

 FOR advisedby(a, b) IF (hasPosition(b, anon29189)) THEN output = -0.038981 ELSE output = -0.141233;

// Best in (weighted) recall bin #6, (0.3, 0.35], from 'outerLoop #4, null' and covering 716.0 wgt'ed positive and 0.0 wgt'ed negative examples:
//    Wgt'ed recall = 0.306, precision = 1.000, and F1 = 0.468 - learned after 5 total and 3 acceptable nodes.  Node score = -68.24337370620988

 FOR advisedby(a, b) IF (professor(b)) THEN output = -0.040291 ELSE output = -0.141851;

// Best in (weighted) recall bin #7, (0.35, 0.4], from 'outerLoop #4, null' and covering 872.0 wgt'ed positive and 0.0 wgt'ed negative examples:
//    Wgt'ed recall = 0.372, precision = 1.000, and F1 = 0.542 - learned after 13 total and 11 acceptable nodes.  Node score = -72.03386052733703

 FOR advisedby(a, b) IF (inPhase(b, Post_Generals)) THEN output = -0.141851 ELSE output = -0.092417;

// Best in (weighted) recall bin #8, (0.4, 0.45], from 'outerLoop #4, null' and covering 1,039.0 wgt'ed positive and 0.0 wgt'ed negative examples:
//    Wgt'ed recall = 0.443, precision = 1.000, and F1 = 0.614 - learned after 52 total and 34 acceptable nodes.  Node score = -83.57005446704704

 FOR advisedby(a, b) IF (student(b), publication(anon29833, a)) THEN output = -0.008721 ELSE output = -0.086086;

// Best in (weighted) recall bin #9, (0.45, 0.5], from 'outerLoop #4, null' and covering 1,133.0 wgt'ed positive and 0.0 wgt'ed negative examples:
//    Wgt'ed recall = 0.484, precision = 1.000, and F1 = 0.652 - learned after 56 total and 37 acceptable nodes.  Node score = -71.25847844767158

 FOR advisedby(a, b) IF (student(b), student(a)) THEN output = -0.141851 ELSE output = -0.081754;

// Best in (weighted) recall bin #12, (0.6, 0.65], from 'outerLoop #4, null' and covering 1,492.0 wgt'ed positive and 0.0 wgt'ed negative examples:
//    Wgt'ed recall = 0.637, precision = 1.000, and F1 = 0.778 - learned after 3 total and 1 acceptable nodes.  Node score = -83.34728451513736

 FOR advisedby(a, b) IF (publication(anon29185, b)) THEN output = -0.004130 ELSE output = -0.136635;

// Best in (weighted) recall bin #13, (0.65, 0.7], from 'outerLoop #4, null' and covering 1,627.0 wgt'ed positive and 0.0 wgt'ed negative examples:
//    Wgt'ed recall = 0.694, precision = 1.000, and F1 = 0.820 - learned after 7 total and 5 acceptable nodes.  Node score = -68.24337370621137

 FOR advisedby(a, b) IF (student(b)) THEN output = -0.141851 ELSE output = -0.040291;


////////////////////////////////////////////////////////////////////////////////
////
////     Gleaner for: outerLoop #5, null
////
////////////////////////////////////////////////////////////////////////////////

// Best in (weighted) recall bin #1, (0.05, 0.1], from 'outerLoop #5, null' and covering 155.0 wgt'ed positive and 0.0 wgt'ed negative examples:
//    Wgt'ed recall = 0.066, precision = 0.999, and F1 = 0.124 - learned after 25 total and 17 acceptable nodes.  Node score = -78.95986076749531

 FOR advisedby(a, b) IF (yearsInProgram(b, Year_3)) THEN output = -0.141851 ELSE output = -0.096207;

// Best in (weighted) recall bin #2, (0.1, 0.15], from 'outerLoop #5, null' and covering 281.0 wgt'ed positive and 0.0 wgt'ed negative examples:
//    Wgt'ed recall = 0.120, precision = 1.000, and F1 = 0.214 - learned after 25 total and 17 acceptable nodes.  Node score = -78.68130873084974

 FOR advisedby(a, b) IF (yearsInProgram(b, Year_6)) THEN output = -0.141851 ELSE output = -0.093417;

// Best in (weighted) recall bin #3, (0.15, 0.2], from 'outerLoop #5, null' and covering 435.0 wgt'ed positive and 0.0 wgt'ed negative examples:
//    Wgt'ed recall = 0.186, precision = 1.000, and F1 = 0.313 - learned after 21 total and 13 acceptable nodes.  Node score = -74.74122129258264

 FOR advisedby(a, b) IF (tempAdvisedBy(anon2733, b)) THEN output = 0.000779 ELSE output = -0.120247;

// Best in (weighted) recall bin #4, (0.2, 0.25], from 'outerLoop #5, null' and covering 579.0 wgt'ed positive and 0.0 wgt'ed negative examples:
//    Wgt'ed recall = 0.247, precision = 1.000, and F1 = 0.396 - learned after 13 total and 11 acceptable nodes.  Node score = -77.86416059556089

 FOR advisedby(a, b) IF (inPhase(b, Post_Quals)) THEN output = -0.141851 ELSE output = -0.085235;

// Best in (weighted) recall bin #5, (0.25, 0.3], from 'outerLoop #5, null' and covering 697.0 wgt'ed positive and 0.0 wgt'ed negative examples:
//    Wgt'ed recall = 0.297, precision = 1.000, and F1 = 0.459 - learned after 9 total and 7 acceptable nodes.  Node score = -69.49293745555107

 FOR advisedby(a, b) IF (hasPosition(b, anon2723)) THEN output = -2.75883e-16 ELSE output = -0.141244;

// Best in (weighted) recall bin #6, (0.3, 0.35], from 'outerLoop #5, null' and covering 716.0 wgt'ed positive and 0.0 wgt'ed negative examples:
//    Wgt'ed recall = 0.306, precision = 1.000, and F1 = 0.468 - learned after 5 total and 3 acceptable nodes.  Node score = -69.58814210603852

 FOR advisedby(a, b) IF (professor(b)) THEN output = -0.002368 ELSE output = -0.141851;

// Best in (weighted) recall bin #7, (0.35, 0.4], from 'outerLoop #5, null' and covering 824.0 wgt'ed positive and 0.0 wgt'ed negative examples:
//    Wgt'ed recall = 0.352, precision = 1.000, and F1 = 0.520 - learned after 27 total and 19 acceptable nodes.  Node score = -73.74372259528744

 FOR advisedby(a, b) IF (taughtBy(anon2739, b, anon2741)) THEN output = 0.001030 ELSE output = -0.137116;

// Best in (weighted) recall bin #12, (0.6, 0.65], from 'outerLoop #5, null' and covering 1,492.0 wgt'ed positive and 0.0 wgt'ed negative examples:
//    Wgt'ed recall = 0.637, precision = 1.000, and F1 = 0.778 - learned after 3 total and 1 acceptable nodes.  Node score = -86.16311053951208

 FOR advisedby(a, b) IF (publication(anon2719, b)) THEN output = -0.002520 ELSE output = -0.133137;

// Best in (weighted) recall bin #13, (0.65, 0.7], from 'outerLoop #5, null' and covering 1,627.0 wgt'ed positive and 0.0 wgt'ed negative examples:
//    Wgt'ed recall = 0.694, precision = 1.000, and F1 = 0.820 - learned after 7 total and 5 acceptable nodes.  Node score = -69.58814210604022

 FOR advisedby(a, b) IF (student(b)) THEN output = -0.141851 ELSE output = -0.002368;


////////////////////////////////////////////////////////////////////////////////
////
////     Gleaner for: outerLoop #6, null
////
////////////////////////////////////////////////////////////////////////////////

// Best in (weighted) recall bin #0, (-Infinity, 0.05], from 'outerLoop #6, null' and covering 97.0 wgt'ed positive and 0.0 wgt'ed negative examples:
//    Wgt'ed recall = 0.041, precision = 0.999, and F1 = 0.080 - learned after 24 total and 16 acceptable nodes.  Node score = -79.07757871889633

 FOR advisedby(a, b) IF (yearsInProgram(b, Year_7)) THEN output = -0.141851 ELSE output = -0.097385;

// Best in (weighted) recall bin #1, (0.05, 0.1], from 'outerLoop #6, null' and covering 176.0 wgt'ed positive and 0.0 wgt'ed negative examples:
//    Wgt'ed recall = 0.075, precision = 0.999, and F1 = 0.140 - learned after 13 total and 11 acceptable nodes.  Node score = -78.91568492535077

 FOR advisedby(a, b) IF (inPhase(b, Pre_Quals)) THEN output = -0.141851 ELSE output = -0.095764;

// Best in (weighted) recall bin #3, (0.15, 0.2], from 'outerLoop #6, null' and covering 435.0 wgt'ed positive and 0.0 wgt'ed negative examples:
//    Wgt'ed recall = 0.186, precision = 1.000, and F1 = 0.313 - learned after 21 total and 13 acceptable nodes.  Node score = -74.74122129258264

 FOR advisedby(a, b) IF (tempAdvisedBy(anon3143, b)) THEN output = 0.000779 ELSE output = -0.120247;

// Best in (weighted) recall bin #4, (0.2, 0.25], from 'outerLoop #6, null' and covering 579.0 wgt'ed positive and 0.0 wgt'ed negative examples:
//    Wgt'ed recall = 0.247, precision = 1.000, and F1 = 0.396 - learned after 12 total and 10 acceptable nodes.  Node score = -78.83176102030333

 FOR advisedby(a, b) IF (inPhase(a, Post_Quals)) THEN output = -0.075589 ELSE output = -0.106984;

// Best in (weighted) recall bin #5, (0.25, 0.3], from 'outerLoop #6, null' and covering 697.0 wgt'ed positive and 0.0 wgt'ed negative examples:
//    Wgt'ed recall = 0.297, precision = 1.000, and F1 = 0.459 - learned after 9 total and 7 acceptable nodes.  Node score = -69.49293745555107

 FOR advisedby(a, b) IF (hasPosition(b, anon3133)) THEN output = -2.57964e-16 ELSE output = -0.141244;

// Best in (weighted) recall bin #6, (0.3, 0.35], from 'outerLoop #6, null' and covering 716.0 wgt'ed positive and 0.0 wgt'ed negative examples:
//    Wgt'ed recall = 0.306, precision = 1.000, and F1 = 0.468 - learned after 5 total and 3 acceptable nodes.  Node score = -69.58814210603852

 FOR advisedby(a, b) IF (professor(b)) THEN output = -0.002368 ELSE output = -0.141851;

// Best in (weighted) recall bin #7, (0.35, 0.4], from 'outerLoop #6, null' and covering 824.0 wgt'ed positive and 0.0 wgt'ed negative examples:
//    Wgt'ed recall = 0.352, precision = 1.000, and F1 = 0.520 - learned after 26 total and 18 acceptable nodes.  Node score = -73.74372259528744

 FOR advisedby(a, b) IF (taughtBy(anon3149, b, anon3151)) THEN output = 0.001030 ELSE output = -0.137116;

// Best in (weighted) recall bin #12, (0.6, 0.65], from 'outerLoop #6, null' and covering 1,492.0 wgt'ed positive and 0.0 wgt'ed negative examples:
//    Wgt'ed recall = 0.637, precision = 1.000, and F1 = 0.778 - learned after 3 total and 1 acceptable nodes.  Node score = -86.16311053951208

 FOR advisedby(a, b) IF (publication(anon11385, b)) THEN output = -0.002520 ELSE output = -0.133137;

// Best in (weighted) recall bin #13, (0.65, 0.7], from 'outerLoop #6, null' and covering 1,627.0 wgt'ed positive and 0.0 wgt'ed negative examples:
//    Wgt'ed recall = 0.694, precision = 1.000, and F1 = 0.820 - learned after 7 total and 5 acceptable nodes.  Node score = -69.58814210604025

 FOR advisedby(a, b) IF (student(b)) THEN output = -0.141851 ELSE output = -0.002368;


////////////////////////////////////////////////////////////////////////////////
////
////     Gleaner for: outerLoop #7, null
////
////////////////////////////////////////////////////////////////////////////////

// Best in (weighted) recall bin #0, (-Infinity, 0.05], from 'outerLoop #7, null' and covering 39.0 wgt'ed positive and 0.0 wgt'ed negative examples:
//    Wgt'ed recall = 0.017, precision = 0.997, and F1 = 0.033 - learned after 10 total and 8 acceptable nodes.  Node score = -79.2183156664711

 FOR advisedby(a, b) IF (hasPosition(a, Faculty_emeritus)) THEN output = -0.132196 ELSE output = -0.098668;

// Best in (weighted) recall bin #1, (0.05, 0.1], from 'outerLoop #7, null' and covering 155.0 wgt'ed positive and 0.0 wgt'ed negative examples:
//    Wgt'ed recall = 0.066, precision = 0.999, and F1 = 0.124 - learned after 24 total and 16 acceptable nodes.  Node score = -79.23650693423448

 FOR advisedby(a, b) IF (yearsInProgram(a, Year_2)) THEN output = -0.086973 ELSE output = -0.100094;

// Best in (weighted) recall bin #2, (0.1, 0.15], from 'outerLoop #7, null' and covering 281.0 wgt'ed positive and 0.0 wgt'ed negative examples:
//    Wgt'ed recall = 0.120, precision = 1.000, and F1 = 0.214 - learned after 24 total and 16 acceptable nodes.  Node score = -78.68130873084971

 FOR advisedby(a, b) IF (yearsInProgram(b, Year_6)) THEN output = -0.141851 ELSE output = -0.093417;

// Best in (weighted) recall bin #3, (0.15, 0.2], from 'outerLoop #7, null' and covering 435.0 wgt'ed positive and 0.0 wgt'ed negative examples:
//    Wgt'ed recall = 0.186, precision = 1.000, and F1 = 0.313 - learned after 21 total and 13 acceptable nodes.  Node score = -74.74122129258264

 FOR advisedby(a, b) IF (tempAdvisedBy(anon11809, b)) THEN output = 0.000779 ELSE output = -0.120247;

// Best in (weighted) recall bin #5, (0.25, 0.3], from 'outerLoop #7, null' and covering 697.0 wgt'ed positive and 0.0 wgt'ed negative examples:
//    Wgt'ed recall = 0.297, precision = 1.000, and F1 = 0.459 - learned after 9 total and 7 acceptable nodes.  Node score = -69.49293745555109

 FOR advisedby(a, b) IF (hasPosition(b, anon3535)) THEN output = 4.88331e-16 ELSE output = -0.141244;

// Best in (weighted) recall bin #6, (0.3, 0.35], from 'outerLoop #7, null' and covering 716.0 wgt'ed positive and 0.0 wgt'ed negative examples:
//    Wgt'ed recall = 0.306, precision = 1.000, and F1 = 0.468 - learned after 5 total and 3 acceptable nodes.  Node score = -69.58814210603852

 FOR advisedby(a, b) IF (professor(b)) THEN output = -0.002368 ELSE output = -0.141851;

// Best in (weighted) recall bin #7, (0.35, 0.4], from 'outerLoop #7, null' and covering 824.0 wgt'ed positive and 0.0 wgt'ed negative examples:
//    Wgt'ed recall = 0.352, precision = 1.000, and F1 = 0.520 - learned after 27 total and 19 acceptable nodes.  Node score = -73.74372259528747

 FOR advisedby(a, b) IF (taughtBy(anon3551, b, anon3553)) THEN output = 0.001030 ELSE output = -0.137116;

// Best in (weighted) recall bin #12, (0.6, 0.65], from 'outerLoop #7, null' and covering 1,492.0 wgt'ed positive and 0.0 wgt'ed negative examples:
//    Wgt'ed recall = 0.637, precision = 1.000, and F1 = 0.778 - learned after 3 total and 1 acceptable nodes.  Node score = -86.16311053951209

 FOR advisedby(a, b) IF (publication(anon11795, b)) THEN output = -0.002520 ELSE output = -0.133137;

// Best in (weighted) recall bin #13, (0.65, 0.7], from 'outerLoop #7, null' and covering 1,627.0 wgt'ed positive and 0.0 wgt'ed negative examples:
//    Wgt'ed recall = 0.694, precision = 1.000, and F1 = 0.820 - learned after 7 total and 5 acceptable nodes.  Node score = -69.58814210604021

 FOR advisedby(a, b) IF (student(b)) THEN output = -0.141851 ELSE output = -0.002368;


////////////////////////////////////////////////////////////////////////////////
////
////     Gleaner for: outerLoop #8, null
////
////////////////////////////////////////////////////////////////////////////////

// Best in (weighted) recall bin #0, (-Infinity, 0.05], from 'outerLoop #8, null' and covering 117.0 wgt'ed positive and 0.0 wgt'ed negative examples:
//    Wgt'ed recall = 0.050, precision = 0.999, and F1 = 0.095 - learned after 24 total and 16 acceptable nodes.  Node score = -79.03767927383245

 FOR advisedby(a, b) IF (yearsInProgram(b, Year_12)) THEN output = -0.141851 ELSE output = -0.096986;

// Best in (weighted) recall bin #3, (0.15, 0.2], from 'outerLoop #8, null' and covering 435.0 wgt'ed positive and 0.0 wgt'ed negative examples:
//    Wgt'ed recall = 0.186, precision = 1.000, and F1 = 0.313 - learned after 21 total and 13 acceptable nodes.  Node score = -74.74122129258264

 FOR advisedby(a, b) IF (tempAdvisedBy(anon3955, b)) THEN output = 0.000779 ELSE output = -0.120247;

// Best in (weighted) recall bin #5, (0.25, 0.3], from 'outerLoop #8, null' and covering 697.0 wgt'ed positive and 0.0 wgt'ed negative examples:
//    Wgt'ed recall = 0.297, precision = 1.000, and F1 = 0.459 - learned after 9 total and 7 acceptable nodes.  Node score = -69.49293745555107

 FOR advisedby(a, b) IF (hasPosition(b, anon3945)) THEN output = -2.75485e-16 ELSE output = -0.141244;

// Best in (weighted) recall bin #6, (0.3, 0.35], from 'outerLoop #8, null' and covering 716.0 wgt'ed positive and 0.0 wgt'ed negative examples:
//    Wgt'ed recall = 0.306, precision = 1.000, and F1 = 0.468 - learned after 5 total and 3 acceptable nodes.  Node score = -69.58814210603852

 FOR advisedby(a, b) IF (professor(b)) THEN output = -0.002368 ELSE output = -0.141851;

// Best in (weighted) recall bin #7, (0.35, 0.4], from 'outerLoop #8, null' and covering 824.0 wgt'ed positive and 0.0 wgt'ed negative examples:
//    Wgt'ed recall = 0.352, precision = 1.000, and F1 = 0.520 - learned after 26 total and 18 acceptable nodes.  Node score = -73.74372259528744

 FOR advisedby(a, b) IF (taughtBy(anon3961, b, anon3963)) THEN output = 0.001030 ELSE output = -0.137116;

// Best in (weighted) recall bin #12, (0.6, 0.65], from 'outerLoop #8, null' and covering 1,492.0 wgt'ed positive and 0.0 wgt'ed negative examples:
//    Wgt'ed recall = 0.637, precision = 1.000, and F1 = 0.778 - learned after 3 total and 1 acceptable nodes.  Node score = -86.16311053951208

 FOR advisedby(a, b) IF (publication(anon3941, b)) THEN output = -0.002520 ELSE output = -0.133137;

// Best in (weighted) recall bin #13, (0.65, 0.7], from 'outerLoop #8, null' and covering 1,627.0 wgt'ed positive and 0.0 wgt'ed negative examples:
//    Wgt'ed recall = 0.694, precision = 1.000, and F1 = 0.820 - learned after 7 total and 5 acceptable nodes.  Node score = -69.58814210604022

 FOR advisedby(a, b) IF (student(b)) THEN output = -0.141851 ELSE output = -0.002368;


////////////////////////////////////////////////////////////////////////////////
////
////     Gleaner for: outerLoop #9, null
////
////////////////////////////////////////////////////////////////////////////////

// Best in (weighted) recall bin #0, (-Infinity, 0.05], from 'outerLoop #9, null' and covering 58.0 wgt'ed positive and 0.0 wgt'ed negative examples:
//    Wgt'ed recall = 0.025, precision = 0.998, and F1 = 0.048 - learned after 24 total and 16 acceptable nodes.  Node score = -79.15337369534649

 FOR advisedby(a, b) IF (yearsInProgram(b, Year_8)) THEN output = -0.141851 ELSE output = -0.098144;

// Best in (weighted) recall bin #3, (0.15, 0.2], from 'outerLoop #9, null' and covering 435.0 wgt'ed positive and 0.0 wgt'ed negative examples:
//    Wgt'ed recall = 0.186, precision = 1.000, and F1 = 0.313 - learned after 21 total and 13 acceptable nodes.  Node score = -74.74122129258264

 FOR advisedby(a, b) IF (tempAdvisedBy(anon4357, b)) THEN output = 0.000779 ELSE output = -0.120247;

// Best in (weighted) recall bin #4, (0.2, 0.25], from 'outerLoop #9, null' and covering 579.0 wgt'ed positive and 0.0 wgt'ed negative examples:
//    Wgt'ed recall = 0.247, precision = 1.000, and F1 = 0.396 - learned after 12 total and 10 acceptable nodes.  Node score = -78.83176102030335

 FOR advisedby(a, b) IF (inPhase(a, Post_Quals)) THEN output = -0.075589 ELSE output = -0.106984;

// Best in (weighted) recall bin #5, (0.25, 0.3], from 'outerLoop #9, null' and covering 697.0 wgt'ed positive and 0.0 wgt'ed negative examples:
//    Wgt'ed recall = 0.297, precision = 1.000, and F1 = 0.459 - learned after 9 total and 7 acceptable nodes.  Node score = -69.49293745555107

 FOR advisedby(a, b) IF (hasPosition(b, anon4347)) THEN output = -2.53902e-16 ELSE output = -0.141244;

// Best in (weighted) recall bin #6, (0.3, 0.35], from 'outerLoop #9, null' and covering 716.0 wgt'ed positive and 0.0 wgt'ed negative examples:
//    Wgt'ed recall = 0.306, precision = 1.000, and F1 = 0.468 - learned after 5 total and 3 acceptable nodes.  Node score = -69.58814210603852

 FOR advisedby(a, b) IF (professor(b)) THEN output = -0.002368 ELSE output = -0.141851;

// Best in (weighted) recall bin #7, (0.35, 0.4], from 'outerLoop #9, null' and covering 824.0 wgt'ed positive and 0.0 wgt'ed negative examples:
//    Wgt'ed recall = 0.352, precision = 1.000, and F1 = 0.520 - learned after 27 total and 19 acceptable nodes.  Node score = -73.74372259528744

 FOR advisedby(a, b) IF (taughtBy(anon4363, b, anon4365)) THEN output = 0.001030 ELSE output = -0.137116;

// Best in (weighted) recall bin #12, (0.6, 0.65], from 'outerLoop #9, null' and covering 1,492.0 wgt'ed positive and 0.0 wgt'ed negative examples:
//    Wgt'ed recall = 0.637, precision = 1.000, and F1 = 0.778 - learned after 3 total and 1 acceptable nodes.  Node score = -86.16311053951208

 FOR advisedby(a, b) IF (publication(anon4343, b)) THEN output = -0.002520 ELSE output = -0.133137;

// Best in (weighted) recall bin #13, (0.65, 0.7], from 'outerLoop #9, null' and covering 1,627.0 wgt'ed positive and 0.0 wgt'ed negative examples:
//    Wgt'ed recall = 0.694, precision = 1.000, and F1 = 0.820 - learned after 7 total and 5 acceptable nodes.  Node score = -69.58814210604021

 FOR advisedby(a, b) IF (student(b)) THEN output = -0.141851 ELSE output = -0.002368;


////////////////////////////////////////////////////////////////////////////////
////
////     Gleaner for: outerLoop #10, null
////
////////////////////////////////////////////////////////////////////////////////

// Best in (weighted) recall bin #0, (-Infinity, 0.05], from 'outerLoop #10, null' and covering 97.0 wgt'ed positive and 0.0 wgt'ed negative examples:
//    Wgt'ed recall = 0.041, precision = 0.999, and F1 = 0.080 - learned after 24 total and 16 acceptable nodes.  Node score = -79.26102600436737

 FOR advisedby(a, b) IF (yearsInProgram(a, Year_7)) THEN output = -0.101219 ELSE output = -0.099140;

// Best in (weighted) recall bin #1, (0.05, 0.1], from 'outerLoop #10, null' and covering 155.0 wgt'ed positive and 0.0 wgt'ed negative examples:
//    Wgt'ed recall = 0.066, precision = 0.999, and F1 = 0.124 - learned after 24 total and 16 acceptable nodes.  Node score = -79.10191209467045

 FOR advisedby(a, b) IF (yearsInProgram(a, Year_3)) THEN output = -0.068225 ELSE output = -0.101422;

// Best in (weighted) recall bin #2, (0.1, 0.15], from 'outerLoop #10, null' and covering 281.0 wgt'ed positive and 0.0 wgt'ed negative examples:
//    Wgt'ed recall = 0.120, precision = 1.000, and F1 = 0.214 - learned after 25 total and 17 acceptable nodes.  Node score = -78.68130873084974

 FOR advisedby(a, b) IF (yearsInProgram(b, Year_6)) THEN output = -0.141851 ELSE output = -0.093417;

// Best in (weighted) recall bin #3, (0.15, 0.2], from 'outerLoop #10, null' and covering 435.0 wgt'ed positive and 0.0 wgt'ed negative examples:
//    Wgt'ed recall = 0.186, precision = 1.000, and F1 = 0.313 - learned after 21 total and 13 acceptable nodes.  Node score = -74.74122129258264

 FOR advisedby(a, b) IF (tempAdvisedBy(anon13015, b)) THEN output = 0.000779 ELSE output = -0.120247;

// Best in (weighted) recall bin #5, (0.25, 0.3], from 'outerLoop #10, null' and covering 697.0 wgt'ed positive and 0.0 wgt'ed negative examples:
//    Wgt'ed recall = 0.297, precision = 1.000, and F1 = 0.459 - learned after 9 total and 7 acceptable nodes.  Node score = -69.49293745555107

 FOR advisedby(a, b) IF (hasPosition(b, anon13005)) THEN output = -2.56888e-16 ELSE output = -0.141244;

// Best in (weighted) recall bin #6, (0.3, 0.35], from 'outerLoop #10, null' and covering 716.0 wgt'ed positive and 0.0 wgt'ed negative examples:
//    Wgt'ed recall = 0.306, precision = 1.000, and F1 = 0.468 - learned after 5 total and 3 acceptable nodes.  Node score = -69.58814210603852

 FOR advisedby(a, b) IF (professor(b)) THEN output = -0.002368 ELSE output = -0.141851;

// Best in (weighted) recall bin #7, (0.35, 0.4], from 'outerLoop #10, null' and covering 824.0 wgt'ed positive and 0.0 wgt'ed negative examples:
//    Wgt'ed recall = 0.352, precision = 1.000, and F1 = 0.520 - learned after 27 total and 19 acceptable nodes.  Node score = -73.74372259528744

 FOR advisedby(a, b) IF (taughtBy(anon13021, b, anon13023)) THEN output = 0.001030 ELSE output = -0.137116;

// Best in (weighted) recall bin #12, (0.6, 0.65], from 'outerLoop #10, null' and covering 1,492.0 wgt'ed positive and 0.0 wgt'ed negative examples:
//    Wgt'ed recall = 0.637, precision = 1.000, and F1 = 0.778 - learned after 3 total and 1 acceptable nodes.  Node score = -86.16311053951209

 FOR advisedby(a, b) IF (publication(anon13001, b)) THEN output = -0.002520 ELSE output = -0.133137;

// Best in (weighted) recall bin #13, (0.65, 0.7], from 'outerLoop #10, null' and covering 1,627.0 wgt'ed positive and 0.0 wgt'ed negative examples:
//    Wgt'ed recall = 0.694, precision = 1.000, and F1 = 0.820 - learned after 7 total and 5 acceptable nodes.  Node score = -69.58814210604022

 FOR advisedby(a, b) IF (student(b)) THEN output = -0.141851 ELSE output = -0.002368;


////////////////////////////////////////////////////////////////////////////////
////
////     Gleaner for: outerLoop #11, null
////
////////////////////////////////////////////////////////////////////////////////

// Best in (weighted) recall bin #3, (0.15, 0.2], from 'outerLoop #11, null' and covering 435.0 wgt'ed positive and 0.0 wgt'ed negative examples:
//    Wgt'ed recall = 0.186, precision = 1.000, and F1 = 0.313 - learned after 21 total and 13 acceptable nodes.  Node score = -74.74122129258264

 FOR advisedby(a, b) IF (tempAdvisedBy(anon5177, b)) THEN output = 0.000779 ELSE output = -0.120247;

// Best in (weighted) recall bin #4, (0.2, 0.25], from 'outerLoop #11, null' and covering 579.0 wgt'ed positive and 0.0 wgt'ed negative examples:
//    Wgt'ed recall = 0.247, precision = 1.000, and F1 = 0.396 - learned after 13 total and 11 acceptable nodes.  Node score = -77.86416059556089

 FOR advisedby(a, b) IF (inPhase(b, Post_Quals)) THEN output = -0.141851 ELSE output = -0.085235;

// Best in (weighted) recall bin #5, (0.25, 0.3], from 'outerLoop #11, null' and covering 697.0 wgt'ed positive and 0.0 wgt'ed negative examples:
//    Wgt'ed recall = 0.297, precision = 1.000, and F1 = 0.459 - learned after 9 total and 7 acceptable nodes.  Node score = -69.49293745555107

 FOR advisedby(a, b) IF (hasPosition(b, anon5167)) THEN output = -2.74330e-16 ELSE output = -0.141244;

// Best in (weighted) recall bin #6, (0.3, 0.35], from 'outerLoop #11, null' and covering 716.0 wgt'ed positive and 0.0 wgt'ed negative examples:
//    Wgt'ed recall = 0.306, precision = 1.000, and F1 = 0.468 - learned after 5 total and 3 acceptable nodes.  Node score = -69.58814210603852

 FOR advisedby(a, b) IF (professor(b)) THEN output = -0.002368 ELSE output = -0.141851;

// Best in (weighted) recall bin #7, (0.35, 0.4], from 'outerLoop #11, null' and covering 824.0 wgt'ed positive and 0.0 wgt'ed negative examples:
//    Wgt'ed recall = 0.352, precision = 1.000, and F1 = 0.520 - learned after 26 total and 18 acceptable nodes.  Node score = -73.74372259528744

 FOR advisedby(a, b) IF (taughtBy(anon5183, b, anon5185)) THEN output = 0.001030 ELSE output = -0.137116;

// Best in (weighted) recall bin #12, (0.6, 0.65], from 'outerLoop #11, null' and covering 1,492.0 wgt'ed positive and 0.0 wgt'ed negative examples:
//    Wgt'ed recall = 0.637, precision = 1.000, and F1 = 0.778 - learned after 3 total and 1 acceptable nodes.  Node score = -86.16311053951208

 FOR advisedby(a, b) IF (publication(anon5163, b)) THEN output = -0.002520 ELSE output = -0.133137;

// Best in (weighted) recall bin #13, (0.65, 0.7], from 'outerLoop #11, null' and covering 1,627.0 wgt'ed positive and 0.0 wgt'ed negative examples:
//    Wgt'ed recall = 0.694, precision = 1.000, and F1 = 0.820 - learned after 7 total and 5 acceptable nodes.  Node score = -69.58814210604024

 FOR advisedby(a, b) IF (student(b)) THEN output = -0.141851 ELSE output = -0.002368;


////////////////////////////////////////////////////////////////////////////////
////
////     Gleaner for: outerLoop #12, null
////
////////////////////////////////////////////////////////////////////////////////

// Best in (weighted) recall bin #0, (-Infinity, 0.05], from 'outerLoop #12, null' and covering 39.0 wgt'ed positive and 0.0 wgt'ed negative examples:
//    Wgt'ed recall = 0.017, precision = 0.997, and F1 = 0.033 - learned after 10 total and 8 acceptable nodes.  Node score = -79.2183156664711

 FOR advisedby(a, b) IF (hasPosition(a, Faculty_emeritus)) THEN output = -0.132196 ELSE output = -0.098668;

// Best in (weighted) recall bin #3, (0.15, 0.2], from 'outerLoop #12, null' and covering 435.0 wgt'ed positive and 0.0 wgt'ed negative examples:
//    Wgt'ed recall = 0.186, precision = 1.000, and F1 = 0.313 - learned after 21 total and 13 acceptable nodes.  Node score = -74.74122129258264

 FOR advisedby(a, b) IF (tempAdvisedBy(anon5579, b)) THEN output = 0.000779 ELSE output = -0.120247;

// Best in (weighted) recall bin #4, (0.2, 0.25], from 'outerLoop #12, null' and covering 579.0 wgt'ed positive and 0.0 wgt'ed negative examples:
//    Wgt'ed recall = 0.247, precision = 1.000, and F1 = 0.396 - learned after 13 total and 11 acceptable nodes.  Node score = -77.86416059556086

 FOR advisedby(a, b) IF (inPhase(b, Post_Quals)) THEN output = -0.141851 ELSE output = -0.085235;

// Best in (weighted) recall bin #5, (0.25, 0.3], from 'outerLoop #12, null' and covering 697.0 wgt'ed positive and 0.0 wgt'ed negative examples:
//    Wgt'ed recall = 0.297, precision = 1.000, and F1 = 0.459 - learned after 9 total and 7 acceptable nodes.  Node score = -69.49293745555107

 FOR advisedby(a, b) IF (hasPosition(b, anon5569)) THEN output = -2.53543e-16 ELSE output = -0.141244;

// Best in (weighted) recall bin #6, (0.3, 0.35], from 'outerLoop #12, null' and covering 716.0 wgt'ed positive and 0.0 wgt'ed negative examples:
//    Wgt'ed recall = 0.306, precision = 1.000, and F1 = 0.468 - learned after 5 total and 3 acceptable nodes.  Node score = -69.58814210603852

 FOR advisedby(a, b) IF (professor(b)) THEN output = -0.002368 ELSE output = -0.141851;

// Best in (weighted) recall bin #7, (0.35, 0.4], from 'outerLoop #12, null' and covering 824.0 wgt'ed positive and 0.0 wgt'ed negative examples:
//    Wgt'ed recall = 0.352, precision = 1.000, and F1 = 0.520 - learned after 26 total and 18 acceptable nodes.  Node score = -73.74372259528744

 FOR advisedby(a, b) IF (taughtBy(anon5585, b, anon5587)) THEN output = 0.001030 ELSE output = -0.137116;

// Best in (weighted) recall bin #12, (0.6, 0.65], from 'outerLoop #12, null' and covering 1,492.0 wgt'ed positive and 0.0 wgt'ed negative examples:
//    Wgt'ed recall = 0.637, precision = 1.000, and F1 = 0.778 - learned after 3 total and 1 acceptable nodes.  Node score = -86.16311053951208

 FOR advisedby(a, b) IF (publication(anon5565, b)) THEN output = -0.002520 ELSE output = -0.133137;

// Best in (weighted) recall bin #13, (0.65, 0.7], from 'outerLoop #12, null' and covering 1,627.0 wgt'ed positive and 0.0 wgt'ed negative examples:
//    Wgt'ed recall = 0.694, precision = 1.000, and F1 = 0.820 - learned after 7 total and 5 acceptable nodes.  Node score = -69.58814210604021

 FOR advisedby(a, b) IF (student(b)) THEN output = -0.141851 ELSE output = -0.002368;


////////////////////////////////////////////////////////////////////////////////
////
////     Gleaner for: outerLoop #13, null
////
////////////////////////////////////////////////////////////////////////////////

// Best in (weighted) recall bin #0, (-Infinity, 0.05], from 'outerLoop #13, null' and covering 97.0 wgt'ed positive and 0.0 wgt'ed negative examples:
//    Wgt'ed recall = 0.041, precision = 0.999, and F1 = 0.080 - learned after 24 total and 16 acceptable nodes.  Node score = -79.26102600436738

 FOR advisedby(a, b) IF (yearsInProgram(a, Year_7)) THEN output = -0.101219 ELSE output = -0.099140;

// Best in (weighted) recall bin #3, (0.15, 0.2], from 'outerLoop #13, null' and covering 435.0 wgt'ed positive and 0.0 wgt'ed negative examples:
//    Wgt'ed recall = 0.186, precision = 1.000, and F1 = 0.313 - learned after 21 total and 13 acceptable nodes.  Node score = -74.74122129258267

 FOR advisedby(a, b) IF (tempAdvisedBy(anon5981, b)) THEN output = 0.000779 ELSE output = -0.120247;

// Best in (weighted) recall bin #5, (0.25, 0.3], from 'outerLoop #13, null' and covering 697.0 wgt'ed positive and 0.0 wgt'ed negative examples:
//    Wgt'ed recall = 0.297, precision = 1.000, and F1 = 0.459 - learned after 9 total and 7 acceptable nodes.  Node score = -69.49293745555109

 FOR advisedby(a, b) IF (hasPosition(b, anon5971)) THEN output = 4.92472e-16 ELSE output = -0.141244;

// Best in (weighted) recall bin #6, (0.3, 0.35], from 'outerLoop #13, null' and covering 716.0 wgt'ed positive and 0.0 wgt'ed negative examples:
//    Wgt'ed recall = 0.306, precision = 1.000, and F1 = 0.468 - learned after 5 total and 3 acceptable nodes.  Node score = -69.58814210603853

 FOR advisedby(a, b) IF (professor(b)) THEN output = -0.002368 ELSE output = -0.141851;

// Best in (weighted) recall bin #7, (0.35, 0.4], from 'outerLoop #13, null' and covering 824.0 wgt'ed positive and 0.0 wgt'ed negative examples:
//    Wgt'ed recall = 0.352, precision = 1.000, and F1 = 0.520 - learned after 27 total and 19 acceptable nodes.  Node score = -73.74372259528747

 FOR advisedby(a, b) IF (taughtBy(anon5987, b, anon5989)) THEN output = 0.001030 ELSE output = -0.137116;

// Best in (weighted) recall bin #12, (0.6, 0.65], from 'outerLoop #13, null' and covering 1,492.0 wgt'ed positive and 0.0 wgt'ed negative examples:
//    Wgt'ed recall = 0.637, precision = 1.000, and F1 = 0.778 - learned after 3 total and 1 acceptable nodes.  Node score = -86.16311053951212

 FOR advisedby(a, b) IF (publication(anon5967, b)) THEN output = -0.002520 ELSE output = -0.133137;

// Best in (weighted) recall bin #13, (0.65, 0.7], from 'outerLoop #13, null' and covering 1,627.0 wgt'ed positive and 0.0 wgt'ed negative examples:
//    Wgt'ed recall = 0.694, precision = 1.000, and F1 = 0.820 - learned after 7 total and 5 acceptable nodes.  Node score = -69.58814210604022

 FOR advisedby(a, b) IF (student(b)) THEN output = -0.141851 ELSE output = -0.002368;


////////////////////////////////////////////////////////////////////////////////
////
////     Gleaner for: outerLoop #14, null
////
////////////////////////////////////////////////////////////////////////////////

// Best in (weighted) recall bin #3, (0.15, 0.2], from 'outerLoop #14, null' and covering 435.0 wgt'ed positive and 0.0 wgt'ed negative examples:
//    Wgt'ed recall = 0.186, precision = 1.000, and F1 = 0.313 - learned after 21 total and 13 acceptable nodes.  Node score = -74.74122129258264

 FOR advisedby(a, b) IF (tempAdvisedBy(anon6391, b)) THEN output = 0.000779 ELSE output = -0.120247;

// Best in (weighted) recall bin #4, (0.2, 0.25], from 'outerLoop #14, null' and covering 579.0 wgt'ed positive and 0.0 wgt'ed negative examples:
//    Wgt'ed recall = 0.247, precision = 1.000, and F1 = 0.396 - learned after 13 total and 11 acceptable nodes.  Node score = -77.86416059556089

 FOR advisedby(a, b) IF (inPhase(b, Post_Quals)) THEN output = -0.141851 ELSE output = -0.085235;

// Best in (weighted) recall bin #5, (0.25, 0.3], from 'outerLoop #14, null' and covering 697.0 wgt'ed positive and 0.0 wgt'ed negative examples:
//    Wgt'ed recall = 0.297, precision = 1.000, and F1 = 0.459 - learned after 9 total and 7 acceptable nodes.  Node score = -69.49293745555107

 FOR advisedby(a, b) IF (hasPosition(b, anon6381)) THEN output = -2.71304e-16 ELSE output = -0.141244;

// Best in (weighted) recall bin #6, (0.3, 0.35], from 'outerLoop #14, null' and covering 716.0 wgt'ed positive and 0.0 wgt'ed negative examples:
//    Wgt'ed recall = 0.306, precision = 1.000, and F1 = 0.468 - learned after 5 total and 3 acceptable nodes.  Node score = -69.58814210603852

 FOR advisedby(a, b) IF (professor(b)) THEN output = -0.002368 ELSE output = -0.141851;

// Best in (weighted) recall bin #7, (0.35, 0.4], from 'outerLoop #14, null' and covering 824.0 wgt'ed positive and 0.0 wgt'ed negative examples:
//    Wgt'ed recall = 0.352, precision = 1.000, and F1 = 0.520 - learned after 26 total and 18 acceptable nodes.  Node score = -73.74372259528744

 FOR advisedby(a, b) IF (taughtBy(anon6397, b, anon6399)) THEN output = 0.001030 ELSE output = -0.137116;

// Best in (weighted) recall bin #12, (0.6, 0.65], from 'outerLoop #14, null' and covering 1,492.0 wgt'ed positive and 0.0 wgt'ed negative examples:
//    Wgt'ed recall = 0.637, precision = 1.000, and F1 = 0.778 - learned after 3 total and 1 acceptable nodes.  Node score = -86.16311053951208

 FOR advisedby(a, b) IF (publication(anon6377, b)) THEN output = -0.002520 ELSE output = -0.133137;

// Best in (weighted) recall bin #13, (0.65, 0.7], from 'outerLoop #14, null' and covering 1,627.0 wgt'ed positive and 0.0 wgt'ed negative examples:
//    Wgt'ed recall = 0.694, precision = 1.000, and F1 = 0.820 - learned after 7 total and 5 acceptable nodes.  Node score = -69.58814210604024

 FOR advisedby(a, b) IF (student(b)) THEN output = -0.141851 ELSE output = -0.002368;


////////////////////////////////////////////////////////////////////////////////
////
////     Gleaner for: outerLoop #15, null
////
////////////////////////////////////////////////////////////////////////////////

// Best in (weighted) recall bin #3, (0.15, 0.2], from 'outerLoop #15, null' and covering 435.0 wgt'ed positive and 0.0 wgt'ed negative examples:
//    Wgt'ed recall = 0.186, precision = 1.000, and F1 = 0.313 - learned after 21 total and 13 acceptable nodes.  Node score = -74.74122129258264

 FOR advisedby(a, b) IF (tempAdvisedBy(anon6793, b)) THEN output = 0.000779 ELSE output = -0.120247;

// Best in (weighted) recall bin #4, (0.2, 0.25], from 'outerLoop #15, null' and covering 579.0 wgt'ed positive and 0.0 wgt'ed negative examples:
//    Wgt'ed recall = 0.247, precision = 1.000, and F1 = 0.396 - learned after 13 total and 11 acceptable nodes.  Node score = -77.86416059556086

 FOR advisedby(a, b) IF (inPhase(b, Post_Quals)) THEN output = -0.141851 ELSE output = -0.085235;

// Best in (weighted) recall bin #5, (0.25, 0.3], from 'outerLoop #15, null' and covering 697.0 wgt'ed positive and 0.0 wgt'ed negative examples:
//    Wgt'ed recall = 0.297, precision = 1.000, and F1 = 0.459 - learned after 9 total and 7 acceptable nodes.  Node score = -69.49293745555107

 FOR advisedby(a, b) IF (hasPosition(b, anon6783)) THEN output = -2.52428e-16 ELSE output = -0.141244;

// Best in (weighted) recall bin #6, (0.3, 0.35], from 'outerLoop #15, null' and covering 716.0 wgt'ed positive and 0.0 wgt'ed negative examples:
//    Wgt'ed recall = 0.306, precision = 1.000, and F1 = 0.468 - learned after 5 total and 3 acceptable nodes.  Node score = -69.58814210603852

 FOR advisedby(a, b) IF (professor(b)) THEN output = -0.002368 ELSE output = -0.141851;

// Best in (weighted) recall bin #7, (0.35, 0.4], from 'outerLoop #15, null' and covering 824.0 wgt'ed positive and 0.0 wgt'ed negative examples:
//    Wgt'ed recall = 0.352, precision = 1.000, and F1 = 0.520 - learned after 26 total and 18 acceptable nodes.  Node score = -73.74372259528744

 FOR advisedby(a, b) IF (taughtBy(anon6799, b, anon6801)) THEN output = 0.001030 ELSE output = -0.137116;

// Best in (weighted) recall bin #12, (0.6, 0.65], from 'outerLoop #15, null' and covering 1,492.0 wgt'ed positive and 0.0 wgt'ed negative examples:
//    Wgt'ed recall = 0.637, precision = 1.000, and F1 = 0.778 - learned after 3 total and 1 acceptable nodes.  Node score = -86.16311053951208

 FOR advisedby(a, b) IF (publication(anon6779, b)) THEN output = -0.002520 ELSE output = -0.133137;

// Best in (weighted) recall bin #13, (0.65, 0.7], from 'outerLoop #15, null' and covering 1,627.0 wgt'ed positive and 0.0 wgt'ed negative examples:
//    Wgt'ed recall = 0.694, precision = 1.000, and F1 = 0.820 - learned after 7 total and 5 acceptable nodes.  Node score = -69.58814210604021

 FOR advisedby(a, b) IF (student(b)) THEN output = -0.141851 ELSE output = -0.002368;


////////////////////////////////////////////////////////////////////////////////
////
////     Gleaner for: outerLoop #16, null
////
////////////////////////////////////////////////////////////////////////////////

// Best in (weighted) recall bin #0, (-Infinity, 0.05], from 'outerLoop #16, null' and covering 97.0 wgt'ed positive and 0.0 wgt'ed negative examples:
//    Wgt'ed recall = 0.041, precision = 0.999, and F1 = 0.080 - learned after 24 total and 16 acceptable nodes.  Node score = -79.26102600436738

 FOR advisedby(a, b) IF (yearsInProgram(a, Year_7)) THEN output = -0.101219 ELSE output = -0.099140;

// Best in (weighted) recall bin #3, (0.15, 0.2], from 'outerLoop #16, null' and covering 435.0 wgt'ed positive and 0.0 wgt'ed negative examples:
//    Wgt'ed recall = 0.186, precision = 1.000, and F1 = 0.313 - learned after 21 total and 13 acceptable nodes.  Node score = -74.74122129258267

 FOR advisedby(a, b) IF (tempAdvisedBy(anon7195, b)) THEN output = 0.000779 ELSE output = -0.120247;

// Best in (weighted) recall bin #4, (0.2, 0.25], from 'outerLoop #16, null' and covering 579.0 wgt'ed positive and 0.0 wgt'ed negative examples:
//    Wgt'ed recall = 0.247, precision = 1.000, and F1 = 0.396 - learned after 13 total and 11 acceptable nodes.  Node score = -77.86416059556092

 FOR advisedby(a, b) IF (inPhase(b, Post_Quals)) THEN output = -0.141851 ELSE output = -0.085235;

// Best in (weighted) recall bin #5, (0.25, 0.3], from 'outerLoop #16, null' and covering 697.0 wgt'ed positive and 0.0 wgt'ed negative examples:
//    Wgt'ed recall = 0.297, precision = 1.000, and F1 = 0.459 - learned after 9 total and 7 acceptable nodes.  Node score = -69.49293745555109

 FOR advisedby(a, b) IF (hasPosition(b, anon7185)) THEN output = 4.92831e-16 ELSE output = -0.141244;

// Best in (weighted) recall bin #6, (0.3, 0.35], from 'outerLoop #16, null' and covering 716.0 wgt'ed positive and 0.0 wgt'ed negative examples:
//    Wgt'ed recall = 0.306, precision = 1.000, and F1 = 0.468 - learned after 5 total and 3 acceptable nodes.  Node score = -69.58814210603853

 FOR advisedby(a, b) IF (professor(b)) THEN output = -0.002368 ELSE output = -0.141851;

// Best in (weighted) recall bin #7, (0.35, 0.4], from 'outerLoop #16, null' and covering 824.0 wgt'ed positive and 0.0 wgt'ed negative examples:
//    Wgt'ed recall = 0.352, precision = 1.000, and F1 = 0.520 - learned after 27 total and 19 acceptable nodes.  Node score = -73.74372259528747

 FOR advisedby(a, b) IF (taughtBy(anon7201, b, anon7203)) THEN output = 0.001030 ELSE output = -0.137116;

// Best in (weighted) recall bin #12, (0.6, 0.65], from 'outerLoop #16, null' and covering 1,492.0 wgt'ed positive and 0.0 wgt'ed negative examples:
//    Wgt'ed recall = 0.637, precision = 1.000, and F1 = 0.778 - learned after 3 total and 1 acceptable nodes.  Node score = -86.16311053951212

 FOR advisedby(a, b) IF (publication(anon7181, b)) THEN output = -0.002520 ELSE output = -0.133137;

// Best in (weighted) recall bin #13, (0.65, 0.7], from 'outerLoop #16, null' and covering 1,627.0 wgt'ed positive and 0.0 wgt'ed negative examples:
//    Wgt'ed recall = 0.694, precision = 1.000, and F1 = 0.820 - learned after 7 total and 5 acceptable nodes.  Node score = -69.58814210604022

 FOR advisedby(a, b) IF (student(b)) THEN output = -0.141851 ELSE output = -0.002368;


////////////////////////////////////////////////////////////////////////////////
////
////     Gleaner for: outerLoop #17, null
////
////////////////////////////////////////////////////////////////////////////////

// Best in (weighted) recall bin #1, (0.05, 0.1], from 'outerLoop #17, null' and covering 155.0 wgt'ed positive and 0.0 wgt'ed negative examples:
//    Wgt'ed recall = 0.066, precision = 0.999, and F1 = 0.124 - learned after 25 total and 17 acceptable nodes.  Node score = -78.95986076749531

 FOR advisedby(a, b) IF (yearsInProgram(b, Year_2)) THEN output = -0.141851 ELSE output = -0.096207;

// Best in (weighted) recall bin #3, (0.15, 0.2], from 'outerLoop #17, null' and covering 435.0 wgt'ed positive and 0.0 wgt'ed negative examples:
//    Wgt'ed recall = 0.186, precision = 1.000, and F1 = 0.313 - learned after 21 total and 13 acceptable nodes.  Node score = -74.74122129258264

 FOR advisedby(a, b) IF (tempAdvisedBy(anon7605, b)) THEN output = 0.000779 ELSE output = -0.120247;

// Best in (weighted) recall bin #4, (0.2, 0.25], from 'outerLoop #17, null' and covering 579.0 wgt'ed positive and 0.0 wgt'ed negative examples:
//    Wgt'ed recall = 0.247, precision = 1.000, and F1 = 0.396 - learned after 13 total and 11 acceptable nodes.  Node score = -77.86416059556089

 FOR advisedby(a, b) IF (inPhase(b, Post_Quals)) THEN output = -0.141851 ELSE output = -0.085235;

// Best in (weighted) recall bin #5, (0.25, 0.3], from 'outerLoop #17, null' and covering 697.0 wgt'ed positive and 0.0 wgt'ed negative examples:
//    Wgt'ed recall = 0.297, precision = 1.000, and F1 = 0.459 - learned after 9 total and 7 acceptable nodes.  Node score = -69.49293745555107

 FOR advisedby(a, b) IF (hasPosition(b, anon7595)) THEN output = -2.70229e-16 ELSE output = -0.141244;

// Best in (weighted) recall bin #6, (0.3, 0.35], from 'outerLoop #17, null' and covering 716.0 wgt'ed positive and 0.0 wgt'ed negative examples:
//    Wgt'ed recall = 0.306, precision = 1.000, and F1 = 0.468 - learned after 5 total and 3 acceptable nodes.  Node score = -69.58814210603852

 FOR advisedby(a, b) IF (professor(b)) THEN output = -0.002368 ELSE output = -0.141851;

// Best in (weighted) recall bin #7, (0.35, 0.4], from 'outerLoop #17, null' and covering 824.0 wgt'ed positive and 0.0 wgt'ed negative examples:
//    Wgt'ed recall = 0.352, precision = 1.000, and F1 = 0.520 - learned after 27 total and 19 acceptable nodes.  Node score = -73.74372259528744

 FOR advisedby(a, b) IF (taughtBy(anon7611, b, anon7613)) THEN output = 0.001030 ELSE output = -0.137116;

// Best in (weighted) recall bin #12, (0.6, 0.65], from 'outerLoop #17, null' and covering 1,492.0 wgt'ed positive and 0.0 wgt'ed negative examples:
//    Wgt'ed recall = 0.637, precision = 1.000, and F1 = 0.778 - learned after 3 total and 1 acceptable nodes.  Node score = -86.16311053951208

 FOR advisedby(a, b) IF (publication(anon7591, b)) THEN output = -0.002520 ELSE output = -0.133137;

// Best in (weighted) recall bin #13, (0.65, 0.7], from 'outerLoop #17, null' and covering 1,627.0 wgt'ed positive and 0.0 wgt'ed negative examples:
//    Wgt'ed recall = 0.694, precision = 1.000, and F1 = 0.820 - learned after 7 total and 5 acceptable nodes.  Node score = -69.58814210604024

 FOR advisedby(a, b) IF (student(b)) THEN output = -0.141851 ELSE output = -0.002368;


////////////////////////////////////////////////////////////////////////////////
////
////     Gleaner for: outerLoop #18, null
////
////////////////////////////////////////////////////////////////////////////////

// Best in (weighted) recall bin #0, (-Infinity, 0.05], from 'outerLoop #18, null' and covering 117.0 wgt'ed positive and 0.0 wgt'ed negative examples:
//    Wgt'ed recall = 0.050, precision = 0.999, and F1 = 0.095 - learned after 25 total and 17 acceptable nodes.  Node score = -79.03767927383241

 FOR advisedby(a, b) IF (yearsInProgram(b, Year_12)) THEN output = -0.141851 ELSE output = -0.096986;

// Best in (weighted) recall bin #3, (0.15, 0.2], from 'outerLoop #18, null' and covering 435.0 wgt'ed positive and 0.0 wgt'ed negative examples:
//    Wgt'ed recall = 0.186, precision = 1.000, and F1 = 0.313 - learned after 21 total and 13 acceptable nodes.  Node score = -74.74122129258264

 FOR advisedby(a, b) IF (tempAdvisedBy(anon8015, b)) THEN output = 0.000779 ELSE output = -0.120247;

// Best in (weighted) recall bin #4, (0.2, 0.25], from 'outerLoop #18, null' and covering 579.0 wgt'ed positive and 0.0 wgt'ed negative examples:
//    Wgt'ed recall = 0.247, precision = 1.000, and F1 = 0.396 - learned after 12 total and 10 acceptable nodes.  Node score = -78.83176102030333

 FOR advisedby(a, b) IF (inPhase(a, Post_Quals)) THEN output = -0.075589 ELSE output = -0.106984;

// Best in (weighted) recall bin #5, (0.25, 0.3], from 'outerLoop #18, null' and covering 697.0 wgt'ed positive and 0.0 wgt'ed negative examples:
//    Wgt'ed recall = 0.297, precision = 1.000, and F1 = 0.459 - learned after 9 total and 7 acceptable nodes.  Node score = -69.49293745555107

 FOR advisedby(a, b) IF (hasPosition(b, anon8005)) THEN output = -2.52349e-16 ELSE output = -0.141244;

// Best in (weighted) recall bin #6, (0.3, 0.35], from 'outerLoop #18, null' and covering 716.0 wgt'ed positive and 0.0 wgt'ed negative examples:
//    Wgt'ed recall = 0.306, precision = 1.000, and F1 = 0.468 - learned after 5 total and 3 acceptable nodes.  Node score = -69.58814210603852

 FOR advisedby(a, b) IF (professor(b)) THEN output = -0.002368 ELSE output = -0.141851;

// Best in (weighted) recall bin #7, (0.35, 0.4], from 'outerLoop #18, null' and covering 824.0 wgt'ed positive and 0.0 wgt'ed negative examples:
//    Wgt'ed recall = 0.352, precision = 1.000, and F1 = 0.520 - learned after 27 total and 19 acceptable nodes.  Node score = -73.74372259528744

 FOR advisedby(a, b) IF (taughtBy(anon8021, b, anon8023)) THEN output = 0.001030 ELSE output = -0.137116;

// Best in (weighted) recall bin #12, (0.6, 0.65], from 'outerLoop #18, null' and covering 1,492.0 wgt'ed positive and 0.0 wgt'ed negative examples:
//    Wgt'ed recall = 0.637, precision = 1.000, and F1 = 0.778 - learned after 3 total and 1 acceptable nodes.  Node score = -86.16311053951208

 FOR advisedby(a, b) IF (publication(anon8001, b)) THEN output = -0.002520 ELSE output = -0.133137;

// Best in (weighted) recall bin #13, (0.65, 0.7], from 'outerLoop #18, null' and covering 1,627.0 wgt'ed positive and 0.0 wgt'ed negative examples:
//    Wgt'ed recall = 0.694, precision = 1.000, and F1 = 0.820 - learned after 7 total and 5 acceptable nodes.  Node score = -69.58814210604021

 FOR advisedby(a, b) IF (student(b)) THEN output = -0.141851 ELSE output = -0.002368;


////////////////////////////////////////////////////////////////////////////////
////
////     Gleaner for: outerLoop #19, null
////
////////////////////////////////////////////////////////////////////////////////

// Best in (weighted) recall bin #2, (0.1, 0.15], from 'outerLoop #19, null' and covering 281.0 wgt'ed positive and 0.0 wgt'ed negative examples:
//    Wgt'ed recall = 0.120, precision = 1.000, and F1 = 0.214 - learned after 24 total and 16 acceptable nodes.  Node score = -78.68130873084974

 FOR advisedby(a, b) IF (yearsInProgram(b, Year_6)) THEN output = -0.141851 ELSE output = -0.093417;

// Best in (weighted) recall bin #3, (0.15, 0.2], from 'outerLoop #19, null' and covering 435.0 wgt'ed positive and 0.0 wgt'ed negative examples:
//    Wgt'ed recall = 0.186, precision = 1.000, and F1 = 0.313 - learned after 21 total and 13 acceptable nodes.  Node score = -74.74122129258267

 FOR advisedby(a, b) IF (tempAdvisedBy(anon8425, b)) THEN output = 0.000779 ELSE output = -0.120247;

// Best in (weighted) recall bin #5, (0.25, 0.3], from 'outerLoop #19, null' and covering 697.0 wgt'ed positive and 0.0 wgt'ed negative examples:
//    Wgt'ed recall = 0.297, precision = 1.000, and F1 = 0.459 - learned after 9 total and 7 acceptable nodes.  Node score = -69.49293745555109

 FOR advisedby(a, b) IF (hasPosition(b, anon8415)) THEN output = 5.04339e-16 ELSE output = -0.141244;

// Best in (weighted) recall bin #6, (0.3, 0.35], from 'outerLoop #19, null' and covering 716.0 wgt'ed positive and 0.0 wgt'ed negative examples:
//    Wgt'ed recall = 0.306, precision = 1.000, and F1 = 0.468 - learned after 5 total and 3 acceptable nodes.  Node score = -69.58814210603853

 FOR advisedby(a, b) IF (professor(b)) THEN output = -0.002368 ELSE output = -0.141851;

// Best in (weighted) recall bin #7, (0.35, 0.4], from 'outerLoop #19, null' and covering 824.0 wgt'ed positive and 0.0 wgt'ed negative examples:
//    Wgt'ed recall = 0.352, precision = 1.000, and F1 = 0.520 - learned after 26 total and 18 acceptable nodes.  Node score = -73.74372259528747

 FOR advisedby(a, b) IF (taughtBy(anon8431, b, anon8433)) THEN output = 0.001030 ELSE output = -0.137116;

// Best in (weighted) recall bin #12, (0.6, 0.65], from 'outerLoop #19, null' and covering 1,492.0 wgt'ed positive and 0.0 wgt'ed negative examples:
//    Wgt'ed recall = 0.637, precision = 1.000, and F1 = 0.778 - learned after 3 total and 1 acceptable nodes.  Node score = -86.16311053951212

 FOR advisedby(a, b) IF (publication(anon8411, b)) THEN output = -0.002520 ELSE output = -0.133137;

// Best in (weighted) recall bin #13, (0.65, 0.7], from 'outerLoop #19, null' and covering 1,627.0 wgt'ed positive and 0.0 wgt'ed negative examples:
//    Wgt'ed recall = 0.694, precision = 1.000, and F1 = 0.820 - learned after 7 total and 5 acceptable nodes.  Node score = -69.58814210604022

 FOR advisedby(a, b) IF (student(b)) THEN output = -0.141851 ELSE output = -0.002368;


////////////////////////////////////////////////////////////////////////////////
////
////     Gleaner for: outerLoop #20, null
////
////////////////////////////////////////////////////////////////////////////////

// Best in (weighted) recall bin #0, (-Infinity, 0.05], from 'outerLoop #20, null' and covering 61.0 wgt'ed positive and 0.0 wgt'ed negative examples:
//    Wgt'ed recall = 0.026, precision = 0.998, and F1 = 0.051 - learned after 5 total and 2 acceptable nodes.  Node score = -79.14763516053604

 FOR advisedby(a, a) IF (student(a)) THEN output = -0.141851 ELSE output = -0.098087;

// Best in (weighted) recall bin #3, (0.15, 0.2], from 'outerLoop #20, null' and covering 435.0 wgt'ed positive and 0.0 wgt'ed negative examples:
//    Wgt'ed recall = 0.186, precision = 1.000, and F1 = 0.313 - learned after 35 total and 24 acceptable nodes.  Node score = -74.74122129258262

 FOR advisedby(a, b) IF (tempAdvisedBy(anon8963, b)) THEN output = 0.000779 ELSE output = -0.120247;

// Best in (weighted) recall bin #4, (0.2, 0.25], from 'outerLoop #20, null' and covering 579.0 wgt'ed positive and 0.0 wgt'ed negative examples:
//    Wgt'ed recall = 0.247, precision = 1.000, and F1 = 0.396 - learned after 27 total and 22 acceptable nodes.  Node score = -77.86416059556089

 FOR advisedby(a, b) IF (inPhase(b, Post_Quals)) THEN output = -0.141851 ELSE output = -0.085235;

// Best in (weighted) recall bin #5, (0.25, 0.3], from 'outerLoop #20, null' and covering 697.0 wgt'ed positive and 0.0 wgt'ed negative examples:
//    Wgt'ed recall = 0.297, precision = 1.000, and F1 = 0.459 - learned after 23 total and 18 acceptable nodes.  Node score = -69.49293745555107

 FOR advisedby(a, b) IF (hasPosition(b, anon8953)) THEN output = -2.70189e-16 ELSE output = -0.141244;

// Best in (weighted) recall bin #6, (0.3, 0.35], from 'outerLoop #20, null' and covering 716.0 wgt'ed positive and 0.0 wgt'ed negative examples:
//    Wgt'ed recall = 0.306, precision = 1.000, and F1 = 0.468 - learned after 19 total and 14 acceptable nodes.  Node score = -69.5881421060385

 FOR advisedby(a, b) IF (professor(b)) THEN output = -0.002368 ELSE output = -0.141851;

// Best in (weighted) recall bin #7, (0.35, 0.4], from 'outerLoop #20, null' and covering 824.0 wgt'ed positive and 0.0 wgt'ed negative examples:
//    Wgt'ed recall = 0.352, precision = 1.000, and F1 = 0.520 - learned after 41 total and 30 acceptable nodes.  Node score = -73.74372259528744

 FOR advisedby(a, b) IF (taughtBy(anon8969, b, anon8971)) THEN output = 0.001030 ELSE output = -0.137116;

// Best in (weighted) recall bin #12, (0.6, 0.65], from 'outerLoop #20, null' and covering 1,492.0 wgt'ed positive and 0.0 wgt'ed negative examples:
//    Wgt'ed recall = 0.637, precision = 1.000, and F1 = 0.778 - learned after 17 total and 12 acceptable nodes.  Node score = -86.16311053951208

 FOR advisedby(a, b) IF (publication(anon8949, b)) THEN output = -0.002520 ELSE output = -0.133137;

// Best in (weighted) recall bin #13, (0.65, 0.7], from 'outerLoop #20, null' and covering 1,627.0 wgt'ed positive and 0.0 wgt'ed negative examples:
//    Wgt'ed recall = 0.694, precision = 1.000, and F1 = 0.820 - learned after 21 total and 16 acceptable nodes.  Node score = -69.58814210604024

 FOR advisedby(a, b) IF (student(b)) THEN output = -0.141851 ELSE output = -0.002368;

