digraph G{ 
1[label = "[borders(b, a, c), borders(d, b, e)]"];
1 -> 2[label="True"];
1 -> 3[label="False"];
2[label = "[ethnicGroup(b, f, g)]"];
2 -> 4[label="True"];
2 -> 5[label="False"];
4[label = "[borders(h, a, e)]"];
4 -> 6[label="True"];
4 -> 7[label="False"];
6[shape = box,label = "0.132(0.533)"];
7[label = "[borders(d, a, i)]"];
7 -> 8[label="True"];
7 -> 9[label="False"];
8[shape = box,label = "-0.052(0.487)"];
9[label = "[ethnicGroup(a, f, j)]"];
9 -> 10[label="True"];
9 -> 11[label="False"];
10[shape = box,label = "0.080(0.520)"];
11[label = "[ethnicGroup(d, f, k)]"];
11 -> 12[label="True"];
11 -> 13[label="False"];
12[shape = box,label = "0.100(0.525)"];
13[shape = box,label = "-0.058(0.486)"];
5[shape = box,label = "0.151(0.538)"];
3[label = "[language(a, m, n), organization(p, q, r, a, s, t)]"];
3 -> 14[label="True"];
3 -> 15[label="False"];
14[shape = box,label = "0.150(0.537)"];
15[label = "[borders(u, a, v), organization(w, x, y, u, z, aa)]"];
15 -> 16[label="True"];
15 -> 17[label="False"];
16[shape = box,label = "0.169(0.542)"];
17[shape = box,label = "0.017(0.504)"];
}
