digraph G{ 
1[label = "[borders(a, b, c), borders(b, d, e)]"];
1 -> 2[label="True"];
1 -> 3[label="False"];
2[label = "[language(a, f, g), language(d, h, g)]"];
2 -> 4[label="True"];
2 -> 5[label="False"];
4[shape = box,label = "0.778(0.685)"];
5[label = "[ethnicGroup(a, i, j)]"];
5 -> 6[label="True"];
5 -> 7[label="False"];
6[label = "[ethnicGroup(d, k, j)]"];
6 -> 8[label="True"];
6 -> 9[label="False"];
8[label = "[ethnicGroup(a, k, j)]"];
8 -> 10[label="True"];
8 -> 11[label="False"];
10[shape = box,label = "0.393(0.597)"];
11[shape = box,label = "0.462(0.614)"];
9[label = "[ethnicGroup(b, m, j)]"];
9 -> 12[label="True"];
9 -> 13[label="False"];
12[shape = box,label = "-0.125(0.469)"];
13[label = "[ethnicGroup(b, i, n)]"];
13 -> 14[label="True"];
13 -> 15[label="False"];
14[shape = box,label = "0.159(0.540)"];
15[shape = box,label = "0.331(0.582)"];
7[shape = box,label = "0.601(0.646)"];
3[label = "[borders(p, a, q), ethnicGroup(p, r, s)]"];
3 -> 16[label="True"];
3 -> 17[label="False"];
16[shape = box,label = "0.438(0.608)"];
17[shape = box,label = "0.621(0.650)"];
}
