digraph G{ 
1[label = "[borders(b, a, c), borders(d, b, e)]"];
1 -> 2[label="True"];
1 -> 3[label="False"];
2[label = "[ethnicGroup(b, f, g)]"];
2 -> 4[label="True"];
2 -> 5[label="False"];
4[label = "[borders(h, a, e)]"];
4 -> 6[label="True"];
4 -> 7[label="False"];
6[shape = box,label = "0.187(0.547)"];
7[label = "[ethnicGroup(d, i, g)]"];
7 -> 8[label="True"];
7 -> 9[label="False"];
8[shape = box,label = "-0.101(0.475)"];
9[label = "[ethnicGroup(a, f, j)]"];
9 -> 10[label="True"];
9 -> 11[label="False"];
10[shape = box,label = "0.030(0.507)"];
11[label = "[ethnicGroup(d, f, k)]"];
11 -> 12[label="True"];
11 -> 13[label="False"];
12[shape = box,label = "-0.054(0.487)"];
13[shape = box,label = "-0.027(0.493)"];
5[shape = box,label = "0.228(0.557)"];
3[label = "[organization(m, n, p, a, q, r), borders(s, a, t)]"];
3 -> 14[label="True"];
3 -> 15[label="False"];
14[shape = box,label = "0.275(0.568)"];
15[label = "[borders(a, u, v), borders(u, w, x)]"];
15 -> 16[label="True"];
15 -> 17[label="False"];
16[shape = box,label = "0.001(0.500)"];
17[shape = box,label = "0.094(0.523)"];
}
