////// Learned from a dataset containing 540,000 positive (540,000.0 weighted sum) and 0 negative (0.0 wgt'ed) examples.
////// The minimal (wgt'ed) coverage = 3.000, the maximal (wgt'ed) NEG coverage = 0.499, and the minimal (wgt'ed) precision = 0.001 (using m = 0.1)

useStdLogicNotation: true.


////////////////////////////////////////////////////////////////////////////////
////
////     Gleaner for: allPossibleMarkers
////
////////////////////////////////////////////////////////////////////////////////


////////////////////////////////////////////////////////////////////////////////
////
////     Gleaner for: outerLoop #1, null
////
////////////////////////////////////////////////////////////////////////////////

