digraph RDN{
0[style="filled" label="<=()" color="gray92"];
1[style="filled" label="memberOfList(willAnything,willList)" color="gray82"];
11 -> 1[label="" style=dashed];
2[style="filled" label="number()" color="gray92"];
3[style="filled" label="five_ring(Drug,Ring)" color="gray92"];
4[style="filled" label="intersection()" color="gray82"];
4 -> 4[label="" style=dashed];
5[style="filled" label="atm(Drug,Atomid,Element,Atomtype,Charge)" color="gray92"];
6[style="filled" label="different()" color="gray82"];
23 -> 6[label="" style=dashed];
7[style="filled" label="element()" color="gray82"];
7 -> 7[label="" style=dashed];
8[style="filled" label="=<()" color="gray92"];
9[style="filled" label="var()" color="gray92"];
10[style="filled" label="active(Drug)" color="gray52"];
35 -> 10[label="" style=solid];
5 -> 10[label="" style=solid];
25 -> 10[label="" style=solid];
34 -> 10[label="" style=solid];
3 -> 10[label="" style=solid];
11[style="filled" label="list()" color="gray92"];
12[style="filled" label="equalWithSmallTolerance()" color="gray82"];
17 -> 12[label="" style=dashed];
2 -> 12[label="" style=dashed];
13[style="filled" label="fail()" color="gray92"];
14[style="filled" label="contains()" color="gray82"];
14 -> 14[label="" style=dashed];
15[style="filled" label="true()" color="gray92"];
16[style="filled" label="ground()" color="gray92"];
17[style="filled" label="<()" color="gray92"];
18[style="filled" label="multiplyListOfNumbers()" color="gray92"];
19[style="filled" label=">=()" color="gray92"];
20[style="filled" label="=:=()" color="gray92"];
21[style="filled" label="allNumbers(willList)" color="gray82"];
2 -> 21[label="" style=dashed];
21 -> 21[label="" style=dashed];
22[style="filled" label="isaInterestingNumber()" color="gray82"];
22 -> 22[label="" style=dashed];
12 -> 22[label="" style=dashed];
23[style="filled" label="\+()" color="gray92"];
24[style="filled" label="isaInterestingSymbol()" color="gray82"];
24 -> 24[label="" style=dashed];
25[style="filled" label="has_property(Drug,Prop,Propval)" color="gray92"];
26[style="filled" label="sym_bond()" color="gray82"];
32 -> 26[label="" style=dashed];
27[style="filled" label="isaEqualTolerance(willNumber)" color="gray82"];
19 -> 27[label="" style=dashed];
2 -> 27[label="" style=dashed];
28[style="filled" label="addListOfNumbers()" color="gray92"];
29[style="filled" label="\=()" color="gray92"];
30[style="filled" label="false()" color="gray92"];
31[style="filled" label="union()" color="gray82"];
31 -> 31[label="" style=dashed];
23 -> 31[label="" style=dashed];
32[style="filled" label="bond()" color="gray92"];
33[style="filled" label="call()" color="gray92"];
34[style="filled" label="ames(Drug)" color="gray92"];
35[style="filled" label="sulfide(Drug,Ring)" color="gray92"];
36[style="filled" label="sameAs()" color="gray82"];
2 -> 36[label="" style=dashed];
36 -> 36[label="" style=dashed];
12 -> 36[label="" style=dashed];
}
