////// Learned from a dataset containing 100 positive (100.0 weighted sum) and 0 negative (0.0 wgt'ed) examples.
////// The minimal (wgt'ed) coverage = 3.000, the maximal (wgt'ed) NEG coverage = 0.499, and the minimal (wgt'ed) precision = 0.001 (using m = 0.1)

useStdLogicNotation: true.


////////////////////////////////////////////////////////////////////////////////
////
////     Gleaner for: allPossibleMarkers
////
////////////////////////////////////////////////////////////////////////////////

// Best in (weighted) recall bin #0, (-Infinity, 0.05], from 'outerLoop #3, null' and covering 3.0 wgt'ed positive and 0.0 wgt'ed negative examples:
//    Wgt'ed recall = 0.050, precision = 0.968, and F1 = 0.095 - learned after 6 total and 1 acceptable nodes.  Node score = -6.023851564220029

 FOR active(a) IF (atm(a, anon742205, C, 14, anon742211)) THEN output = -0.313242 ELSE output = -0.009973;

// Best in (weighted) recall bin #1, (0.05, 0.1], from 'outerLoop #8, null' and covering 3.0 wgt'ed positive and 0.0 wgt'ed negative examples:
//    Wgt'ed recall = 0.088, precision = 0.968, and F1 = 0.161 - learned after 126 total and 50 acceptable nodes.  Node score = -2.2255397739990435

 FOR active(a) IF (ring_size_5(a, anon739077), benzene(a, anon739809), atm(a, anon767021, H, 1, anon767027), methyl(a, anon768841)) THEN output = 0.027477 ELSE output = 0.032127;

// Best in (weighted) recall bin #2, (0.1, 0.15], from 'outerLoop #7, null' and covering 3.0 wgt'ed positive and 0.0 wgt'ed negative examples:
//    Wgt'ed recall = 0.130, precision = 0.968, and F1 = 0.229 - learned after 15 total and 7 acceptable nodes.  Node score = -1.8327216953656615

 FOR active(a) IF (methyl(a, anon1145), bond(a, anon1401, anon1403, 1), atm(a, anon1403, C, 14, anon23203)) THEN output = 0.858149 ELSE output = -0.000799;

// Best in (weighted) recall bin #3, (0.15, 0.2], from 'outerLoop #8, null' and covering 20.0 wgt'ed positive and 0.0 wgt'ed negative examples:
//    Wgt'ed recall = 0.200, precision = 0.995, and F1 = 0.333 - learned after 9 total and 0 acceptable nodes.  Node score = -6.879888022258747E-4

 FOR active(a) IF (hetero_aromatic_5_ring(a, anon923185), methyl(a, anon931569), atm(a, anon995205, O, 45, anon995211)) THEN output = -1.637101 ELSE output = -2.757298;

// Best in (weighted) recall bin #4, (0.2, 0.25], from 'outerLoop #9, null' and covering 3.0 wgt'ed positive and 0.0 wgt'ed negative examples:
//    Wgt'ed recall = 0.213, precision = 0.968, and F1 = 0.349 - learned after 102 total and 58 acceptable nodes.  Node score = -0.35986351025919294

 FOR active(a) IF (atm(a, anon315989, C, 27, anon315995), carbon_6_ring(a, anon316897), atm(a, anon344191, C, 10, anon315995), phenanthrene(a, anon345711)) THEN output = 0.021647 ELSE output = 0.029408;

// Best in (weighted) recall bin #5, (0.25, 0.3], from 'outerLoop #7, null' and covering 40.0 wgt'ed positive and 0.0 wgt'ed negative examples:
//    Wgt'ed recall = 0.286, precision = 0.998, and F1 = 0.444 - learned after 232 total and 71 acceptable nodes.  Node score = -0.06355713858013912

 FOR active(a) IF (hetero_aromatic_5_ring(a, anon923185), methyl(a, anon931569), atm(a, anon985505, C, 26, anon985511), atm(a, anon990419, H, 1, anon985511)) THEN output = -2.762938 ELSE output = -1.393852;

// Best in (weighted) recall bin #6, (0.3, 0.35], from 'outerLoop #8, null' and covering 4.0 wgt'ed positive and 0.0 wgt'ed negative examples:
//    Wgt'ed recall = 0.331, precision = 0.976, and F1 = 0.494 - learned after 59 total and 44 acceptable nodes.  Node score = -1.492638121627069

 FOR active(a) IF (atm(a, anon575979, C, 22, anon575985), bond(a, anon578049, anon575979, 1), bond(a, anon587741, anon578049, 2), ring_size_6(a, anon588483)) THEN output = 0.154501 ELSE output = -0.087310;

// Best in (weighted) recall bin #7, (0.35, 0.4], from 'outerLoop #9, null' and covering 5.0 wgt'ed positive and 0.0 wgt'ed negative examples:
//    Wgt'ed recall = 0.355, precision = 0.980, and F1 = 0.521 - learned after 37 total and 23 acceptable nodes.  Node score = -0.3347494595363434

 FOR active(a) IF (atm(a, anon315989, C, 27, anon315995), carbon_6_ring(a, anon316897), phenanthrene(a, anon344225)) THEN output = 0.015234 ELSE output = 0.045912;

// Best in (weighted) recall bin #8, (0.4, 0.45], from 'outerLoop #3, null' and covering 3.0 wgt'ed positive and 0.0 wgt'ed negative examples:
//    Wgt'ed recall = 0.423, precision = 0.968, and F1 = 0.588 - learned after 93 total and 57 acceptable nodes.  Node score = -0.014772781260936486

 FOR active(a) IF (atm(a, anon877205, N, 32, anon877211), ring_size_5(a, anon879185), atm(a, anon880587, C, 29, anon880593), atm(a, anon882839, C, 10, anon880593)) THEN output = 0.098633 ELSE output = -0.345376;

// Best in (weighted) recall bin #9, (0.45, 0.5], from 'outerLoop #9, null' and covering 7.0 wgt'ed positive and 0.0 wgt'ed negative examples:
//    Wgt'ed recall = 0.496, precision = 0.986, and F1 = 0.660 - learned after 103 total and 59 acceptable nodes.  Node score = -0.32233049548557524

 FOR active(a) IF (atm(a, anon315989, C, 27, anon315995), carbon_6_ring(a, anon316897), atm(a, anon344191, C, 10, anon315995), ball3(a, anon345713)) THEN output = 0.010804 ELSE output = 0.040302;

// Best in (weighted) recall bin #10, (0.5, 0.55], from 'outerLoop #6, null' and covering 5.0 wgt'ed positive and 0.0 wgt'ed negative examples:
//    Wgt'ed recall = 0.549, precision = 0.980, and F1 = 0.704 - learned after 7 total and 6 acceptable nodes.  Node score = -1.2094307933105533

 FOR active(a) IF (atm(a, anon449055, N, 32, anon449061), ring_size_6(a, anon450725), atm(a, anon475427, C, 29, anon475433)) THEN output = 0.032125 ELSE output = -0.182947;

// Best in (weighted) recall bin #11, (0.55, 0.6], from 'outerLoop #8, null' and covering 4.0 wgt'ed positive and 0.0 wgt'ed negative examples:
//    Wgt'ed recall = 0.563, precision = 0.976, and F1 = 0.714 - learned after 261 total and 146 acceptable nodes.  Node score = -0.3193353224509687

 FOR active(a) IF (hetero_aromatic_6_ring(a, anon213017), atm(a, anon239391, N, 38, anon239397), bond(a, anon244203, anon239391, 1)) THEN output = 0.052396 ELSE output = -0.256176;

// Best in (weighted) recall bin #12, (0.6, 0.65], from 'outerLoop #9, null' and covering 9.0 wgt'ed positive and 0.0 wgt'ed negative examples:
//    Wgt'ed recall = 0.638, precision = 0.989, and F1 = 0.776 - learned after 322 total and 209 acceptable nodes.  Node score = -0.33847430647053434

 FOR active(a) IF (atm(a, anon315989, C, 27, anon315995), carbon_6_ring(a, anon316897), atm(a, anon344191, C, 27, anon315995), bond(a, anon315989, anon344191, 7)) THEN output = 0.081618 ELSE output = 0.038111;

// Best in (weighted) recall bin #13, (0.65, 0.7], from 'outerLoop #7, null' and covering 7.0 wgt'ed positive and 0.0 wgt'ed negative examples:
//    Wgt'ed recall = 0.693, precision = 0.986, and F1 = 0.814 - learned after 337 total and 208 acceptable nodes.  Node score = -0.6972325799087735

 FOR active(a) IF (atm(a, anon222175, C, 22, anon222181), methyl(a, anon225173), atm(a, anon229679, C, 10, anon229685), bond(a, anon238145, anon229679, 1)) THEN output = -0.000097 ELSE output = -0.013789;

// Best in (weighted) recall bin #14, (0.7, 0.75], from 'outerLoop #9, null' and covering 10.0 wgt'ed positive and 0.0 wgt'ed negative examples:
//    Wgt'ed recall = 0.709, precision = 0.990, and F1 = 0.826 - learned after 77 total and 46 acceptable nodes.  Node score = -0.3275164875903815

 FOR active(a) IF (atm(a, anon315989, C, 27, anon315995), carbon_6_ring(a, anon316897), atm(a, anon344191, C, 10, anon315995), bond(a, anon315989, anon345685, 7)) THEN output = 0.018546 ELSE output = 0.027740;

// Best in (weighted) recall bin #15, (0.75, 0.8], from 'outerLoop #9, null' and covering 16.0 wgt'ed positive and 0.0 wgt'ed negative examples:
//    Wgt'ed recall = 0.796, precision = 0.994, and F1 = 0.884 - learned after 240 total and 83 acceptable nodes.  Node score = -1.2879227060485763

 FOR active(a) IF (atm(a, anon861643, C, 22, anon861649), bond(a, anon864291, anon861643, 1), atm(a, anon865401, C, 22, anon861649), bond(a, anon865401, anon871253, 1)) THEN output = 0.020917 ELSE output = -0.249384;

// Best in (weighted) recall bin #16, (0.8, 0.85], from 'outerLoop #5, null' and covering 16.0 wgt'ed positive and 0.0 wgt'ed negative examples:
//    Wgt'ed recall = 0.838, precision = 0.994, and F1 = 0.909 - learned after 322 total and 193 acceptable nodes.  Node score = -2.075959399101998

 FOR active(a) IF (atm(a, anon248957, N, 32, anon248963), ring_size_6(a, anon249547), atm(a, anon266993, N, 38, anon266999), bond(a, anon275097, anon266993, 1)) THEN output = 0.045177 ELSE output = 0.033297;
      /* FALSE NEG: active(D12) Actual Bool=true Prob=0.6105392089175814 Output=0.3894607910824186 */
      /* FALSE NEG: active(D49) Actual Bool=true Prob=0.6213601851444325 Output=0.3786398148555675 */
      /* FALSE NEG: active(D73) Actual Bool=false Prob=0.3204172358463814 Output=-0.3204172358463814 */

// Best in (weighted) recall bin #17, (0.85, 0.9], from 'outerLoop #8, null' and covering 20.0 wgt'ed positive and 0.0 wgt'ed negative examples:
//    Wgt'ed recall = 0.866, precision = 0.995, and F1 = 0.926 - learned after 341 total and 85 acceptable nodes.  Node score = -1.8635254052317438

 FOR active(a) IF (methyl(a, anon118855), methyl(a, anon119149), atm(a, anon147523, C, 10, anon147529), bond(a, anon154531, anon147523, 1)) THEN output = 0.011927 ELSE output = -0.135275;
      /* FALSE NEG: active(D78) Actual Bool=false Prob=0.12132399744969709 Output=-0.12132399744969709 */
      /* FALSE NEG: active(D55) Actual Bool=false Prob=0.16317724113265694 Output=-0.16317724113265694 */
      /* FALSE NEG: active(D7) Actual Bool=false Prob=0.12132399744969709 Output=-0.12132399744969709 */

// Best in (weighted) recall bin #18, (0.9, 0.95], from 'outerLoop #7, null' and covering 28.0 wgt'ed positive and 0.0 wgt'ed negative examples:
//    Wgt'ed recall = 0.900, precision = 0.996, and F1 = 0.946 - learned after 218 total and 90 acceptable nodes.  Node score = -3.0033027019375136

 FOR active(a) IF (atm(a, anon688571, N, 38, anon688577), bond(a, anon691989, anon688571, 1)) THEN output = -0.086166 ELSE output = -0.107878;
      /* FALSE NEG: active(D79) Actual Bool=true Prob=0.5342390463854292 Output=0.4657609536145708 */
      /* FALSE NEG: active(D5) Actual Bool=false Prob=0.3155307484321241 Output=-0.3155307484321241 */
      /* FALSE NEG: active(D76) Actual Bool=false Prob=0.4738648409060472 Output=-0.4738648409060472 */

// Best in (weighted) recall bin #19, (0.95, 1.01], from 'outerLoop #6, null' and covering 16.0 wgt'ed positive and 0.0 wgt'ed negative examples:
//    Wgt'ed recall = 0.994, precision = 0.994, and F1 = 0.994 - learned after 1 total and 0 acceptable nodes.  Node score = -2.075959399101998

 FOR active(a) IF (atm(a, anon248957, N, 32, anon248963), ring_size_6(a, anon249547), atm(a, anon266993, N, 38, anon266999), bond(a, anon275097, anon266993, 1)) THEN output = 0.045177 ELSE output = 0.033297;


////////////////////////////////////////////////////////////////////////////////
////
////     Gleaner for: outerLoop #1, null
////
////////////////////////////////////////////////////////////////////////////////

// Best in (weighted) recall bin #0, (-Infinity, 0.05], from 'outerLoop #1, null' and covering 7.0 wgt'ed positive and 0.0 wgt'ed negative examples:
//    Wgt'ed recall = 0.041, precision = 0.986, and F1 = 0.079 - learned after 47 total and 36 acceptable nodes.  Node score = -10.302603226415158

 FOR active(a) IF (atm(a, anon873829, C, 27, anon873835), hetero_aromatic_6_ring(a, anon874137)) THEN output = -0.000885 ELSE output = 0.011835;

// Best in (weighted) recall bin #1, (0.05, 0.1], from 'outerLoop #1, null' and covering 14.0 wgt'ed positive and 0.0 wgt'ed negative examples:
//    Wgt'ed recall = 0.083, precision = 0.993, and F1 = 0.153 - learned after 46 total and 35 acceptable nodes.  Node score = -10.336285530862474

 FOR active(a) IF (atm(a, anon873829, C, 27, anon873835), carbon_6_ring(a, anon874135)) THEN output = 0.010796 ELSE output = 0.010729;

// Best in (weighted) recall bin #2, (0.1, 0.15], from 'outerLoop #1, null' and covering 22.0 wgt'ed positive and 0.0 wgt'ed negative examples:
//    Wgt'ed recall = 0.130, precision = 0.995, and F1 = 0.230 - learned after 50 total and 38 acceptable nodes.  Node score = -10.322566508315342

 FOR active(a) IF (atm(a, anon873829, C, 27, anon873835), ring_size_5(a, anon874143)) THEN output = 0.017893 ELSE output = 0.009544;

// Best in (weighted) recall bin #3, (0.15, 0.2], from 'outerLoop #1, null' and covering 27.0 wgt'ed positive and 0.0 wgt'ed negative examples:
//    Wgt'ed recall = 0.160, precision = 0.996, and F1 = 0.275 - learned after 24 total and 13 acceptable nodes.  Node score = -10.36958657828846

 FOR active(a) IF (phenanthrene(a, anon873863)) THEN output = 0.038481 ELSE output = -0.000078;

// Best in (weighted) recall bin #5, (0.25, 0.3], from 'outerLoop #1, null' and covering 44.0 wgt'ed positive and 0.0 wgt'ed negative examples:
//    Wgt'ed recall = 0.260, precision = 0.998, and F1 = 0.413 - learned after 37 total and 26 acceptable nodes.  Node score = -11.155464932398855

 FOR active(a) IF (atm(a, anon774977, C, 29, anon774983), bond(a, anon774977, anon775261, 1)) THEN output = 0.064103 ELSE output = 0.003325;

// Best in (weighted) recall bin #6, (0.3, 0.35], from 'outerLoop #1, null' and covering 57.0 wgt'ed positive and 0.0 wgt'ed negative examples:
//    Wgt'ed recall = 0.337, precision = 0.998, and F1 = 0.504 - learned after 20 total and 10 acceptable nodes.  Node score = -10.450229756074208

 FOR active(a) IF (ring_size_5(a, anon873855)) THEN output = 0.033512 ELSE output = 0.007547;

// Best in (weighted) recall bin #8, (0.4, 0.45], from 'outerLoop #1, null' and covering 75.0 wgt'ed positive and 0.0 wgt'ed negative examples:
//    Wgt'ed recall = 0.444, precision = 0.999, and F1 = 0.614 - learned after 32 total and 21 acceptable nodes.  Node score = -10.290925308294984

 FOR active(a) IF (atm(a, anon873829, C, 27, anon873835), atm(a, anon874117, C, 22, anon874123)) THEN output = 0.001165 ELSE output = -0.008585;

// Best in (weighted) recall bin #19, (0.95, 1.01], from 'outerLoop #1, null' and covering 168.0 wgt'ed positive and 0.0 wgt'ed negative examples:
//    Wgt'ed recall = 0.993, precision = 0.999, and F1 = 0.996 - learned after 4 total and 0 acceptable nodes.  Node score = -Infinity

 FOR active(a) IF (atm(a, anon1115, C, 22, anon1121)) THEN output = 0.060874 ELSE output = -0.141851;
      /* FALSE NEG: active(D150) Actual Bool=false Prob=0.14185106490048777 Output=-1.637101266467088 */


////////////////////////////////////////////////////////////////////////////////
////
////     Gleaner for: outerLoop #2, null
////
////////////////////////////////////////////////////////////////////////////////

// Best in (weighted) recall bin #0, (-Infinity, 0.05], from 'outerLoop #2, null' and covering 3.0 wgt'ed positive and 0.0 wgt'ed negative examples:
//    Wgt'ed recall = 0.032, precision = 0.968, and F1 = 0.062 - learned after 100 total and 48 acceptable nodes.  Node score = -7.4797633848016245

 FOR active(a) IF (carbon_6_ring(a, anon877223), benzene(a, anon878611)) THEN output = 0.025204 ELSE output = -0.012042;

// Best in (weighted) recall bin #1, (0.05, 0.1], from 'outerLoop #2, null' and covering 3.0 wgt'ed positive and 0.0 wgt'ed negative examples:
//    Wgt'ed recall = 0.093, precision = 0.968, and F1 = 0.170 - learned after 288 total and 135 acceptable nodes.  Node score = -4.228940750167943

 FOR active(a) IF (atm(a, anon395555, H, 1, anon395561), ring_size_6(a, anon397945), atm(a, anon399735, C, 10, anon399741), atm(a, anon407303, C, 29, anon399741)) THEN output = 0.058501 ELSE output = 0.018936;

// Best in (weighted) recall bin #2, (0.1, 0.15], from 'outerLoop #2, null' and covering 4.0 wgt'ed positive and 0.0 wgt'ed negative examples:
//    Wgt'ed recall = 0.125, precision = 0.976, and F1 = 0.221 - learned after 121 total and 49 acceptable nodes.  Node score = -4.375943814620445

 FOR active(a) IF (atm(a, anon395555, H, 1, anon395561), ring_size_6(a, anon397945), ring_size_5(a, anon399761), atm(a, anon402737, C, 29, anon402743)) THEN output = 0.027883 ELSE output = 0.024102;

// Best in (weighted) recall bin #3, (0.15, 0.2], from 'outerLoop #2, null' and covering 5.0 wgt'ed positive and 0.0 wgt'ed negative examples:
//    Wgt'ed recall = 0.156, precision = 0.980, and F1 = 0.269 - learned after 51 total and 17 acceptable nodes.  Node score = -4.28251947597767

 FOR active(a) IF (atm(a, anon395555, H, 1, anon395561), ring_size_6(a, anon397945), atm(a, anon399735, N, 32, anon399741), atm(a, anon400619, C, 10, anon400625)) THEN output = 0.038553 ELSE output = 0.017686;

// Best in (weighted) recall bin #4, (0.2, 0.25], from 'outerLoop #2, null' and covering 7.0 wgt'ed positive and 0.0 wgt'ed negative examples:
//    Wgt'ed recall = 0.218, precision = 0.986, and F1 = 0.357 - learned after 78 total and 33 acceptable nodes.  Node score = -4.283115080735723

 FOR active(a) IF (atm(a, anon395555, H, 1, anon395561), ring_size_6(a, anon397945), atm(a, anon399735, N, 32, anon399741), ring_size_5(a, anon400645)) THEN output = 0.011980 ELSE output = 0.019110;

// Best in (weighted) recall bin #5, (0.25, 0.3], from 'outerLoop #2, null' and covering 7.0 wgt'ed positive and 0.0 wgt'ed negative examples:
//    Wgt'ed recall = 0.268, precision = 0.986, and F1 = 0.422 - learned after 296 total and 23 acceptable nodes.  Node score = -3.066066969899799

 FOR active(a) IF (atm(a, anon495251, N, 32, anon495257), ring_size_6(a, anon498087), atm(a, anon498663, H, 3, anon498669), ring_size_5(a, anon505403)) THEN output = 0.000874 ELSE output = 0.005401;

// Best in (weighted) recall bin #6, (0.3, 0.35], from 'outerLoop #2, null' and covering 10.0 wgt'ed positive and 0.0 wgt'ed negative examples:
//    Wgt'ed recall = 0.312, precision = 0.990, and F1 = 0.474 - learned after 49 total and 15 acceptable nodes.  Node score = -4.282896495393553

 FOR active(a) IF (atm(a, anon395555, H, 1, anon395561), ring_size_6(a, anon397945), atm(a, anon399735, N, 32, anon399741), atm(a, anon400619, C, 29, anon400625)) THEN output = 0.011246 ELSE output = 0.018522;

// Best in (weighted) recall bin #7, (0.35, 0.4], from 'outerLoop #2, null' and covering 12.0 wgt'ed positive and 0.0 wgt'ed negative examples:
//    Wgt'ed recall = 0.374, precision = 0.992, and F1 = 0.543 - learned after 46 total and 12 acceptable nodes.  Node score = -4.126960195074706

 FOR active(a) IF (atm(a, anon395555, H, 1, anon395561), ring_size_6(a, anon397945), atm(a, anon399735, N, 32, anon399741), atm(a, anon400619, O, 40, anon399741)) THEN output = 0.014409 ELSE output = -0.007553;

// Best in (weighted) recall bin #8, (0.4, 0.45], from 'outerLoop #2, null' and covering 13.0 wgt'ed positive and 0.0 wgt'ed negative examples:
//    Wgt'ed recall = 0.405, precision = 0.992, and F1 = 0.575 - learned after 133 total and 59 acceptable nodes.  Node score = -4.341854499579797

 FOR active(a) IF (atm(a, anon395555, H, 1, anon395561), ring_size_6(a, anon397945), ring_size_5(a, anon399761), bond(a, anon402745, anon402747, 1)) THEN output = 0.002119 ELSE output = 0.028190;

// Best in (weighted) recall bin #9, (0.45, 0.5], from 'outerLoop #2, null' and covering 53.0 wgt'ed positive and 0.0 wgt'ed negative examples:
//    Wgt'ed recall = 0.469, precision = 0.998, and F1 = 0.638 - learned after 33 total and 19 acceptable nodes.  Node score = -19.03159500776387

 FOR active(a) IF (atm(a, anon48831, C, 27, anon48837), bond(a, anon48831, anon49103, 7)) THEN output = 0.077829 ELSE output = 0.237765;

// Best in (weighted) recall bin #11, (0.55, 0.6], from 'outerLoop #2, null' and covering 15.0 wgt'ed positive and 0.0 wgt'ed negative examples:
//    Wgt'ed recall = 0.575, precision = 0.993, and F1 = 0.728 - learned after 241 total and 20 acceptable nodes.  Node score = -3.139759266659935

 FOR active(a) IF (atm(a, anon495251, N, 32, anon495257), ring_size_6(a, anon498087), atm(a, anon498663, C, 22, anon498669), bond(a, anon504095, anon498663, 1)) THEN output = 0.013842 ELSE output = -0.000516;

// Best in (weighted) recall bin #15, (0.75, 0.8], from 'outerLoop #2, null' and covering 25.0 wgt'ed positive and 0.0 wgt'ed negative examples:
//    Wgt'ed recall = 0.779, precision = 0.996, and F1 = 0.874 - learned after 62 total and 26 acceptable nodes.  Node score = -4.012290701018419

 FOR active(a) IF (atm(a, anon395555, H, 1, anon395561), ring_size_6(a, anon397945), atm(a, anon399735, N, 32, anon399741), bond(a, anon400627, anon399735, 1)) THEN output = 0.022687 ELSE output = -0.069334;

// Best in (weighted) recall bin #16, (0.8, 0.85], from 'outerLoop #2, null' and covering 26.0 wgt'ed positive and 0.0 wgt'ed negative examples:
//    Wgt'ed recall = 0.810, precision = 0.996, and F1 = 0.893 - learned after 76 total and 32 acceptable nodes.  Node score = -3.9467692033104624

 FOR active(a) IF (atm(a, anon395555, H, 1, anon395561), ring_size_6(a, anon397945), atm(a, anon399735, N, 32, anon399741), ring_size_6(a, anon400643)) THEN output = 0.008993 ELSE output = -0.030480;
      /* FALSE NEG: active(D83) Actual Bool=true Prob=0.7949995437970595 Output=0.2050004562029405 */
      /* FALSE NEG: active(D9) Actual Bool=false Prob=0.4810186918544444 Output=-0.4810186918544444 */
      /* FALSE NEG: active(D42) Actual Bool=false Prob=0.1206342353998628 Output=-0.1206342353998628 */
      /* FALSE NEG: active(D172) Actual Bool=true Prob=0.4810186918544444 Output=0.5189813081455557 */
      /* FALSE NEG: active(D154) Actual Bool=false Prob=0.4810186918544444 Output=-0.4810186918544444 */

// Best in (weighted) recall bin #19, (0.95, 1.01], from 'outerLoop #2, null' and covering 112.0 wgt'ed positive and 0.0 wgt'ed negative examples:
//    Wgt'ed recall = 0.990, precision = 0.999, and F1 = 0.995 - learned after 4 total and 0 acceptable nodes.  Node score = -Infinity

 FOR active(a) IF (atm(a, anon48831, C, 22, anon48837)) THEN output = 0.045411 ELSE output = -0.133159;
      /* FALSE NEG: active(D150) Actual Bool=false Prob=0.1331594542044822 Output=-0.1331594542044822 */


////////////////////////////////////////////////////////////////////////////////
////
////     Gleaner for: outerLoop #3, null
////
////////////////////////////////////////////////////////////////////////////////

// Best in (weighted) recall bin #0, (-Infinity, 0.05], from 'outerLoop #3, null' and covering 3.0 wgt'ed positive and 0.0 wgt'ed negative examples:
//    Wgt'ed recall = 0.050, precision = 0.968, and F1 = 0.095 - learned after 6 total and 1 acceptable nodes.  Node score = -6.023851564220029

 FOR active(a) IF (atm(a, anon742205, C, 14, anon742211)) THEN output = -0.313242 ELSE output = -0.009973;

// Best in (weighted) recall bin #1, (0.05, 0.1], from 'outerLoop #3, null' and covering 4.0 wgt'ed positive and 0.0 wgt'ed negative examples:
//    Wgt'ed recall = 0.100, precision = 0.976, and F1 = 0.181 - learned after 214 total and 125 acceptable nodes.  Node score = -3.347879491044691

 FOR active(a) IF (atm(a, anon816293, C, 29, anon816299), bond(a, anon816637, anon816639, 1), ring_size_5(a, anon820627), methyl(a, anon824859)) THEN output = 0.004670 ELSE output = 0.001657;

// Best in (weighted) recall bin #2, (0.1, 0.15], from 'outerLoop #3, null' and covering 6.0 wgt'ed positive and 0.0 wgt'ed negative examples:
//    Wgt'ed recall = 0.150, precision = 0.984, and F1 = 0.260 - learned after 292 total and 182 acceptable nodes.  Node score = -3.3473976579931164

 FOR active(a) IF (atm(a, anon816293, C, 29, anon816299), bond(a, anon816637, anon816639, 1), bond(a, anon820609, anon816637, 2), nitro(a, anon827963)) THEN output = 0.011487 ELSE output = 0.002102;

// Best in (weighted) recall bin #3, (0.15, 0.2], from 'outerLoop #3, null' and covering 4.0 wgt'ed positive and 0.0 wgt'ed negative examples:
//    Wgt'ed recall = 0.153, precision = 0.976, and F1 = 0.265 - learned after 43 total and 8 acceptable nodes.  Node score = -3.322076020739071

 FOR active(a) IF (atm(a, anon449055, N, 32, anon449061), ring_size_6(a, anon450725), ring_size_5(a, anon452611), atm(a, anon453389, C, 29, anon453395)) THEN output = 0.021663 ELSE output = 0.032424;

// Best in (weighted) recall bin #4, (0.2, 0.25], from 'outerLoop #3, null' and covering 6.0 wgt'ed positive and 0.0 wgt'ed negative examples:
//    Wgt'ed recall = 0.239, precision = 0.984, and F1 = 0.385 - learned after 297 total and 52 acceptable nodes.  Node score = -2.9443441341103194

 FOR active(a) IF (atm(a, anon158897, N, 32, anon158903), ring_size_6(a, anon159215), atm(a, anon162307, C, 22, anon162313), ring_size_5(a, anon168777)) THEN output = 0.003363 ELSE output = 0.008515;

// Best in (weighted) recall bin #5, (0.25, 0.3], from 'outerLoop #3, null' and covering 3.0 wgt'ed positive and 0.0 wgt'ed negative examples:
//    Wgt'ed recall = 0.270, precision = 0.968, and F1 = 0.423 - learned after 240 total and 151 acceptable nodes.  Node score = -1.2453646500146918

 FOR active(a) IF (atm(a, anon356945, O, 50, anon356951), bond(a, anon357229, anon357231, 2), atm(a, anon357229, N, 38, anon360317), methyl(a, anon366641)) THEN output = -0.038438 ELSE output = -0.043950;

// Best in (weighted) recall bin #6, (0.3, 0.35], from 'outerLoop #3, null' and covering 9.0 wgt'ed positive and 0.0 wgt'ed negative examples:
//    Wgt'ed recall = 0.345, precision = 0.989, and F1 = 0.511 - learned after 275 total and 48 acceptable nodes.  Node score = -3.121086054367364

 FOR active(a) IF (atm(a, anon248957, N, 32, anon248963), ring_size_6(a, anon249547), atm(a, anon252257, C, 22, anon252263), bond(a, anon248957, anon252257, 1)) THEN output = 0.069864 ELSE output = 0.008204;

// Best in (weighted) recall bin #7, (0.35, 0.4], from 'outerLoop #3, null' and covering 4.0 wgt'ed positive and 0.0 wgt'ed negative examples:
//    Wgt'ed recall = 0.360, precision = 0.976, and F1 = 0.526 - learned after 222 total and 139 acceptable nodes.  Node score = -1.1815834726111116

 FOR active(a) IF (atm(a, anon356945, O, 50, anon356951), bond(a, anon357229, anon357231, 2), atm(a, anon357229, N, 38, anon360317), atm(a, anon366611, CL, 93, anon366617)) THEN output = -0.011074 ELSE output = -0.054369;

// Best in (weighted) recall bin #8, (0.4, 0.45], from 'outerLoop #3, null' and covering 3.0 wgt'ed positive and 0.0 wgt'ed negative examples:
//    Wgt'ed recall = 0.423, precision = 0.968, and F1 = 0.588 - learned after 93 total and 57 acceptable nodes.  Node score = -0.014772781260936486

 FOR active(a) IF (atm(a, anon877205, N, 32, anon877211), ring_size_5(a, anon879185), atm(a, anon880587, C, 29, anon880593), atm(a, anon882839, C, 10, anon880593)) THEN output = 0.098633 ELSE output = -0.345376;

// Best in (weighted) recall bin #9, (0.45, 0.5], from 'outerLoop #3, null' and covering 12.0 wgt'ed positive and 0.0 wgt'ed negative examples:
//    Wgt'ed recall = 0.460, precision = 0.992, and F1 = 0.628 - learned after 310 total and 53 acceptable nodes.  Node score = -3.1058344414274344

 FOR active(a) IF (atm(a, anon248957, N, 32, anon248963), ring_size_6(a, anon249547), atm(a, anon252257, H, 3, anon252263), atm(a, anon260041, O, 40, anon248963)) THEN output = 0.007194 ELSE output = 0.004860;

// Best in (weighted) recall bin #10, (0.5, 0.55], from 'outerLoop #3, null' and covering 21.0 wgt'ed positive and 0.0 wgt'ed negative examples:
//    Wgt'ed recall = 0.524, precision = 0.995, and F1 = 0.686 - learned after 29 total and 3 acceptable nodes.  Node score = -3.4128649703155

 FOR active(a) IF (atm(a, anon816293, C, 29, anon816299), bond(a, anon816637, anon816639, 1), bond(a, anon816293, anon816639, 7)) THEN output = 0.056344 ELSE output = 0.001882;

// Best in (weighted) recall bin #11, (0.55, 0.6], from 'outerLoop #3, null' and covering 4.0 wgt'ed positive and 0.0 wgt'ed negative examples:
//    Wgt'ed recall = 0.563, precision = 0.976, and F1 = 0.714 - learned after 110 total and 73 acceptable nodes.  Node score = -0.5882744542063278

 FOR active(a) IF (atm(a, anon877205, N, 32, anon877211), ring_size_5(a, anon879185), atm(a, anon880587, C, 29, anon880593), bond(a, anon882847, anon882849, 1)) THEN output = 0.001018 ELSE output = -0.352945;

// Best in (weighted) recall bin #12, (0.6, 0.65], from 'outerLoop #3, null' and covering 26.0 wgt'ed positive and 0.0 wgt'ed negative examples:
//    Wgt'ed recall = 0.648, precision = 0.996, and F1 = 0.785 - learned after 77 total and 26 acceptable nodes.  Node score = -3.3251340461794805

 FOR active(a) IF (atm(a, anon816293, C, 29, anon816299), bond(a, anon816637, anon816639, 1), bond(a, anon816639, anon820609, 1), bond(a, anon816293, anon822113, 7)) THEN output = 0.008417 ELSE output = 0.000129;

// Best in (weighted) recall bin #14, (0.7, 0.75], from 'outerLoop #3, null' and covering 5.0 wgt'ed positive and 0.0 wgt'ed negative examples:
//    Wgt'ed recall = 0.704, precision = 0.980, and F1 = 0.820 - learned after 5 total and 4 acceptable nodes.  Node score = -Infinity

 FOR active(a) IF (atm(a, anon877205, N, 32, anon877211), ring_size_5(a, anon879185), atm(a, anon880587, O, 40, anon877211)) THEN output = -0.085691 ELSE output = -0.230879;

// Best in (weighted) recall bin #18, (0.9, 0.95], from 'outerLoop #3, null' and covering 37.0 wgt'ed positive and 0.0 wgt'ed negative examples:
//    Wgt'ed recall = 0.923, precision = 0.997, and F1 = 0.959 - learned after 14 total and 2 acceptable nodes.  Node score = -3.4064200808122598

 FOR active(a) IF (atm(a, anon816293, C, 29, anon816299), bond(a, anon816637, anon816639, 1), atm(a, anon816639, N, 38, anon820607)) THEN output = 0.011123 ELSE output = -0.004826;
      /* FALSE NEG: active(D21) Actual Bool=true Prob=0.8668026271799407 Output=0.13319737282005928 */
      /* FALSE NEG: active(D73) Actual Bool=false Prob=0.3376233012158677 Output=-0.3376233012158677 */
      /* FALSE NEG: active(D7) Actual Bool=false Prob=0.12623267461931714 Output=-0.12623267461931714 */

// Best in (weighted) recall bin #19, (0.95, 1.01], from 'outerLoop #3, null' and covering 7.0 wgt'ed positive and 0.0 wgt'ed negative examples:
//    Wgt'ed recall = 0.986, precision = 0.986, and F1 = 0.986 - learned after 1 total and 0 acceptable nodes.  Node score = -3.066066969899799

 FOR active(a) IF (atm(a, anon495251, N, 32, anon495257), ring_size_6(a, anon498087), atm(a, anon498663, H, 3, anon498669), ring_size_5(a, anon505403)) THEN output = 0.000874 ELSE output = 0.005401;


////////////////////////////////////////////////////////////////////////////////
////
////     Gleaner for: outerLoop #4, null
////
////////////////////////////////////////////////////////////////////////////////

// Best in (weighted) recall bin #0, (-Infinity, 0.05], from 'outerLoop #4, null' and covering 3.0 wgt'ed positive and 0.0 wgt'ed negative examples:
//    Wgt'ed recall = 0.034, precision = 0.968, and F1 = 0.067 - learned after 46 total and 29 acceptable nodes.  Node score = -6.511283604926774

 FOR active(a) IF (atm(a, anon890963, C, 29, anon890969), carbon_6_ring(a, anon891269)) THEN output = 0.025204 ELSE output = 0.009106;

// Best in (weighted) recall bin #1, (0.05, 0.1], from 'outerLoop #4, null' and covering 3.0 wgt'ed positive and 0.0 wgt'ed negative examples:
//    Wgt'ed recall = 0.053, precision = 0.968, and F1 = 0.100 - learned after 52 total and 15 acceptable nodes.  Node score = -5.94815160005402

 FOR active(a) IF (carbon_6_ring(a, anon746257), benzene(a, anon746845)) THEN output = 0.028138 ELSE output = -0.016346;

// Best in (weighted) recall bin #2, (0.1, 0.15], from 'outerLoop #4, null' and covering 3.0 wgt'ed positive and 0.0 wgt'ed negative examples:
//    Wgt'ed recall = 0.136, precision = 0.968, and F1 = 0.238 - learned after 96 total and 32 acceptable nodes.  Node score = -2.653093614661401

 FOR active(a) IF (atm(a, anon816293, C, 29, anon816299), bond(a, anon816637, anon816639, 1), bond(a, anon816293, anon816639, 7), bond(a, anon816293, anon834147, 1)) THEN output = -0.106532 ELSE output = 0.001800;

// Best in (weighted) recall bin #3, (0.15, 0.2], from 'outerLoop #4, null' and covering 4.0 wgt'ed positive and 0.0 wgt'ed negative examples:
//    Wgt'ed recall = 0.181, precision = 0.976, and F1 = 0.305 - learned after 29 total and 5 acceptable nodes.  Node score = -2.664368535710452

 FOR active(a) IF (atm(a, anon816293, C, 29, anon816299), bond(a, anon816637, anon816639, 1), bond(a, anon816293, anon816639, 7)) THEN output = -0.075549 ELSE output = 0.001799;

// Best in (weighted) recall bin #4, (0.2, 0.25], from 'outerLoop #4, null' and covering 5.0 wgt'ed positive and 0.0 wgt'ed negative examples:
//    Wgt'ed recall = 0.226, precision = 0.980, and F1 = 0.368 - learned after 309 total and 191 acceptable nodes.  Node score = -2.6864613612519523

 FOR active(a) IF (atm(a, anon816293, C, 29, anon816299), bond(a, anon816637, anon816639, 1), atm(a, anon832031, C, 10, anon832037), bond(a, anon816637, anon816293, 7)) THEN output = -0.010947 ELSE output = 0.001788;

// Best in (weighted) recall bin #5, (0.25, 0.3], from 'outerLoop #4, null' and covering 5.0 wgt'ed positive and 0.0 wgt'ed negative examples:
//    Wgt'ed recall = 0.262, precision = 0.980, and F1 = 0.413 - learned after 54 total and 37 acceptable nodes.  Node score = -1.9630079356544379

 FOR active(a) IF (atm(a, anon495251, N, 32, anon495257), ring_size_6(a, anon498087), atm(a, anon512357, C, 29, anon512363), bond(a, anon513161, anon495251, 1)) THEN output = 0.025589 ELSE output = 0.024816;

// Best in (weighted) recall bin #6, (0.3, 0.35], from 'outerLoop #4, null' and covering 6.0 wgt'ed positive and 0.0 wgt'ed negative examples:
//    Wgt'ed recall = 0.314, precision = 0.984, and F1 = 0.476 - learned after 283 total and 170 acceptable nodes.  Node score = -1.8135664185164082

 FOR active(a) IF (atm(a, anon495251, N, 32, anon495257), ring_size_6(a, anon498087), atm(a, anon512357, H, 3, anon512363), atm(a, anon519565, C, 29, anon519571)) THEN output = 0.000647 ELSE output = 0.006042;

// Best in (weighted) recall bin #7, (0.35, 0.4], from 'outerLoop #4, null' and covering 8.0 wgt'ed positive and 0.0 wgt'ed negative examples:
//    Wgt'ed recall = 0.362, precision = 0.988, and F1 = 0.530 - learned after 35 total and 6 acceptable nodes.  Node score = -2.717954974975437

 FOR active(a) IF (atm(a, anon816293, C, 29, anon816299), bond(a, anon816637, anon816639, 1), bond(a, anon816639, anon832039, 1)) THEN output = 0.003005 ELSE output = 0.000129;

// Best in (weighted) recall bin #8, (0.4, 0.45], from 'outerLoop #4, null' and covering 3.0 wgt'ed positive and 0.0 wgt'ed negative examples:
//    Wgt'ed recall = 0.423, precision = 0.968, and F1 = 0.588 - learned after 215 total and 153 acceptable nodes.  Node score = -0.6268899308334739

 FOR active(a) IF (atm(a, anon356945, O, 50, anon356951), bond(a, anon357229, anon357231, 2), atm(a, anon357231, O, 40, anon367791), methyl(a, anon373337)) THEN output = -0.038438 ELSE output = -0.068023;

// Best in (weighted) recall bin #9, (0.45, 0.5], from 'outerLoop #4, null' and covering 25.0 wgt'ed positive and 0.0 wgt'ed negative examples:
//    Wgt'ed recall = 0.471, precision = 0.996, and F1 = 0.639 - learned after 201 total and 96 acceptable nodes.  Node score = -6.353386228445327

 FOR active(a) IF (atm(a, anon667265, C, 22, anon667271), bond(a, anon670131, anon667265, 1)) THEN output = -0.010442 ELSE output = -0.004557;

// Best in (weighted) recall bin #10, (0.5, 0.55], from 'outerLoop #4, null' and covering 30.0 wgt'ed positive and 0.0 wgt'ed negative examples:
//    Wgt'ed recall = 0.525, precision = 0.997, and F1 = 0.688 - learned after 199 total and 82 acceptable nodes.  Node score = -5.930665430442483

 FOR active(a) IF (atm(a, anon746239, C, 22, anon746245), bond(a, anon749071, anon746239, 1)) THEN output = 0.019875 ELSE output = -0.002912;

// Best in (weighted) recall bin #11, (0.55, 0.6], from 'outerLoop #4, null' and covering 4.0 wgt'ed positive and 0.0 wgt'ed negative examples:
//    Wgt'ed recall = 0.563, precision = 0.976, and F1 = 0.714 - learned after 272 total and 199 acceptable nodes.  Node score = -0.7099185562592426

 FOR active(a) IF (atm(a, anon356945, O, 50, anon356951), bond(a, anon357229, anon357231, 2), atm(a, anon367785, C, 22, anon367791), bond(a, anon375355, anon367785, 1)) THEN output = 0.015989 ELSE output = -0.006406;

// Best in (weighted) recall bin #14, (0.7, 0.75], from 'outerLoop #4, null' and covering 5.0 wgt'ed positive and 0.0 wgt'ed negative examples:
//    Wgt'ed recall = 0.704, precision = 0.980, and F1 = 0.820 - learned after 7 total and 6 acceptable nodes.  Node score = -Infinity

 FOR active(a) IF (atm(a, anon248957, N, 32, anon248963), ring_size_6(a, anon249547), atm(a, anon252257, C, 22, anon252263), ring_size_5(a, anon258743), atm(a, anon261315, O, 40, anon248963)) THEN output = 0.006066 ELSE output = -0.004126;

// Best in (weighted) recall bin #16, (0.8, 0.85], from 'outerLoop #4, null' and covering 6.0 wgt'ed positive and 0.0 wgt'ed negative examples:
//    Wgt'ed recall = 0.845, precision = 0.984, and F1 = 0.909 - learned after 16 total and 15 acceptable nodes.  Node score = -Infinity

 FOR active(a) IF (atm(a, anon356945, O, 50, anon356951), bond(a, anon357229, anon357231, 2), bond(a, anon367793, anon357229, 1)) THEN output = -0.075674 ELSE output = 0.139153;
      /* FALSE NEG: active(D79) Actual Bool=true Prob=0.4433883382804523 Output=0.5566116617195477 */

// Best in (weighted) recall bin #17, (0.85, 0.9], from 'outerLoop #4, null' and covering 19.0 wgt'ed positive and 0.0 wgt'ed negative examples:
//    Wgt'ed recall = 0.860, precision = 0.995, and F1 = 0.922 - learned after 131 total and 56 acceptable nodes.  Node score = -2.6647548567745347

 FOR active(a) IF (atm(a, anon816293, C, 29, anon816299), bond(a, anon816637, anon816639, 1), bond(a, anon816639, anon832039, 2), atm(a, anon835127, H, 3, anon835133)) THEN output = 0.000502 ELSE output = -0.004826;
      /* FALSE NEG: active(D21) Actual Bool=true Prob=0.8668026271799407 Output=0.13319737282005928 */
      /* FALSE NEG: active(D73) Actual Bool=false Prob=0.3376233012158677 Output=-0.3376233012158677 */
      /* FALSE NEG: active(D7) Actual Bool=false Prob=0.12623267461931714 Output=-0.12623267461931714 */

// Best in (weighted) recall bin #18, (0.9, 0.95], from 'outerLoop #4, null' and covering 18.0 wgt'ed positive and 0.0 wgt'ed negative examples:
//    Wgt'ed recall = 0.942, precision = 0.994, and F1 = 0.968 - learned after 14 total and 13 acceptable nodes.  Node score = -Infinity

 FOR active(a) IF (atm(a, anon495251, N, 32, anon495257), ring_size_6(a, anon498087), bond(a, anon512365, anon495251, 1)) THEN output = 0.035753 ELSE output = -0.193768;
      /* FALSE NEG: active(D73) Actual Bool=false Prob=0.38753642923045967 Output=-0.38753642923045967 */

// Best in (weighted) recall bin #19, (0.95, 1.01], from 'outerLoop #4, null' and covering 7.0 wgt'ed positive and 0.0 wgt'ed negative examples:
//    Wgt'ed recall = 0.986, precision = 0.986, and F1 = 0.986 - learned after 1 total and 0 acceptable nodes.  Node score = -3.0733603361097206

 FOR active(a) IF (atm(a, anon248957, N, 32, anon248963), ring_size_6(a, anon249547), atm(a, anon252257, C, 22, anon252263), ring_size_5(a, anon258743)) THEN output = 0.003415 ELSE output = 0.006444;


////////////////////////////////////////////////////////////////////////////////
////
////     Gleaner for: outerLoop #5, null
////
////////////////////////////////////////////////////////////////////////////////

// Best in (weighted) recall bin #0, (-Infinity, 0.05], from 'outerLoop #5, null' and covering 7.0 wgt'ed positive and 0.0 wgt'ed negative examples:
//    Wgt'ed recall = 0.049, precision = 0.986, and F1 = 0.093 - learned after 44 total and 33 acceptable nodes.  Node score = -10.190412037055149

 FOR active(a) IF (atm(a, anon522037, C, 27, anon522043), hetero_aromatic_6_ring(a, anon522339)) THEN output = 0.002389 ELSE output = 0.024290;

// Best in (weighted) recall bin #1, (0.05, 0.1], from 'outerLoop #5, null' and covering 3.0 wgt'ed positive and 0.0 wgt'ed negative examples:
//    Wgt'ed recall = 0.083, precision = 0.968, and F1 = 0.153 - learned after 55 total and 9 acceptable nodes.  Node score = -2.7227357431289056

 FOR active(a) IF (atm(a, anon890963, C, 29, anon890969), atm(a, anon891251, C, 29, anon890969), ring_size_5(a, anon894493), methyl(a, anon895295)) THEN output = 0.035955 ELSE output = 0.010957;

// Best in (weighted) recall bin #2, (0.1, 0.15], from 'outerLoop #5, null' and covering 3.0 wgt'ed positive and 0.0 wgt'ed negative examples:
//    Wgt'ed recall = 0.149, precision = 0.968, and F1 = 0.259 - learned after 291 total and 12 acceptable nodes.  Node score = -2.8447340558865286

 FOR active(a) IF (atm(a, anon611105, C, 29, anon611111), atm(a, anon611393, C, 29, anon611111), atm(a, anon615245, C, 22, anon615251), ring_size_5(a, anon621621)) THEN output = 0.004319 ELSE output = 0.001718;

// Best in (weighted) recall bin #3, (0.15, 0.2], from 'outerLoop #5, null' and covering 6.0 wgt'ed positive and 0.0 wgt'ed negative examples:
//    Wgt'ed recall = 0.166, precision = 0.984, and F1 = 0.284 - learned after 77 total and 16 acceptable nodes.  Node score = -2.7425325928359596

 FOR active(a) IF (atm(a, anon890963, C, 29, anon890969), atm(a, anon891251, C, 29, anon890969), methyl(a, anon894497), methyl(a, anon895845)) THEN output = -0.001957 ELSE output = 0.014346;

// Best in (weighted) recall bin #4, (0.2, 0.25], from 'outerLoop #5, null' and covering 5.0 wgt'ed positive and 0.0 wgt'ed negative examples:
//    Wgt'ed recall = 0.226, precision = 0.980, and F1 = 0.368 - learned after 142 total and 69 acceptable nodes.  Node score = -2.932270885931933

 FOR active(a) IF (atm(a, anon667265, C, 29, anon667271), ring_size_6(a, anon667565), atm(a, anon671281, C, 10, anon671287), bond(a, anon667265, anon674279, 7)) THEN output = 0.001459 ELSE output = 0.016284;

// Best in (weighted) recall bin #5, (0.25, 0.3], from 'outerLoop #5, null' and covering 19.0 wgt'ed positive and 0.0 wgt'ed negative examples:
//    Wgt'ed recall = 0.260, precision = 0.995, and F1 = 0.412 - learned after 84 total and 38 acceptable nodes.  Node score = -6.433115160402583

 FOR active(a) IF (ring_size_5(a, anon788157), atm(a, anon789129, O, 40, anon789135)) THEN output = -0.034705 ELSE output = -0.074004;

// Best in (weighted) recall bin #6, (0.3, 0.35], from 'outerLoop #5, null' and covering 17.0 wgt'ed positive and 0.0 wgt'ed negative examples:
//    Wgt'ed recall = 0.339, precision = 0.994, and F1 = 0.506 - learned after 85 total and 39 acceptable nodes.  Node score = -5.890969388417417

 FOR active(a) IF (atm(a, anon750245, N, 32, anon750251), bond(a, anon751335, anon750245, 1)) THEN output = 0.028418 ELSE output = -0.004542;

// Best in (weighted) recall bin #7, (0.35, 0.4], from 'outerLoop #5, null' and covering 7.0 wgt'ed positive and 0.0 wgt'ed negative examples:
//    Wgt'ed recall = 0.366, precision = 0.986, and F1 = 0.534 - learned after 281 total and 167 acceptable nodes.  Node score = -1.9635747518622093

 FOR active(a) IF (atm(a, anon158897, N, 32, anon158903), ring_size_6(a, anon159215), atm(a, anon174443, H, 3, anon174449), atm(a, anon181493, O, 40, anon158903)) THEN output = 0.009741 ELSE output = 0.008290;

// Best in (weighted) recall bin #8, (0.4, 0.45], from 'outerLoop #5, null' and covering 3.0 wgt'ed positive and 0.0 wgt'ed negative examples:
//    Wgt'ed recall = 0.423, precision = 0.968, and F1 = 0.588 - learned after 246 total and 159 acceptable nodes.  Node score = -1.146686061397502

 FOR active(a) IF (atm(a, anon128477, F, 92, anon128483), atm(a, anon128741, O, 40, anon128747), atm(a, anon131721, C, 22, anon131727), bond(a, anon138695, anon131721, 1)) THEN output = 0.022907 ELSE output = 0.003355;

// Best in (weighted) recall bin #9, (0.45, 0.5], from 'outerLoop #5, null' and covering 68.0 wgt'ed positive and 0.0 wgt'ed negative examples:
//    Wgt'ed recall = 0.450, precision = 0.999, and F1 = 0.620 - learned after 81 total and 42 acceptable nodes.  Node score = -13.204738011648027

 FOR active(a) IF (atm(a, anon376467, C, 27, anon376473), bond(a, anon376467, anon377321, 7)) THEN output = 0.023793 ELSE output = 0.057406;

// Best in (weighted) recall bin #10, (0.5, 0.55], from 'outerLoop #5, null' and covering 10.0 wgt'ed positive and 0.0 wgt'ed negative examples:
//    Wgt'ed recall = 0.524, precision = 0.990, and F1 = 0.685 - learned after 217 total and 124 acceptable nodes.  Node score = -2.022564341223468

 FOR active(a) IF (atm(a, anon449055, N, 32, anon449061), ring_size_6(a, anon450725), atm(a, anon467967, C, 22, anon467973), bond(a, anon472815, anon467967, 1)) THEN output = 0.016863 ELSE output = 0.002294;

// Best in (weighted) recall bin #11, (0.55, 0.6], from 'outerLoop #5, null' and covering 28.0 wgt'ed positive and 0.0 wgt'ed negative examples:
//    Wgt'ed recall = 0.559, precision = 0.996, and F1 = 0.716 - learned after 166 total and 54 acceptable nodes.  Node score = -5.859202852909207

 FOR active(a) IF (atm(a, anon750245, C, 22, anon750251), bond(a, anon752653, anon750245, 1)) THEN output = 0.024798 ELSE output = -0.001715;

// Best in (weighted) recall bin #16, (0.8, 0.85], from 'outerLoop #5, null' and covering 16.0 wgt'ed positive and 0.0 wgt'ed negative examples:
//    Wgt'ed recall = 0.838, precision = 0.994, and F1 = 0.909 - learned after 322 total and 193 acceptable nodes.  Node score = -2.075959399101998

 FOR active(a) IF (atm(a, anon248957, N, 32, anon248963), ring_size_6(a, anon249547), atm(a, anon266993, N, 38, anon266999), bond(a, anon275097, anon266993, 1)) THEN output = 0.045177 ELSE output = 0.033297;
      /* FALSE NEG: active(D12) Actual Bool=true Prob=0.6105392089175814 Output=0.3894607910824186 */
      /* FALSE NEG: active(D49) Actual Bool=true Prob=0.6213601851444325 Output=0.3786398148555675 */
      /* FALSE NEG: active(D73) Actual Bool=false Prob=0.3204172358463814 Output=-0.3204172358463814 */

// Best in (weighted) recall bin #17, (0.85, 0.9], from 'outerLoop #5, null' and covering 52.0 wgt'ed positive and 0.0 wgt'ed negative examples:
//    Wgt'ed recall = 0.880, precision = 0.998, and F1 = 0.935 - learned after 208 total and 50 acceptable nodes.  Node score = -6.404915325709691

 FOR active(a) IF (atm(a, anon710485, N, 38, anon710491), bond(a, anon713595, anon710485, 1)) THEN output = -0.000581 ELSE output = -0.013896;
      /* FALSE NEG: active(D21) Actual Bool=true Prob=0.8247774951385043 Output=0.1752225048614957 */
      /* FALSE NEG: active(D73) Actual Bool=false Prob=0.39228720464985367 Output=-0.39228720464985367 */
      /* FALSE NEG: active(D79) Actual Bool=true Prob=0.4989984165325654 Output=0.5010015834674346 */
      /* FALSE NEG: active(D5) Actual Bool=false Prob=0.25766521573987394 Output=-0.25766521573987394 */
      /* FALSE NEG: active(D49) Actual Bool=true Prob=0.9058510939388732 Output=0.0941489060611268 */

// Best in (weighted) recall bin #18, (0.9, 0.95], from 'outerLoop #5, null' and covering 18.0 wgt'ed positive and 0.0 wgt'ed negative examples:
//    Wgt'ed recall = 0.942, precision = 0.994, and F1 = 0.968 - learned after 14 total and 13 acceptable nodes.  Node score = -Infinity

 FOR active(a) IF (atm(a, anon158897, N, 32, anon158903), ring_size_6(a, anon159215), bond(a, anon174451, anon158897, 1)) THEN output = 0.098518 ELSE output = -0.136007;
      /* FALSE NEG: active(D73) Actual Bool=false Prob=0.27201360595603213 Output=-0.27201360595603213 */

// Best in (weighted) recall bin #19, (0.95, 1.01], from 'outerLoop #5, null' and covering 19.0 wgt'ed positive and 0.0 wgt'ed negative examples:
//    Wgt'ed recall = 0.995, precision = 0.995, and F1 = 0.995 - learned after 1 total and 0 acceptable nodes.  Node score = -3.9467692033104624

 FOR active(a) IF (atm(a, anon395555, H, 1, anon395561), ring_size_6(a, anon397945), atm(a, anon399735, N, 32, anon399741), ring_size_6(a, anon400643)) THEN output = 0.008993 ELSE output = -0.030480;


////////////////////////////////////////////////////////////////////////////////
////
////     Gleaner for: outerLoop #6, null
////
////////////////////////////////////////////////////////////////////////////////

// Best in (weighted) recall bin #0, (-Infinity, 0.05], from 'outerLoop #6, null' and covering 4.0 wgt'ed positive and 0.0 wgt'ed negative examples:
//    Wgt'ed recall = 0.029, precision = 0.976, and F1 = 0.057 - learned after 105 total and 51 acceptable nodes.  Node score = -9.936045183761946

 FOR active(a) IF (ball3(a, anon525813), anthracene(a, anon527113)) THEN output = 0.005779 ELSE output = 0.060192;

// Best in (weighted) recall bin #1, (0.05, 0.1], from 'outerLoop #6, null' and covering 3.0 wgt'ed positive and 0.0 wgt'ed negative examples:
//    Wgt'ed recall = 0.055, precision = 0.968, and F1 = 0.105 - learned after 84 total and 40 acceptable nodes.  Node score = -4.2414062653606655

 FOR active(a) IF (atm(a, anon854279, C, 10, anon854285), atm(a, anon855283, O, 50, anon855289)) THEN output = -0.075202 ELSE output = -0.046687;

// Best in (weighted) recall bin #2, (0.1, 0.15], from 'outerLoop #6, null' and covering 3.0 wgt'ed positive and 0.0 wgt'ed negative examples:
//    Wgt'ed recall = 0.136, precision = 0.968, and F1 = 0.238 - learned after 271 total and 24 acceptable nodes.  Node score = -2.629092695800171

 FOR active(a) IF (atm(a, anon890963, C, 29, anon890969), atm(a, anon891251, C, 29, anon890969), atm(a, anon901995, C, 29, anon890969), methyl(a, anon907803)) THEN output = -0.008724 ELSE output = 0.004602;

// Best in (weighted) recall bin #3, (0.15, 0.2], from 'outerLoop #6, null' and covering 3.0 wgt'ed positive and 0.0 wgt'ed negative examples:
//    Wgt'ed recall = 0.157, precision = 0.968, and F1 = 0.270 - learned after 324 total and 197 acceptable nodes.  Node score = -2.869006787328802

 FOR active(a) IF (atm(a, anon667265, C, 29, anon667271), ring_size_6(a, anon667565), atm(a, anon679863, C, 29, anon667271), carbon_6_ring(a, anon667565)) THEN output = 0.016681 ELSE output = 0.008270;

// Best in (weighted) recall bin #4, (0.2, 0.25], from 'outerLoop #6, null' and covering 11.0 wgt'ed positive and 0.0 wgt'ed negative examples:
//    Wgt'ed recall = 0.203, precision = 0.991, and F1 = 0.337 - learned after 99 total and 52 acceptable nodes.  Node score = -4.2063992838246405

 FOR active(a) IF (atm(a, anon854279, C, 10, anon854285), ring_size_5(a, anon855309)) THEN output = -0.079001 ELSE output = -0.030985;

// Best in (weighted) recall bin #5, (0.25, 0.3], from 'outerLoop #6, null' and covering 3.0 wgt'ed positive and 0.0 wgt'ed negative examples:
//    Wgt'ed recall = 0.270, precision = 0.968, and F1 = 0.423 - learned after 285 total and 179 acceptable nodes.  Node score = -1.1795539412172849

 FOR active(a) IF (atm(a, anon319697, O, 50, anon319703), bond(a, anon319969, anon319971, 2), atm(a, anon319969, N, 38, anon322693), methyl(a, anon330283)) THEN output = -0.043012 ELSE output = -0.059036;

// Best in (weighted) recall bin #6, (0.3, 0.35], from 'outerLoop #6, null' and covering 6.0 wgt'ed positive and 0.0 wgt'ed negative examples:
//    Wgt'ed recall = 0.314, precision = 0.984, and F1 = 0.476 - learned after 55 total and 40 acceptable nodes.  Node score = -2.8372074224641586

 FOR active(a) IF (atm(a, anon667265, C, 29, anon667271), ring_size_6(a, anon667565), atm(a, anon679863, N, 32, anon679869), bond(a, anon679863, anon680707, 1)) THEN output = -0.002471 ELSE output = 0.018867;

// Best in (weighted) recall bin #7, (0.35, 0.4], from 'outerLoop #6, null' and covering 4.0 wgt'ed positive and 0.0 wgt'ed negative examples:
//    Wgt'ed recall = 0.360, precision = 0.976, and F1 = 0.526 - learned after 290 total and 167 acceptable nodes.  Node score = -1.630486123792983

 FOR active(a) IF (atm(a, anon158897, N, 32, anon158903), ring_size_6(a, anon159215), atm(a, anon183989, N, 38, anon183995), bond(a, anon191133, anon183989, 2)) THEN output = 0.037418 ELSE output = 0.055770;

// Best in (weighted) recall bin #8, (0.4, 0.45], from 'outerLoop #6, null' and covering 38.0 wgt'ed positive and 0.0 wgt'ed negative examples:
//    Wgt'ed recall = 0.422, precision = 0.997, and F1 = 0.593 - learned after 177 total and 73 acceptable nodes.  Node score = -12.401959489351807

 FOR active(a) IF (atm(a, anon225745, C, 22, anon225751), atm(a, anon228599, C, 27, anon228605)) THEN output = 0.004640 ELSE output = 0.014618;

// Best in (weighted) recall bin #9, (0.45, 0.5], from 'outerLoop #6, null' and covering 68.0 wgt'ed positive and 0.0 wgt'ed negative examples:
//    Wgt'ed recall = 0.472, precision = 0.999, and F1 = 0.641 - learned after 160 total and 72 acceptable nodes.  Node score = -12.940956581867775

 FOR active(a) IF (atm(a, anon379789, C, 27, anon379795), bond(a, anon379789, anon381973, 7)) THEN output = 0.023793 ELSE output = 0.074429;

// Best in (weighted) recall bin #10, (0.5, 0.55], from 'outerLoop #6, null' and covering 5.0 wgt'ed positive and 0.0 wgt'ed negative examples:
//    Wgt'ed recall = 0.549, precision = 0.980, and F1 = 0.704 - learned after 7 total and 6 acceptable nodes.  Node score = -1.2094307933105533

 FOR active(a) IF (atm(a, anon449055, N, 32, anon449061), ring_size_6(a, anon450725), atm(a, anon475427, C, 29, anon475433)) THEN output = 0.032125 ELSE output = -0.182947;

// Best in (weighted) recall bin #12, (0.6, 0.65], from 'outerLoop #6, null' and covering 20.0 wgt'ed positive and 0.0 wgt'ed negative examples:
//    Wgt'ed recall = 0.643, precision = 0.995, and F1 = 0.781 - learned after 220 total and 28 acceptable nodes.  Node score = -3.903236729876686

 FOR active(a) IF (bond(a, anon754297, anon754299, 7), bond(a, anon757807, anon754299, 1)) THEN output = -0.023763 ELSE output = -0.009011;

// Best in (weighted) recall bin #13, (0.65, 0.7], from 'outerLoop #6, null' and covering 21.0 wgt'ed positive and 0.0 wgt'ed negative examples:
//    Wgt'ed recall = 0.675, precision = 0.995, and F1 = 0.805 - learned after 218 total and 27 acceptable nodes.  Node score = -3.76672054995031

 FOR active(a) IF (bond(a, anon754297, anon754299, 7), bond(a, anon757807, anon754297, 1)) THEN output = 0.002996 ELSE output = -0.023967;

// Best in (weighted) recall bin #14, (0.7, 0.75], from 'outerLoop #6, null' and covering 23.0 wgt'ed positive and 0.0 wgt'ed negative examples:
//    Wgt'ed recall = 0.740, precision = 0.996, and F1 = 0.849 - learned after 227 total and 35 acceptable nodes.  Node score = -6.135996495103725

 FOR active(a) IF (bond(a, anon18923, anon18925, 7), bond(a, anon22529, anon18925, 1)) THEN output = 0.276592 ELSE output = -0.002809;

// Best in (weighted) recall bin #17, (0.85, 0.9], from 'outerLoop #6, null' and covering 35.0 wgt'ed positive and 0.0 wgt'ed negative examples:
//    Wgt'ed recall = 0.895, precision = 0.997, and F1 = 0.943 - learned after 207 total and 80 acceptable nodes.  Node score = -4.892550242440018

 FOR active(a) IF (atm(a, anon575979, N, 38, anon575985), bond(a, anon579069, anon575979, 1)) THEN output = -0.056182 ELSE output = -0.002206;
      /* FALSE NEG: active(D79) Actual Bool=true Prob=0.4649886264671573 Output=0.5350113735328428 */
      /* FALSE NEG: active(D5) Actual Bool=false Prob=0.41116004359732056 Output=-0.41116004359732056 */
      /* FALSE NEG: active(D76) Actual Bool=false Prob=0.4558173740044483 Output=-0.4558173740044483 */
      /* FALSE NEG: active(D49) Actual Bool=true Prob=0.8417378392337098 Output=0.15826216076629018 */

// Best in (weighted) recall bin #18, (0.9, 0.95], from 'outerLoop #6, null' and covering 10.0 wgt'ed positive and 0.0 wgt'ed negative examples:
//    Wgt'ed recall = 0.901, precision = 0.990, and F1 = 0.943 - learned after 22 total and 17 acceptable nodes.  Node score = -Infinity

 FOR active(a) IF (atm(a, anon319697, O, 50, anon319703), bond(a, anon319969, anon319971, 2), bond(a, anon322695, anon319969, 1)) THEN output = -0.066803 ELSE output = 0.124455;
      /* FALSE NEG: active(D79) Actual Bool=true Prob=0.5021806628059422 Output=0.4978193371940578 */

// Best in (weighted) recall bin #19, (0.95, 1.01], from 'outerLoop #6, null' and covering 16.0 wgt'ed positive and 0.0 wgt'ed negative examples:
//    Wgt'ed recall = 0.994, precision = 0.994, and F1 = 0.994 - learned after 1 total and 0 acceptable nodes.  Node score = -2.075959399101998

 FOR active(a) IF (atm(a, anon248957, N, 32, anon248963), ring_size_6(a, anon249547), atm(a, anon266993, N, 38, anon266999), bond(a, anon275097, anon266993, 1)) THEN output = 0.045177 ELSE output = 0.033297;


////////////////////////////////////////////////////////////////////////////////
////
////     Gleaner for: outerLoop #7, null
////
////////////////////////////////////////////////////////////////////////////////

// Best in (weighted) recall bin #0, (-Infinity, 0.05], from 'outerLoop #7, null' and covering 3.0 wgt'ed positive and 0.0 wgt'ed negative examples:
//    Wgt'ed recall = 0.022, precision = 0.968, and F1 = 0.043 - learned after 93 total and 52 acceptable nodes.  Node score = -10.046510649521489

 FOR active(a) IF (atm(a, anon485051, C, 27, anon485057), methyl(a, anon485937)) THEN output = 0.070279 ELSE output = 0.026342;

// Best in (weighted) recall bin #1, (0.05, 0.1], from 'outerLoop #7, null' and covering 3.0 wgt'ed positive and 0.0 wgt'ed negative examples:
//    Wgt'ed recall = 0.096, precision = 0.968, and F1 = 0.175 - learned after 70 total and 30 acceptable nodes.  Node score = -3.129347077853138

 FOR active(a) IF (atm(a, anon688571, O, 50, anon688577), methyl(a, anon689161)) THEN output = -0.100744 ELSE output = -0.067802;

// Best in (weighted) recall bin #2, (0.1, 0.15], from 'outerLoop #7, null' and covering 3.0 wgt'ed positive and 0.0 wgt'ed negative examples:
//    Wgt'ed recall = 0.130, precision = 0.968, and F1 = 0.229 - learned after 15 total and 7 acceptable nodes.  Node score = -1.8327216953656615

 FOR active(a) IF (methyl(a, anon1145), bond(a, anon1401, anon1403, 1), atm(a, anon1403, C, 14, anon23203)) THEN output = 0.858149 ELSE output = -0.000799;

// Best in (weighted) recall bin #3, (0.15, 0.2], from 'outerLoop #7, null' and covering 4.0 wgt'ed positive and 0.0 wgt'ed negative examples:
//    Wgt'ed recall = 0.173, precision = 0.976, and F1 = 0.294 - learned after 197 total and 109 acceptable nodes.  Node score = -1.0070647100354362

 FOR active(a) IF (methyl(a, anon1145), bond(a, anon1401, anon1403, 1), ring_size_5(a, anon23223), bond(a, anon1403, anon27503, 7)) THEN output = 0.429074 ELSE output = -0.005236;

// Best in (weighted) recall bin #4, (0.2, 0.25], from 'outerLoop #7, null' and covering 5.0 wgt'ed positive and 0.0 wgt'ed negative examples:
//    Wgt'ed recall = 0.216, precision = 0.980, and F1 = 0.355 - learned after 279 total and 162 acceptable nodes.  Node score = -1.8093732827277542

 FOR active(a) IF (methyl(a, anon1145), bond(a, anon1401, anon1403, 1), atm(a, anon23197, C, 29, anon23203), bond(a, anon23197, anon1403, 7)) THEN output = 0.658149 ELSE output = -0.003099;

// Best in (weighted) recall bin #5, (0.25, 0.3], from 'outerLoop #7, null' and covering 40.0 wgt'ed positive and 0.0 wgt'ed negative examples:
//    Wgt'ed recall = 0.286, precision = 0.998, and F1 = 0.444 - learned after 232 total and 71 acceptable nodes.  Node score = -0.06355713858013912

 FOR active(a) IF (hetero_aromatic_5_ring(a, anon923185), methyl(a, anon931569), atm(a, anon985505, C, 26, anon985511), atm(a, anon990419, H, 1, anon985511)) THEN output = -2.762938 ELSE output = -1.393852;

// Best in (weighted) recall bin #6, (0.3, 0.35], from 'outerLoop #7, null' and covering 6.0 wgt'ed positive and 0.0 wgt'ed negative examples:
//    Wgt'ed recall = 0.314, precision = 0.984, and F1 = 0.476 - learned after 86 total and 67 acceptable nodes.  Node score = -1.6779744236025598

 FOR active(a) IF (atm(a, anon750245, N, 38, anon750251), bond(a, anon753705, anon750245, 2), atm(a, anon758459, N, 32, anon758465), bond(a, anon760281, anon758459, 1)) THEN output = -0.012736 ELSE output = 0.072924;

// Best in (weighted) recall bin #7, (0.35, 0.4], from 'outerLoop #7, null' and covering 7.0 wgt'ed positive and 0.0 wgt'ed negative examples:
//    Wgt'ed recall = 0.366, precision = 0.986, and F1 = 0.534 - learned after 39 total and 29 acceptable nodes.  Node score = -1.462861459431351

 FOR active(a) IF (atm(a, anon750245, N, 38, anon750251), bond(a, anon753705, anon750245, 2), atm(a, anon758459, H, 1, anon758465), atm(a, anon759211, H, 1, anon758465)) THEN output = -0.024785 ELSE output = 0.082686;

// Best in (weighted) recall bin #8, (0.4, 0.45], from 'outerLoop #7, null' and covering 10.0 wgt'ed positive and 0.0 wgt'ed negative examples:
//    Wgt'ed recall = 0.433, precision = 0.990, and F1 = 0.602 - learned after 185 total and 100 acceptable nodes.  Node score = -1.5495595169632381

 FOR active(a) IF (methyl(a, anon1145), bond(a, anon1401, anon1403, 1), ring_size_5(a, anon23223), atm(a, anon27495, C, 22, anon27501)) THEN output = 0.004389 ELSE output = -0.003419;

// Best in (weighted) recall bin #9, (0.45, 0.5], from 'outerLoop #7, null' and covering 4.0 wgt'ed positive and 0.0 wgt'ed negative examples:
//    Wgt'ed recall = 0.494, precision = 0.976, and F1 = 0.656 - learned after 227 total and 163 acceptable nodes.  Node score = -1.127555010810274

 FOR active(a) IF (atm(a, anon55801, H, 3, anon55807), atm(a, anon58719, O, 50, anon58725), atm(a, anon66713, O, 50, anon58725), atm(a, anon73313, CL, 93, anon73319)) THEN output = 0.002491 ELSE output = 0.016682;

// Best in (weighted) recall bin #10, (0.5, 0.55], from 'outerLoop #7, null' and covering 16.0 wgt'ed positive and 0.0 wgt'ed negative examples:
//    Wgt'ed recall = 0.514, precision = 0.994, and F1 = 0.678 - learned after 165 total and 73 acceptable nodes.  Node score = -2.8495625727639013

 FOR active(a) IF (atm(a, anon688571, C, 22, anon688577), bond(a, anon690937, anon688571, 1)) THEN output = -0.015802 ELSE output = -0.031369;

// Best in (weighted) recall bin #11, (0.55, 0.6], from 'outerLoop #7, null' and covering 22.0 wgt'ed positive and 0.0 wgt'ed negative examples:
//    Wgt'ed recall = 0.593, precision = 0.995, and F1 = 0.743 - learned after 177 total and 52 acceptable nodes.  Node score = -2.9157373912455156

 FOR active(a) IF (atm(a, anon722065, C, 22, anon722071), bond(a, anon724627, anon722065, 1)) THEN output = 0.028668 ELSE output = -0.028522;

// Best in (weighted) recall bin #12, (0.6, 0.65], from 'outerLoop #7, null' and covering 12.0 wgt'ed positive and 0.0 wgt'ed negative examples:
//    Wgt'ed recall = 0.628, precision = 0.992, and F1 = 0.769 - learned after 145 total and 108 acceptable nodes.  Node score = -1.7878291625672924

 FOR active(a) IF (atm(a, anon750245, N, 38, anon750251), bond(a, anon753705, anon750245, 2), bond(a, anon758467, anon750245, 1), atm(a, anon762495, C, 22, anon762501)) THEN output = 0.006371 ELSE output = 0.056195;

// Best in (weighted) recall bin #13, (0.65, 0.7], from 'outerLoop #7, null' and covering 7.0 wgt'ed positive and 0.0 wgt'ed negative examples:
//    Wgt'ed recall = 0.693, precision = 0.986, and F1 = 0.814 - learned after 337 total and 208 acceptable nodes.  Node score = -0.6972325799087735

 FOR active(a) IF (atm(a, anon222175, C, 22, anon222181), methyl(a, anon225173), atm(a, anon229679, C, 10, anon229685), bond(a, anon238145, anon229679, 1)) THEN output = -0.000097 ELSE output = -0.013789;

// Best in (weighted) recall bin #14, (0.7, 0.75], from 'outerLoop #7, null' and covering 39.0 wgt'ed positive and 0.0 wgt'ed negative examples:
//    Wgt'ed recall = 0.708, precision = 0.997, and F1 = 0.828 - learned after 289 total and 183 acceptable nodes.  Node score = -3.3760725884123484

 FOR active(a) IF (atm(a, anon774977, C, 29, anon774983), bond(a, anon775261, anon775263, 1), bond(a, anon774977, anon775261, 7), atm(a, anon775263, H, 3, anon803237)) THEN output = 0.058566 ELSE output = 0.006490;

// Best in (weighted) recall bin #15, (0.75, 0.8], from 'outerLoop #7, null' and covering 44.0 wgt'ed positive and 0.0 wgt'ed negative examples:
//    Wgt'ed recall = 0.799, precision = 0.998, and F1 = 0.887 - learned after 108 total and 56 acceptable nodes.  Node score = -3.4143760272695935

 FOR active(a) IF (atm(a, anon774977, C, 29, anon774983), bond(a, anon775261, anon775263, 1), bond(a, anon774977, anon795355, 1), bond(a, anon797197, anon797199, 1)) THEN output = 0.000351 ELSE output = 0.006262;

// Best in (weighted) recall bin #17, (0.85, 0.9], from 'outerLoop #7, null' and covering 20.0 wgt'ed positive and 0.0 wgt'ed negative examples:
//    Wgt'ed recall = 0.866, precision = 0.995, and F1 = 0.926 - learned after 30 total and 15 acceptable nodes.  Node score = -3.35345777573119

 FOR active(a) IF (methyl(a, anon1145), bond(a, anon1401, anon1403, 1), bond(a, anon1403, anon23205, 1)) THEN output = 0.031627 ELSE output = -0.010784;
      /* FALSE NEG: active(D78) Actual Bool=false Prob=0.14185106490048777 Output=-2.5382278381336616 */
      /* FALSE NEG: active(D55) Actual Bool=false Prob=0.14185106490048777 Output=-3.785115532583659 */
      /* FALSE NEG: active(D7) Actual Bool=false Prob=0.14185106490048777 Output=-2.5658867760572615 */

// Best in (weighted) recall bin #18, (0.9, 0.95], from 'outerLoop #7, null' and covering 28.0 wgt'ed positive and 0.0 wgt'ed negative examples:
//    Wgt'ed recall = 0.900, precision = 0.996, and F1 = 0.946 - learned after 218 total and 90 acceptable nodes.  Node score = -3.0033027019375136

 FOR active(a) IF (atm(a, anon688571, N, 38, anon688577), bond(a, anon691989, anon688571, 1)) THEN output = -0.086166 ELSE output = -0.107878;
      /* FALSE NEG: active(D79) Actual Bool=true Prob=0.5342390463854292 Output=0.4657609536145708 */
      /* FALSE NEG: active(D5) Actual Bool=false Prob=0.3155307484321241 Output=-0.3155307484321241 */
      /* FALSE NEG: active(D76) Actual Bool=false Prob=0.4738648409060472 Output=-0.4738648409060472 */

// Best in (weighted) recall bin #19, (0.95, 1.01], from 'outerLoop #7, null' and covering 19.0 wgt'ed positive and 0.0 wgt'ed negative examples:
//    Wgt'ed recall = 0.995, precision = 0.995, and F1 = 0.995 - learned after 1 total and 0 acceptable nodes.  Node score = -5.761213777690915

 FOR active(a) IF (atm(a, anon750245, N, 38, anon750251), bond(a, anon753705, anon750245, 2)) THEN output = 0.049823 ELSE output = -0.010875;


////////////////////////////////////////////////////////////////////////////////
////
////     Gleaner for: outerLoop #8, null
////
////////////////////////////////////////////////////////////////////////////////

// Best in (weighted) recall bin #0, (-Infinity, 0.05], from 'outerLoop #8, null' and covering 3.0 wgt'ed positive and 0.0 wgt'ed negative examples:
//    Wgt'ed recall = 0.024, precision = 0.968, and F1 = 0.046 - learned after 96 total and 52 acceptable nodes.  Node score = -8.409122758931161

 FOR active(a) IF (atm(a, anon535007, C, 29, anon535013), atm(a, anon536095, C, 14, anon536101)) THEN output = 0.115560 ELSE output = 0.062657;

// Best in (weighted) recall bin #1, (0.05, 0.1], from 'outerLoop #8, null' and covering 3.0 wgt'ed positive and 0.0 wgt'ed negative examples:
//    Wgt'ed recall = 0.088, precision = 0.968, and F1 = 0.161 - learned after 126 total and 50 acceptable nodes.  Node score = -2.2255397739990435

 FOR active(a) IF (ring_size_5(a, anon739077), benzene(a, anon739809), atm(a, anon767021, H, 1, anon767027), methyl(a, anon768841)) THEN output = 0.027477 ELSE output = 0.032127;

// Best in (weighted) recall bin #2, (0.1, 0.15], from 'outerLoop #8, null' and covering 4.0 wgt'ed positive and 0.0 wgt'ed negative examples:
//    Wgt'ed recall = 0.117, precision = 0.976, and F1 = 0.209 - learned after 133 total and 54 acceptable nodes.  Node score = -2.0725205663189428

 FOR active(a) IF (ring_size_5(a, anon739077), benzene(a, anon739809), atm(a, anon767021, C, 10, anon767027), atm(a, anon769873, C, 22, anon767027)) THEN output = -0.139664 ELSE output = 0.036390;

// Best in (weighted) recall bin #3, (0.15, 0.2], from 'outerLoop #8, null' and covering 20.0 wgt'ed positive and 0.0 wgt'ed negative examples:
//    Wgt'ed recall = 0.200, precision = 0.995, and F1 = 0.333 - learned after 9 total and 0 acceptable nodes.  Node score = -6.879888022258747E-4

 FOR active(a) IF (hetero_aromatic_5_ring(a, anon923185), methyl(a, anon931569), atm(a, anon995205, O, 45, anon995211)) THEN output = -1.637101 ELSE output = -2.757298;

// Best in (weighted) recall bin #4, (0.2, 0.25], from 'outerLoop #8, null' and covering 7.0 wgt'ed positive and 0.0 wgt'ed negative examples:
//    Wgt'ed recall = 0.205, precision = 0.986, and F1 = 0.340 - learned after 6 total and 0 acceptable nodes.  Node score = -2.07616627738775

 FOR active(a) IF (ring_size_5(a, anon739077), benzene(a, anon739809), atm(a, anon767021, N, 32, anon767027)) THEN output = -0.054244 ELSE output = 0.051796;

// Best in (weighted) recall bin #5, (0.25, 0.3], from 'outerLoop #8, null' and covering 6.0 wgt'ed positive and 0.0 wgt'ed negative examples:
//    Wgt'ed recall = 0.260, precision = 0.984, and F1 = 0.411 - learned after 274 total and 72 acceptable nodes.  Node score = -1.6526830565847035

 FOR active(a) IF (methyl(a, anon118855), methyl(a, anon119149), atm(a, anon147523, C, 22, anon147529), hetero_aromatic_5_ring(a, anon152417)) THEN output = -0.048425 ELSE output = 0.004549;

// Best in (weighted) recall bin #6, (0.3, 0.35], from 'outerLoop #8, null' and covering 4.0 wgt'ed positive and 0.0 wgt'ed negative examples:
//    Wgt'ed recall = 0.331, precision = 0.976, and F1 = 0.494 - learned after 59 total and 44 acceptable nodes.  Node score = -1.492638121627069

 FOR active(a) IF (atm(a, anon575979, C, 22, anon575985), bond(a, anon578049, anon575979, 1), bond(a, anon587741, anon578049, 2), ring_size_6(a, anon588483)) THEN output = 0.154501 ELSE output = -0.087310;

// Best in (weighted) recall bin #7, (0.35, 0.4], from 'outerLoop #8, null' and covering 13.0 wgt'ed positive and 0.0 wgt'ed negative examples:
//    Wgt'ed recall = 0.381, precision = 0.992, and F1 = 0.551 - learned after 8 total and 2 acceptable nodes.  Node score = -2.0916590959249706

 FOR active(a) IF (ring_size_5(a, anon739077), benzene(a, anon739809), atm(a, anon767021, H, 1, anon767027)) THEN output = -0.013807 ELSE output = 0.059544;

// Best in (weighted) recall bin #8, (0.4, 0.45], from 'outerLoop #8, null' and covering 3.0 wgt'ed positive and 0.0 wgt'ed negative examples:
//    Wgt'ed recall = 0.423, precision = 0.968, and F1 = 0.588 - learned after 206 total and 130 acceptable nodes.  Node score = -0.23537160956124556

 FOR active(a) IF (atm(a, anon696615, C, 27, anon696621), hetero_aromatic_6_ring(a, anon696899), atm(a, anon725823, C, 22, anon725829), bond(a, anon730399, anon725823, 1)) THEN output = -0.123245 ELSE output = 0.002111;

// Best in (weighted) recall bin #9, (0.45, 0.5], from 'outerLoop #8, null' and covering 11.0 wgt'ed positive and 0.0 wgt'ed negative examples:
//    Wgt'ed recall = 0.476, precision = 0.991, and F1 = 0.643 - learned after 365 total and 89 acceptable nodes.  Node score = -1.7445295379350643

 FOR active(a) IF (methyl(a, anon118855), methyl(a, anon119149), atm(a, anon147523, C, 10, anon147529), ring_size_5(a, anon154549)) THEN output = 0.072241 ELSE output = -0.018891;

// Best in (weighted) recall bin #10, (0.5, 0.55], from 'outerLoop #8, null' and covering 20.0 wgt'ed positive and 0.0 wgt'ed negative examples:
//    Wgt'ed recall = 0.512, precision = 0.995, and F1 = 0.676 - learned after 72 total and 26 acceptable nodes.  Node score = -3.403646761089575

 FOR active(a) IF (atm(a, anon774977, C, 29, anon774983), bond(a, anon775261, anon775263, 1), bond(a, anon774977, anon775261, 7), atm(a, anon775263, H, 3, anon803237), bond(a, anon804249, anon774977, 7), bond(a, anon806065, anon774977, 1)) THEN output = 0.029752 ELSE output = 0.098816;

// Best in (weighted) recall bin #11, (0.55, 0.6], from 'outerLoop #8, null' and covering 4.0 wgt'ed positive and 0.0 wgt'ed negative examples:
//    Wgt'ed recall = 0.563, precision = 0.976, and F1 = 0.714 - learned after 261 total and 146 acceptable nodes.  Node score = -0.3193353224509687

 FOR active(a) IF (hetero_aromatic_6_ring(a, anon213017), atm(a, anon239391, N, 38, anon239397), bond(a, anon244203, anon239391, 1)) THEN output = 0.052396 ELSE output = -0.256176;

// Best in (weighted) recall bin #12, (0.6, 0.65], from 'outerLoop #8, null' and covering 20.0 wgt'ed positive and 0.0 wgt'ed negative examples:
//    Wgt'ed recall = 0.604, precision = 0.995, and F1 = 0.752 - learned after 187 total and 65 acceptable nodes.  Node score = -2.673283528685697

 FOR active(a) IF (atm(a, anon861643, C, 22, anon861649), bond(a, anon864291, anon861643, 1)) THEN output = 0.038719 ELSE output = -0.020813;

// Best in (weighted) recall bin #13, (0.65, 0.7], from 'outerLoop #8, null' and covering 8.0 wgt'ed positive and 0.0 wgt'ed negative examples:
//    Wgt'ed recall = 0.661, precision = 0.988, and F1 = 0.792 - learned after 283 total and 204 acceptable nodes.  Node score = -1.2520874965093598

 FOR active(a) IF (atm(a, anon575979, C, 22, anon575985), bond(a, anon578049, anon575979, 1), atm(a, anon587733, C, 22, anon575985), bond(a, anon587733, anon575979, 7)) THEN output = 0.132404 ELSE output = -0.098484;

// Best in (weighted) recall bin #14, (0.7, 0.75], from 'outerLoop #8, null' and covering 24.0 wgt'ed positive and 0.0 wgt'ed negative examples:
//    Wgt'ed recall = 0.704, precision = 0.996, and F1 = 0.825 - learned after 148 total and 68 acceptable nodes.  Node score = -2.1029753682639596

 FOR active(a) IF (ring_size_5(a, anon739077), benzene(a, anon739809), atm(a, anon767021, C, 10, anon767027), benzene(a, anon769887)) THEN output = 0.022869 ELSE output = -0.012492;

// Best in (weighted) recall bin #15, (0.75, 0.8], from 'outerLoop #8, null' and covering 80.0 wgt'ed positive and 0.0 wgt'ed negative examples:
//    Wgt'ed recall = 0.799, precision = 0.999, and F1 = 0.888 - learned after 17 total and 2 acceptable nodes.  Node score = -Infinity

 FOR active(a) IF (hetero_aromatic_5_ring(a, anon923185), methyl(a, anon931569), benzene(a, anon995219)) THEN output = -2.757298 ELSE output = -1.637101;

// Best in (weighted) recall bin #16, (0.8, 0.85], from 'outerLoop #8, null' and covering 6.0 wgt'ed positive and 0.0 wgt'ed negative examples:
//    Wgt'ed recall = 0.845, precision = 0.984, and F1 = 0.909 - learned after 260 total and 145 acceptable nodes.  Node score = -Infinity

 FOR active(a) IF (hetero_aromatic_6_ring(a, anon213017), atm(a, anon239391, N, 38, anon239397), bond(a, anon239391, anon244203, 2)) THEN output = -0.001060 ELSE output = -0.256176;
      /* FALSE NEG: active(D19) Actual Bool=false Prob=0.2561762932227542 Output=-0.2561762932227542 */

// Best in (weighted) recall bin #17, (0.85, 0.9], from 'outerLoop #8, null' and covering 20.0 wgt'ed positive and 0.0 wgt'ed negative examples:
//    Wgt'ed recall = 0.866, precision = 0.995, and F1 = 0.926 - learned after 341 total and 85 acceptable nodes.  Node score = -1.8635254052317438

 FOR active(a) IF (methyl(a, anon118855), methyl(a, anon119149), atm(a, anon147523, C, 10, anon147529), bond(a, anon154531, anon147523, 1)) THEN output = 0.011927 ELSE output = -0.135275;
      /* FALSE NEG: active(D78) Actual Bool=false Prob=0.12132399744969709 Output=-0.12132399744969709 */
      /* FALSE NEG: active(D55) Actual Bool=false Prob=0.16317724113265694 Output=-0.16317724113265694 */
      /* FALSE NEG: active(D7) Actual Bool=false Prob=0.12132399744969709 Output=-0.12132399744969709 */

// Best in (weighted) recall bin #18, (0.9, 0.95], from 'outerLoop #8, null' and covering 36.0 wgt'ed positive and 0.0 wgt'ed negative examples:
//    Wgt'ed recall = 0.921, precision = 0.997, and F1 = 0.957 - learned after 17 total and 0 acceptable nodes.  Node score = -3.332546509785797

 FOR active(a) IF (atm(a, anon774977, C, 29, anon774983), bond(a, anon775261, anon775263, 1), bond(a, anon774977, anon775261, 7), atm(a, anon775263, H, 3, anon803237), bond(a, anon804249, anon774977, 7)) THEN output = 0.056701 ELSE output = 0.105207;
      /* FALSE NEG: active(D44) Actual Bool=true Prob=0.8550454723507586 Output=0.14495452764924144 */
      /* FALSE NEG: active(D187) Actual Bool=true Prob=0.864373503802709 Output=0.13562649619729095 */
      /* FALSE NEG: active(D109) Actual Bool=true Prob=0.9649605066665576 Output=0.03503949333344236 */

// Best in (weighted) recall bin #19, (0.95, 1.01], from 'outerLoop #8, null' and covering 12.0 wgt'ed positive and 0.0 wgt'ed negative examples:
//    Wgt'ed recall = 0.992, precision = 0.992, and F1 = 0.992 - learned after 1 total and 0 acceptable nodes.  Node score = -4.552738869363977

 FOR active(a) IF (atm(a, anon575979, C, 22, anon575985), bond(a, anon578049, anon575979, 1)) THEN output = 0.021507 ELSE output = -0.028352;


////////////////////////////////////////////////////////////////////////////////
////
////     Gleaner for: outerLoop #9, null
////
////////////////////////////////////////////////////////////////////////////////

// Best in (weighted) recall bin #0, (-Infinity, 0.05], from 'outerLoop #9, null' and covering 5.0 wgt'ed positive and 0.0 wgt'ed negative examples:
//    Wgt'ed recall = 0.047, precision = 0.980, and F1 = 0.089 - learned after 29 total and 12 acceptable nodes.  Node score = -7.358792185746458

 FOR active(a) IF (hetero_aromatic_5_ring(a, anon538991), benzene(a, anon539279)) THEN output = 0.020310 ELSE output = 0.111271;

// Best in (weighted) recall bin #1, (0.05, 0.1], from 'outerLoop #9, null' and covering 7.0 wgt'ed positive and 0.0 wgt'ed negative examples:
//    Wgt'ed recall = 0.065, precision = 0.986, and F1 = 0.123 - learned after 15 total and 3 acceptable nodes.  Node score = -7.449214017676289

 FOR active(a) IF (carbon_5_aromatic_ring(a, anon538985)) THEN output = 0.123861 ELSE output = 0.103422;

// Best in (weighted) recall bin #2, (0.1, 0.15], from 'outerLoop #9, null' and covering 17.0 wgt'ed positive and 0.0 wgt'ed negative examples:
//    Wgt'ed recall = 0.146, precision = 0.994, and F1 = 0.255 - learned after 14 total and 2 acceptable nodes.  Node score = -9.195936443327824

 FOR active(a) IF (carbon_6_ring(a, anon491915)) THEN output = 0.143343 ELSE output = 0.087449;

// Best in (weighted) recall bin #3, (0.15, 0.2], from 'outerLoop #9, null' and covering 17.0 wgt'ed positive and 0.0 wgt'ed negative examples:
//    Wgt'ed recall = 0.159, precision = 0.994, and F1 = 0.274 - learned after 16 total and 4 acceptable nodes.  Node score = -7.452667510876587

 FOR active(a) IF (carbon_6_ring(a, anon538987)) THEN output = 0.130934 ELSE output = 0.096071;

// Best in (weighted) recall bin #4, (0.2, 0.25], from 'outerLoop #9, null' and covering 3.0 wgt'ed positive and 0.0 wgt'ed negative examples:
//    Wgt'ed recall = 0.213, precision = 0.968, and F1 = 0.349 - learned after 102 total and 58 acceptable nodes.  Node score = -0.35986351025919294

 FOR active(a) IF (atm(a, anon315989, C, 27, anon315995), carbon_6_ring(a, anon316897), atm(a, anon344191, C, 10, anon315995), phenanthrene(a, anon345711)) THEN output = 0.021647 ELSE output = 0.029408;

// Best in (weighted) recall bin #5, (0.25, 0.3], from 'outerLoop #9, null' and covering 4.0 wgt'ed positive and 0.0 wgt'ed negative examples:
//    Wgt'ed recall = 0.284, precision = 0.976, and F1 = 0.440 - learned after 120 total and 76 acceptable nodes.  Node score = -0.3851998617410597

 FOR active(a) IF (atm(a, anon315989, C, 27, anon315995), carbon_6_ring(a, anon316897), atm(a, anon344191, C, 22, anon315995), bond(a, anon344191, anon315989, 7)) THEN output = 0.172621 ELSE output = 0.032117;

// Best in (weighted) recall bin #6, (0.3, 0.35], from 'outerLoop #9, null' and covering 6.0 wgt'ed positive and 0.0 wgt'ed negative examples:
//    Wgt'ed recall = 0.331, precision = 0.984, and F1 = 0.496 - learned after 219 total and 138 acceptable nodes.  Node score = -1.583646754271989

 FOR active(a) IF (atm(a, anon595851, H, 3, anon595857), hetero_aromatic_5_ring(a, anon599019)) THEN output = -0.000607 ELSE output = -0.078051;

// Best in (weighted) recall bin #7, (0.35, 0.4], from 'outerLoop #9, null' and covering 5.0 wgt'ed positive and 0.0 wgt'ed negative examples:
//    Wgt'ed recall = 0.355, precision = 0.980, and F1 = 0.521 - learned after 37 total and 23 acceptable nodes.  Node score = -0.3347494595363434

 FOR active(a) IF (atm(a, anon315989, C, 27, anon315995), carbon_6_ring(a, anon316897), phenanthrene(a, anon344225)) THEN output = 0.015234 ELSE output = 0.045912;

// Best in (weighted) recall bin #9, (0.45, 0.5], from 'outerLoop #9, null' and covering 7.0 wgt'ed positive and 0.0 wgt'ed negative examples:
//    Wgt'ed recall = 0.496, precision = 0.986, and F1 = 0.660 - learned after 103 total and 59 acceptable nodes.  Node score = -0.32233049548557524

 FOR active(a) IF (atm(a, anon315989, C, 27, anon315995), carbon_6_ring(a, anon316897), atm(a, anon344191, C, 10, anon315995), ball3(a, anon345713)) THEN output = 0.010804 ELSE output = 0.040302;

// Best in (weighted) recall bin #10, (0.5, 0.55], from 'outerLoop #9, null' and covering 11.0 wgt'ed positive and 0.0 wgt'ed negative examples:
//    Wgt'ed recall = 0.547, precision = 0.991, and F1 = 0.705 - learned after 235 total and 81 acceptable nodes.  Node score = -1.5755381097474939

 FOR active(a) IF (atm(a, anon861643, C, 22, anon861649), bond(a, anon864291, anon861643, 1), atm(a, anon865401, C, 22, anon861649), bond(a, anon861643, anon865401, 7)) THEN output = 0.098288 ELSE output = 0.020381;

// Best in (weighted) recall bin #11, (0.55, 0.6], from 'outerLoop #9, null' and covering 8.0 wgt'ed positive and 0.0 wgt'ed negative examples:
//    Wgt'ed recall = 0.567, precision = 0.988, and F1 = 0.721 - learned after 118 total and 74 acceptable nodes.  Node score = -0.36064175158613904

 FOR active(a) IF (atm(a, anon315989, C, 27, anon315995), carbon_6_ring(a, anon316897), atm(a, anon344191, C, 22, anon315995), bond(a, anon344191, anon346703, 7)) THEN output = 0.026338 ELSE output = 0.032561;

// Best in (weighted) recall bin #12, (0.6, 0.65], from 'outerLoop #9, null' and covering 9.0 wgt'ed positive and 0.0 wgt'ed negative examples:
//    Wgt'ed recall = 0.638, precision = 0.989, and F1 = 0.776 - learned after 322 total and 209 acceptable nodes.  Node score = -0.33847430647053434

 FOR active(a) IF (atm(a, anon315989, C, 27, anon315995), carbon_6_ring(a, anon316897), atm(a, anon344191, C, 27, anon315995), bond(a, anon315989, anon344191, 7)) THEN output = 0.081618 ELSE output = 0.038111;

// Best in (weighted) recall bin #13, (0.65, 0.7], from 'outerLoop #9, null' and covering 14.0 wgt'ed positive and 0.0 wgt'ed negative examples:
//    Wgt'ed recall = 0.697, precision = 0.993, and F1 = 0.819 - learned after 241 total and 84 acceptable nodes.  Node score = -1.0348457327055187

 FOR active(a) IF (atm(a, anon861643, C, 22, anon861649), bond(a, anon864291, anon861643, 1), atm(a, anon865401, C, 22, anon861649), bond(a, anon865401, anon861643, 7)) THEN output = 0.093510 ELSE output = -0.176317;

// Best in (weighted) recall bin #14, (0.7, 0.75], from 'outerLoop #9, null' and covering 10.0 wgt'ed positive and 0.0 wgt'ed negative examples:
//    Wgt'ed recall = 0.709, precision = 0.990, and F1 = 0.826 - learned after 77 total and 46 acceptable nodes.  Node score = -0.3275164875903815

 FOR active(a) IF (atm(a, anon315989, C, 27, anon315995), carbon_6_ring(a, anon316897), atm(a, anon344191, C, 10, anon315995), bond(a, anon315989, anon345685, 7)) THEN output = 0.018546 ELSE output = 0.027740;

// Best in (weighted) recall bin #15, (0.75, 0.8], from 'outerLoop #9, null' and covering 16.0 wgt'ed positive and 0.0 wgt'ed negative examples:
//    Wgt'ed recall = 0.796, precision = 0.994, and F1 = 0.884 - learned after 240 total and 83 acceptable nodes.  Node score = -1.2879227060485763

 FOR active(a) IF (atm(a, anon861643, C, 22, anon861649), bond(a, anon864291, anon861643, 1), atm(a, anon865401, C, 22, anon861649), bond(a, anon865401, anon871253, 1)) THEN output = 0.020917 ELSE output = -0.249384;

// Best in (weighted) recall bin #17, (0.85, 0.9], from 'outerLoop #9, null' and covering 8.0 wgt'ed positive and 0.0 wgt'ed negative examples:
//    Wgt'ed recall = 0.879, precision = 0.988, and F1 = 0.930 - learned after 216 total and 144 acceptable nodes.  Node score = -Infinity

 FOR active(a) IF (atm(a, anon283053, CL, 93, anon283059), atm(a, anon286139, N, 38, anon286145), bond(a, anon290881, anon286139, 1)) THEN output = -0.066070 ELSE output = -0.361975;
      /* FALSE NEG: active(D76) Actual Bool=false Prob=0.361974984054536 Output=-0.361974984054536 */

// Best in (weighted) recall bin #18, (0.9, 0.95], from 'outerLoop #9, null' and covering 17.0 wgt'ed positive and 0.0 wgt'ed negative examples:
//    Wgt'ed recall = 0.939, precision = 0.994, and F1 = 0.966 - learned after 4 total and 2 acceptable nodes.  Node score = -Infinity

 FOR active(a) IF (atm(a, anon595851, C, 22, anon595857)) THEN output = -0.028293 ELSE output = -0.064123;
      /* FALSE NEG: active(D150) Actual Bool=false Prob=0.064123424754684 Output=-0.064123424754684 */

// Best in (weighted) recall bin #19, (0.95, 1.01], from 'outerLoop #9, null' and covering 9.0 wgt'ed positive and 0.0 wgt'ed negative examples:
//    Wgt'ed recall = 0.989, precision = 0.989, and F1 = 0.989 - learned after 1 total and 0 acceptable nodes.  Node score = -3.425522767405481

 FOR active(a) IF (atm(a, anon634011, CL, 93, anon634017)) THEN output = -0.059847 ELSE output = -0.052902;


////////////////////////////////////////////////////////////////////////////////
////
////     Gleaner for: outerLoop #10, null
////
////////////////////////////////////////////////////////////////////////////////

// Best in (weighted) recall bin #0, (-Infinity, 0.05], from 'outerLoop #10, null' and covering 5.0 wgt'ed positive and 0.0 wgt'ed negative examples:
//    Wgt'ed recall = 0.049, precision = 0.980, and F1 = 0.093 - learned after 52 total and 30 acceptable nodes.  Node score = -6.364722545360297

 FOR active(a) IF (atm(a, anon542395, C, 195, anon542401), ball3(a, anon542713)) THEN output = 0.021752 ELSE output = 0.107843;

// Best in (weighted) recall bin #1, (0.05, 0.1], from 'outerLoop #10, null' and covering 5.0 wgt'ed positive and 0.0 wgt'ed negative examples:
//    Wgt'ed recall = 0.067, precision = 0.980, and F1 = 0.125 - learned after 272 total and 188 acceptable nodes.  Node score = -3.0580026576395314

 FOR active(a) IF (atm(a, anon599849, C, 27, anon599855), bond(a, anon599849, anon600145, 7), methyl(a, anon648487), benzene(a, anon655505)) THEN output = 0.010844 ELSE output = 0.012735;

// Best in (weighted) recall bin #2, (0.1, 0.15], from 'outerLoop #10, null' and covering 11.0 wgt'ed positive and 0.0 wgt'ed negative examples:
//    Wgt'ed recall = 0.146, precision = 0.991, and F1 = 0.255 - learned after 162 total and 108 acceptable nodes.  Node score = -3.1485404228962515

 FOR active(a) IF (atm(a, anon599849, C, 27, anon599855), bond(a, anon599849, anon600145, 7), atm(a, anon648457, C, 28, anon648463), bond(a, anon648457, anon600145, 1)) THEN output = 0.088191 ELSE output = 0.012493;

// Best in (weighted) recall bin #3, (0.15, 0.2], from 'outerLoop #10, null' and covering 13.0 wgt'ed positive and 0.0 wgt'ed negative examples:
//    Wgt'ed recall = 0.173, precision = 0.992, and F1 = 0.295 - learned after 7 total and 1 acceptable nodes.  Node score = -3.148071110835132

 FOR active(a) IF (atm(a, anon599849, C, 27, anon599855), bond(a, anon599849, anon600145, 7), atm(a, anon600145, C, 28, anon648463)) THEN output = 0.088501 ELSE output = 0.012437;

// Best in (weighted) recall bin #4, (0.2, 0.25], from 'outerLoop #10, null' and covering 17.0 wgt'ed positive and 0.0 wgt'ed negative examples:
//    Wgt'ed recall = 0.226, precision = 0.994, and F1 = 0.369 - learned after 92 total and 50 acceptable nodes.  Node score = -3.11757377383504

 FOR active(a) IF (atm(a, anon599849, C, 27, anon599855), bond(a, anon599849, anon600145, 7), bond(a, anon648465, anon600145, 1), nitro(a, anon649911)) THEN output = 0.053422 ELSE output = 0.012457;

// Best in (weighted) recall bin #5, (0.25, 0.3], from 'outerLoop #10, null' and covering 22.0 wgt'ed positive and 0.0 wgt'ed negative examples:
//    Wgt'ed recall = 0.293, precision = 0.995, and F1 = 0.453 - learned after 263 total and 184 acceptable nodes.  Node score = -3.1599073564902467

 FOR active(a) IF (atm(a, anon599849, C, 27, anon599855), bond(a, anon599849, anon600145, 7), ring_size_5(a, anon648483), nitro(a, anon654377)) THEN output = 0.013687 ELSE output = 0.012424;

// Best in (weighted) recall bin #6, (0.3, 0.35], from 'outerLoop #10, null' and covering 34.0 wgt'ed positive and 0.0 wgt'ed negative examples:
//    Wgt'ed recall = 0.333, precision = 0.997, and F1 = 0.499 - learned after 19 total and 4 acceptable nodes.  Node score = -6.518724384276327

 FOR active(a) IF (ring_size_5(a, anon542421)) THEN output = 0.134087 ELSE output = 0.099863;

// Best in (weighted) recall bin #7, (0.35, 0.4], from 'outerLoop #10, null' and covering 28.0 wgt'ed positive and 0.0 wgt'ed negative examples:
//    Wgt'ed recall = 0.373, precision = 0.996, and F1 = 0.543 - learned after 38 total and 15 acceptable nodes.  Node score = -3.407879636301873

 FOR active(a) IF (atm(a, anon599849, C, 27, anon599855), bond(a, anon599849, anon600145, 7), ball3(a, anon648493)) THEN output = 0.003368 ELSE output = 0.010857;

// Best in (weighted) recall bin #11, (0.55, 0.6], from 'outerLoop #10, null' and covering 67.0 wgt'ed positive and 0.0 wgt'ed negative examples:
//    Wgt'ed recall = 0.572, precision = 0.999, and F1 = 0.727 - learned after 5 total and 0 acceptable nodes.  Node score = -9.543934863396483

 FOR active(a) IF (atm(a, anon292479, C, 27, anon292485)) THEN output = 0.049113 ELSE output = 0.175391;

// Best in (weighted) recall bin #12, (0.6, 0.65], from 'outerLoop #10, null' and covering 64.0 wgt'ed positive and 0.0 wgt'ed negative examples:
//    Wgt'ed recall = 0.627, precision = 0.998, and F1 = 0.770 - learned after 173 total and 97 acceptable nodes.  Node score = -6.728043226651323

 FOR active(a) IF (atm(a, anon542395, C, 27, anon542401), bond(a, anon542395, anon544983, 7)) THEN output = 0.016059 ELSE output = 0.084511;

// Best in (weighted) recall bin #19, (0.95, 1.01], from 'outerLoop #10, null' and covering 74.0 wgt'ed positive and 0.0 wgt'ed negative examples:
//    Wgt'ed recall = 0.985, precision = 0.999, and F1 = 0.992 - learned after 5 total and 0 acceptable nodes.  Node score = -Infinity

 FOR active(a) IF (atm(a, anon599849, C, 27, anon599855), bond(a, anon599849, anon600145, 7), atm(a, anon600145, C, 27, anon648463)) THEN output = 0.022984 ELSE output = 0.056236;
      /* FALSE NEG: active(D58) Actual Bool=true Prob=0.7750578224050645 Output=0.2249421775949355 */


////////////////////////////////////////////////////////////////////////////////
////
////     Gleaner for: outerLoop #11, null
////
////////////////////////////////////////////////////////////////////////////////

// Best in (weighted) recall bin #9, (0.45, 0.5], from 'outerLoop #11, null' and covering 5.0 wgt'ed positive and 0.0 wgt'ed negative examples:
//    Wgt'ed recall = 0.495, precision = 0.980, and F1 = 0.658 - learned after 54 total and 40 acceptable nodes.  Node score = -0.6732934656098152

 FOR active(a) IF (atm(a, anon245277, C, 21, anon245283), hetero_aromatic_5_ring(a, anon247017), atm(a, anon296205, H, 1, anon296211), bond(a, anon297033, anon245277, 7)) THEN output = -0.131488 ELSE output = -0.078253;

// Best in (weighted) recall bin #11, (0.55, 0.6], from 'outerLoop #11, null' and covering 6.0 wgt'ed positive and 0.0 wgt'ed negative examples:
//    Wgt'ed recall = 0.594, precision = 0.984, and F1 = 0.741 - learned after 346 total and 222 acceptable nodes.  Node score = -0.6673675088842796

 FOR active(a) IF (atm(a, anon245277, C, 21, anon245283), hetero_aromatic_5_ring(a, anon247017), atm(a, anon296205, C, 26, anon296211), methyl(a, anon304273)) THEN output = -0.088794 ELSE output = -0.040604;

// Best in (weighted) recall bin #13, (0.65, 0.7], from 'outerLoop #11, null' and covering 7.0 wgt'ed positive and 0.0 wgt'ed negative examples:
//    Wgt'ed recall = 0.693, precision = 0.986, and F1 = 0.814 - learned after 35 total and 24 acceptable nodes.  Node score = -0.7409327218277287

 FOR active(a) IF (atm(a, anon245277, C, 21, anon245283), hetero_aromatic_5_ring(a, anon247017), methyl(a, anon296235)) THEN output = -0.091413 ELSE output = -0.091168;

// Best in (weighted) recall bin #17, (0.85, 0.9], from 'outerLoop #11, null' and covering 9.0 wgt'ed positive and 0.0 wgt'ed negative examples:
//    Wgt'ed recall = 0.891, precision = 0.989, and F1 = 0.938 - learned after 6 total and 5 acceptable nodes.  Node score = -Infinity

 FOR active(a) IF (atm(a, anon245277, C, 21, anon245283), hetero_aromatic_5_ring(a, anon247017), atm(a, anon296205, C, 22, anon296211)) THEN output = -0.037195 ELSE output = -0.033963;
      /* FALSE NEG: active(D150) Actual Bool=false Prob=0.10188845647192198 Output=-0.10188845647192198 */

// Best in (weighted) recall bin #19, (0.95, 1.01], from 'outerLoop #11, null' and covering 10.0 wgt'ed positive and 0.0 wgt'ed negative examples:
//    Wgt'ed recall = 0.990, precision = 0.990, and F1 = 0.990 - learned after 1 total and 0 acceptable nodes.  Node score = -17.30170772298727

 FOR active(a) IF (atm(a, anon245277, C, 21, anon245283), hetero_aromatic_5_ring(a, anon247017)) THEN output = -0.091372 ELSE output = 0.151679;

