digraph G{ 
1[label = "[phenanthrene(a, b)]"];
1 -> 2[label="True"];
1 -> 3[label="False"];
2[shape = box,label = "5.015(0.993)"];
3[label = "[ring_size_5(a, c), benzene(a, d)]"];
3 -> 4[label="True"];
3 -> 5[label="False"];
4[label = "[methyl(a, e), hetero_aromatic_5_ring(a, c)]"];
4 -> 6[label="True"];
4 -> 7[label="False"];
6[shape = box,label = "-2.128(0.106)"];
7[label = "[atm(a, f, C, 21, g), hetero_aromatic_5_ring(a, c)]"];
7 -> 8[label="True"];
7 -> 9[label="False"];
8[shape = box,label = "0.618(0.650)"];
9[shape = box,label = "4.683(0.991)"];
5[label = "[carbon_6_ring(a, h)]"];
5 -> 10[label="True"];
5 -> 11[label="False"];
10[shape = box,label = "5.092(0.994)"];
11[label = "[methyl(a, i)]"];
11 -> 12[label="True"];
11 -> 13[label="False"];
12[shape = box,label = "-2.042(0.115)"];
13[label = "[anthracene(a, j)]"];
13 -> 14[label="True"];
13 -> 15[label="False"];
14[shape = box,label = "7.693(1.000)"];
15[label = "[atm(a, k, C, 16, m), benzene(a, n)]"];
15 -> 16[label="True"];
15 -> 17[label="False"];
16[shape = box,label = "-5.690(0.003)"];
17[shape = box,label = "1.097(0.750)"];
}
