digraph G{ 
1[label = "[atm(a, b, C, 27, c)]"];
1 -> 2[label="True"];
1 -> 3[label="False"];
2[label = "[hetero_aromatic_6_ring(a, d)]"];
2 -> 4[label="True"];
2 -> 5[label="False"];
4[label = "[atm(a, e, C, 22, f), bond(a, g, e, 1)]"];
4 -> 6[label="True"];
4 -> 7[label="False"];
6[shape = box,label = "-0.142(0.465)"];
7[shape = box,label = "0.108(0.527)"];
5[shape = box,label = "0.785(0.687)"];
3[label = "[atm(a, h, C, 29, i), ring_size_5(a, j)]"];
3 -> 8[label="True"];
3 -> 9[label="False"];
8[shape = box,label = "0.803(0.691)"];
9[label = "[methyl(a, k)]"];
9 -> 10[label="True"];
9 -> 11[label="False"];
10[shape = box,label = "-0.075(0.481)"];
11[label = "[carbon_6_ring(a, m)]"];
11 -> 12[label="True"];
11 -> 13[label="False"];
12[shape = box,label = "0.858(0.702)"];
13[label = "[atm(a, n, CL, 93, p), bond(a, q, n, 1)]"];
13 -> 14[label="True"];
13 -> 15[label="False"];
14[shape = box,label = "-0.142(0.465)"];
15[label = "[atm(a, r, N, 32, s), benzene(a, t)]"];
15 -> 16[label="True"];
15 -> 17[label="False"];
16[shape = box,label = "0.247(0.561)"];
17[shape = box,label = "0.452(0.611)"];
}
