digraph G{ 
1[label = "[methyl(a, b)]"];
1 -> 2[label="True"];
1 -> 3[label="False"];
2[shape = box,label = "0.025(0.506)"];
3[label = "[atm(a, c, C, 27, d)]"];
3 -> 4[label="True"];
3 -> 5[label="False"];
4[shape = box,label = "0.385(0.595)"];
5[label = "[atm(a, e, C, 22, f), bond(a, g, e, 1)]"];
5 -> 6[label="True"];
5 -> 7[label="False"];
6[label = "[atm(a, h, N, 32, i), atm(a, j, O, 40, i)]"];
6 -> 8[label="True"];
6 -> 9[label="False"];
8[shape = box,label = "0.644(0.656)"];
9[label = "[atm(a, g, C, 10, k)]"];
9 -> 10[label="True"];
9 -> 11[label="False"];
10[shape = box,label = "0.469(0.615)"];
11[shape = box,label = "0.153(0.538)"];
7[label = "[atm(a, m, C, 16, n)]"];
7 -> 12[label="True"];
7 -> 13[label="False"];
12[shape = box,label = "0.538(0.631)"];
13[label = "[atm(a, p, C, 29, q)]"];
13 -> 14[label="True"];
13 -> 15[label="False"];
14[label = "[atm(a, r, N, 32, s)]"];
14 -> 16[label="True"];
14 -> 17[label="False"];
16[shape = box,label = "0.152(0.538)"];
17[shape = box,label = "0.323(0.580)"];
15[shape = box,label = "-0.031(0.492)"];
}
