pos, 0.5526792082886874, active(D46)
pos, 0.5526792082886874, active(D52)
pos, 0.5485036584052253, active(D57)
pos, 0.7264626107173962, active(D80)
pos, 0.7264626107173962, active(D82)
pos, 0.5439256887731644, active(D125)
pos, 0.7264626107173962, active(D152)
pos, 0.2698228552171162, active(D169)
pos, 0.5374574440835791, active(D21)
pos, 0.7291139775228578, active(D22)
pos, 0.7264626107173962, active(D108)
pos, 0.5391345040049866, active(D180)
neg, 0.4999661878939155, active(D119)
neg, 0.5559193234196217, active(D34)
neg, 0.5559193234196217, active(D65)
neg, 0.25242674919170766, active(D66)
neg, 0.5136748837461261, active(D143)
neg, 0.5972787939832455, active(D154)
neg, 0.12496694819645086, active(D181)

