digraph G{ 
1[label = "[atm(a, b, C, 22, c), atm(a, d, Natm, 36, e)]"];
1 -> 2[label="True"];
1 -> 3[label="False"];
2[shape = box,label = "-0.021(0.495)"];
3[label = "[ar_halide(a, f), non_ar_hetero_5_ring(a, g)]"];
3 -> 4[label="True"];
3 -> 5[label="False"];
4[shape = box,label = "-0.006(0.498)"];
5[label = "[alkyl_halide(a, h), has_property(a, Cytogen_sce, N)]"];
5 -> 6[label="True"];
5 -> 7[label="False"];
6[shape = box,label = "-0.065(0.484)"];
7[label = "[has_property(a, Mouse_lymph, P), atm(a, i, C, 22, j)]"];
7 -> 8[label="True"];
7 -> 9[label="False"];
8[label = "[ind(a, Di10, k), has_property(a, Cytogen_sce, N)]"];
8 -> 10[label="True"];
8 -> 11[label="False"];
10[shape = box,label = "0.029(0.507)"];
11[label = "[atm(a, m, O, 40, n), has_property(a, Salmonella_n, P)]"];
11 -> 12[label="True"];
11 -> 13[label="False"];
12[shape = box,label = "0.010(0.502)"];
13[shape = box,label = "-0.005(0.499)"];
9[label = "[has_property(a, Chromaberr, N), has_property(a, Cytogen_ca, N)]"];
9 -> 14[label="True"];
9 -> 15[label="False"];
14[shape = box,label = "0.263(0.565)"];
15[label = "[ames(a), amine(a, p)]"];
15 -> 16[label="True"];
15 -> 17[label="False"];
16[shape = box,label = "0.114(0.529)"];
17[shape = box,label = "0.033(0.508)"];
}
