digraph G{ 
1[label = "[atm(a, b, H, 1, c), ring_size_6(a, d)]"];
1 -> 2[label="True"];
1 -> 3[label="False"];
2[label = "[atm(a, e, N, 32, f), ring_size_6(a, g)]"];
2 -> 4[label="True"];
2 -> 5[label="False"];
4[label = "[ring_size_5(a, h)]"];
4 -> 6[label="True"];
4 -> 7[label="False"];
6[shape = box,label = "0.025(0.506)"];
7[shape = box,label = "0.009(0.502)"];
5[shape = box,label = "-0.036(0.491)"];
3[label = "[methyl(a, i), nitro(a, j)]"];
3 -> 8[label="True"];
3 -> 9[label="False"];
8[shape = box,label = "-0.037(0.491)"];
9[label = "[hetero_aromatic_6_ring(a, k), hetero_aromatic_6_ring(a, m)]"];
9 -> 10[label="True"];
9 -> 11[label="False"];
10[shape = box,label = "0.023(0.506)"];
11[label = "[atm(a, n, CL, 93, p), bond(a, q, n, 1)]"];
11 -> 12[label="True"];
11 -> 13[label="False"];
12[label = "[atm(a, r, O, 50, s), atm(a, t, CL, 93, p)]"];
12 -> 14[label="True"];
12 -> 15[label="False"];
14[shape = box,label = "-0.005(0.499)"];
15[shape = box,label = "-0.120(0.470)"];
13[label = "[atm(a, u, C, 14, v), atm(a, w, O, 40, x)]"];
13 -> 16[label="True"];
13 -> 17[label="False"];
16[shape = box,label = "0.029(0.507)"];
17[shape = box,label = "0.228(0.557)"];
}
