digraph G{ 
1[label = "[methyl(a, b), hetero_aromatic_5_ring(a, c)]"];
1 -> 2[label="True"];
1 -> 3[label="False"];
2[shape = box,label = "-3.113(0.043)"];
3[label = "[hetero_aromatic_6_ring(a, d), methyl(a, e)]"];
3 -> 4[label="True"];
3 -> 5[label="False"];
4[shape = box,label = "-1.849(0.136)"];
5[label = "[atm(a, f, O, 52, g), atm(a, h, H, 3, i)]"];
5 -> 6[label="True"];
5 -> 7[label="False"];
6[shape = box,label = "0.937(0.719)"];
7[label = "[carbon_5_aromatic_ring(a, j), anthracene(a, k)]"];
7 -> 8[label="True"];
7 -> 9[label="False"];
8[label = "[atm(a, m, C, 22, n), bond(a, p, m, 1)]"];
8 -> 10[label="True"];
8 -> 11[label="False"];
10[shape = box,label = "4.047(0.983)"];
11[label = "[atm(a, q, C, 26, r), atm(a, s, C, 21, r)]"];
11 -> 12[label="True"];
11 -> 13[label="False"];
12[shape = box,label = "2.041(0.885)"];
13[shape = box,label = "4.104(0.984)"];
9[label = "[carbon_5_aromatic_ring(a, t)]"];
9 -> 14[label="True"];
9 -> 15[label="False"];
14[shape = box,label = "6.623(0.999)"];
15[label = "[atm(a, u, C, 28, v), atm(a, w, C, 29, v)]"];
15 -> 16[label="True"];
15 -> 17[label="False"];
16[shape = box,label = "1.450(0.810)"];
17[shape = box,label = "2.912(0.948)"];
}
