digraph G{ 
1[label = "[student(a), professor(b)]"];
1 -> 2[label="True"];
1 -> 3[label="False"];
2[label = "[publication(c, a), publication(c, b)]"];
2 -> 4[label="True"];
2 -> 5[label="False"];
4[label = "[ta(d, a, e), taughtBy(d, b, e)]"];
4 -> 6[label="True"];
4 -> 7[label="False"];
6[label = "[inPhase(a, Post_Generals), publication(c, f)]"];
6 -> 8[label="True"];
6 -> 9[label="False"];
8[shape = box,label = "0.112(0.528)"];
9[shape = box,label = "0.221(0.555)"];
7[label = "[yearsInProgram(a, Year_6), tempAdvisedBy(g, b)]"];
7 -> 10[label="True"];
7 -> 11[label="False"];
10[label = "[yearsInProgram(g, Year_1)]"];
10 -> 12[label="True"];
10 -> 13[label="False"];
12[shape = box,label = "0.180(0.545)"];
13[shape = box,label = "0.046(0.511)"];
11[label = "[publication(c, h), inPhase(h, Post_Generals)]"];
11 -> 14[label="True"];
11 -> 15[label="False"];
14[label = "[inPhase(a, Post_Generals)]"];
14 -> 16[label="True"];
14 -> 17[label="False"];
16[shape = box,label = "0.086(0.521)"];
17[shape = box,label = "-0.068(0.483)"];
15[shape = box,label = "0.098(0.524)"];
5[shape = box,label = "-0.017(0.496)"];
3[shape = box,label = "-0.125(0.469)"];
}
