digraph G{ 
1[label = "[professor(b), student(a)]"];
1 -> 2[label="True"];
1 -> 3[label="False"];
2[label = "[publication(c, a), publication(c, b)]"];
2 -> 4[label="True"];
2 -> 5[label="False"];
4[label = "[ta(d, a, e), taughtBy(d, b, e)]"];
4 -> 6[label="True"];
4 -> 7[label="False"];
6[label = "[publication(c, f), yearsInProgram(f, Year_4)]"];
6 -> 8[label="True"];
6 -> 9[label="False"];
8[shape = box,label = "0.278(0.569)"];
9[shape = box,label = "0.119(0.530)"];
7[label = "[yearsInProgram(a, Year_6), tempAdvisedBy(g, b)]"];
7 -> 10[label="True"];
7 -> 11[label="False"];
10[label = "[ta(h, g, i), taughtBy(h, j, i)]"];
10 -> 12[label="True"];
10 -> 13[label="False"];
12[shape = box,label = "0.089(0.522)"];
13[shape = box,label = "0.047(0.512)"];
11[label = "[ta(k, a, m), publication(n, a)]"];
11 -> 14[label="True"];
11 -> 15[label="False"];
14[shape = box,label = "0.014(0.504)"];
15[label = "[inPhase(a, Post_Generals), publication(c, p)]"];
15 -> 16[label="True"];
15 -> 17[label="False"];
16[shape = box,label = "0.043(0.511)"];
17[shape = box,label = "0.183(0.546)"];
5[shape = box,label = "-0.017(0.496)"];
3[shape = box,label = "-0.142(0.465)"];
}
