digraph G{ 
1[label = "[professor(b), student(a)]"];
1 -> 2[label="True"];
1 -> 3[label="False"];
2[label = "[ta(c, a, d), taughtBy(c, b, d)]"];
2 -> 4[label="True"];
2 -> 5[label="False"];
4[label = "[inPhase(a, Post_Quals), taughtBy(e, b, f)]"];
4 -> 6[label="True"];
4 -> 7[label="False"];
6[label = "[courseLevel(c, Level_400), taughtBy(g, b, h)]"];
6 -> 8[label="True"];
6 -> 9[label="False"];
8[label = "[yearsInProgram(a, Year_3), taughtBy(c, b, i)]"];
8 -> 10[label="True"];
8 -> 11[label="False"];
10[shape = box,label = "0.004(0.501)"];
11[shape = box,label = "0.008(0.502)"];
9[shape = box,label = "0.065(0.516)"];
7[label = "[courseLevel(c, Level_400), taughtBy(j, b, d)]"];
7 -> 12[label="True"];
7 -> 13[label="False"];
12[label = "[inPhase(a, Post_Generals), taughtBy(j, b, k)]"];
12 -> 14[label="True"];
12 -> 15[label="False"];
14[label = "[publication(m, a), ta(c, a, k)]"];
14 -> 16[label="True"];
14 -> 17[label="False"];
16[shape = box,label = "0.102(0.526)"];
17[shape = box,label = "0.223(0.555)"];
15[shape = box,label = "0.121(0.530)"];
13[shape = box,label = "0.018(0.505)"];
5[shape = box,label = "-0.029(0.493)"];
3[shape = box,label = "-0.073(0.482)"];
}
