digraph G{ 
1[label = "[professor(b), student(a)]"];
1 -> 2[label="True"];
1 -> 3[label="False"];
2[label = "[publication(c, a), publication(c, b)]"];
2 -> 4[label="True"];
2 -> 5[label="False"];
4[label = "[ta(d, a, e), tempAdvisedBy(f, b)]"];
4 -> 6[label="True"];
4 -> 7[label="False"];
6[shape = box,label = "0.042(0.511)"];
7[label = "[ta(g, a, h), publication(i, a)]"];
7 -> 8[label="True"];
7 -> 9[label="False"];
8[label = "[taughtBy(g, b, h), ta(g, j, k)]"];
8 -> 10[label="True"];
8 -> 11[label="False"];
10[shape = box,label = "0.011(0.503)"];
11[shape = box,label = "-0.015(0.496)"];
9[label = "[tempAdvisedBy(m, b), yearsInProgram(m, Year_2)]"];
9 -> 12[label="True"];
9 -> 13[label="False"];
12[label = "[publication(c, n), inPhase(m, Pre_Quals)]"];
12 -> 14[label="True"];
12 -> 15[label="False"];
14[shape = box,label = "0.009(0.502)"];
15[shape = box,label = "-0.012(0.497)"];
13[label = "[inPhase(a, Post_Generals)]"];
13 -> 16[label="True"];
13 -> 17[label="False"];
16[shape = box,label = "0.049(0.512)"];
17[shape = box,label = "0.187(0.547)"];
5[shape = box,label = "-0.016(0.496)"];
3[shape = box,label = "-0.085(0.479)"];
}
