digraph G{ 
1[label = "[inPhase(a, Post_Quals), professor(b)]"];
1 -> 2[label="True"];
1 -> 3[label="False"];
2[label = "[ta(c, a, d), taughtBy(c, b, d)]"];
2 -> 4[label="True"];
2 -> 5[label="False"];
4[label = "[courseLevel(c, Level_400), taughtBy(e, b, f)]"];
4 -> 6[label="True"];
4 -> 7[label="False"];
6[label = "[tempAdvisedBy(g, b), ta(e, h, f)]"];
6 -> 8[label="True"];
6 -> 9[label="False"];
8[shape = box,label = "0.037(0.509)"];
9[shape = box,label = "0.038(0.509)"];
7[shape = box,label = "0.309(0.577)"];
5[label = "[publication(i, b), taughtBy(j, b, k)]"];
5 -> 10[label="True"];
5 -> 11[label="False"];
10[shape = box,label = "-0.000(0.500)"];
11[label = "[publication(m, b), ta(n, a, p)]"];
11 -> 12[label="True"];
11 -> 13[label="False"];
12[label = "[tempAdvisedBy(q, b), ta(r, a, s)]"];
12 -> 14[label="True"];
12 -> 15[label="False"];
14[shape = box,label = "0.002(0.500)"];
15[shape = box,label = "0.010(0.503)"];
13[label = "[yearsInProgram(a, Year_3)]"];
13 -> 16[label="True"];
13 -> 17[label="False"];
16[shape = box,label = "-0.103(0.474)"];
17[shape = box,label = "0.032(0.508)"];
3[shape = box,label = "-0.038(0.490)"];
}
