pos, 0.17971232817408705, christian_religion("H")
pos, 0.7911103267812569, christian_religion("V")
pos, 0.4566421963308386, christian_religion("C")
pos, 0.35818086145370703, christian_religion("BI")
pos, 0.4566421963308386, christian_religion("SLO")
pos, 0.5704251606429152, christian_religion("G")
pos, 0.4566421963308386, christian_religion("RSM")
pos, 0.17363608223899687, christian_religion("CN")
pos, 0.3999655123649994, christian_religion("KIR")
pos, 0.3999655123649994, christian_religion("ARU")
pos, 0.4566421963308386, christian_religion("AMSA")
pos, 0.1966370072402473, christian_religion("BZ")
pos, 0.723364235627011, christian_religion("L")
pos, 0.3581561873329225, christian_religion("RT")
pos, 0.7911103267812569, christian_religion("GBZ")
pos, 0.4566421963308386, christian_religion("P")
pos, 0.34621896424702586, christian_religion("RCH")
pos, 0.4566421963308386, christian_religion("WAFU")
pos, 0.1499667155982895, christian_religion("ES")
pos, 0.4566421963308386, christian_religion("SLB")
pos, 0.3699080126520932, christian_religion("SK")
pos, 0.3999655123649994, christian_religion("GROX")
pos, 0.3999655123649994, christian_religion("FL")
pos, 0.7911103267812569, christian_religion("CY")
pos, 0.3999655123649994, christian_religion("WS")
pos, 0.4566421963308386, christian_religion("PITC")
pos, 0.17788573564669455, christian_religion("BR")
pos, 0.18812118228360974, christian_religion("E")
pos, 0.4235281227976348, christian_religion("CDN")
neg, 0.17363608223899687, christian_religion("BD")
neg, 0.7911103267812569, christian_religion("COCO")
neg, 0.17788573564669455, christian_religion("BF")
neg, 0.7911103267812569, christian_religion("COM")
neg, 0.39209151896695643, christian_religion("RN")
neg, 0.3999655123649994, christian_religion("RC")
neg, 0.2121496952952392, christian_religion("RMM")
neg, 0.4146159893879463, christian_religion("TCH")
neg, 0.45899371611014805, christian_religion("KGZ")
neg, 0.3885083022871446, christian_religion("RL")
neg, 0.20356894750263604, christian_religion("IR")
neg, 0.7911103267812569, christian_religion("WSA")
neg, 0.3999655123649994, christian_religion("XMAS")
neg, 0.17692625567846162, christian_religion("Q")
neg, 0.20234021607911606, christian_religion("AFG")

