digraph G{ 
1[label = "[ring_size_5(a, b), benzene(a, c)]"];
1 -> 2[label="True"];
1 -> 3[label="False"];
2[shape = box,label = "0.027(0.507)"];
3[label = "[atm(a, d, N, 32, e), ring_size_6(a, f)]"];
3 -> 4[label="True"];
3 -> 5[label="False"];
4[label = "[atm(a, g, N, 32, h), atm(a, i, O, 40, e)]"];
4 -> 6[label="True"];
4 -> 7[label="False"];
6[shape = box,label = "0.008(0.502)"];
7[shape = box,label = "-0.023(0.494)"];
5[label = "[atm(a, j, C, 27, k), bond(a, m, n, 2)]"];
5 -> 8[label="True"];
5 -> 9[label="False"];
8[shape = box,label = "0.005(0.501)"];
9[label = "[carbon_6_ring(a, p), benzene(a, q)]"];
9 -> 10[label="True"];
9 -> 11[label="False"];
10[shape = box,label = "0.034(0.508)"];
11[label = "[atm(a, r, C, 29, s), nitro(a, t)]"];
11 -> 12[label="True"];
11 -> 13[label="False"];
12[label = "[atm(a, u, N, 38, v), bond(a, w, u, 1)]"];
12 -> 14[label="True"];
12 -> 15[label="False"];
14[shape = box,label = "0.002(0.500)"];
15[shape = box,label = "0.024(0.506)"];
13[label = "[atm(a, x, C, 22, y), bond(a, z, x, 1)]"];
13 -> 16[label="True"];
13 -> 17[label="False"];
16[shape = box,label = "0.038(0.510)"];
17[shape = box,label = "-0.027(0.493)"];
}
