digraph G{ 
1[label = "[atm(a, b, C, 27, c), bond(a, b, d, 7)]"];
1 -> 2[label="True"];
1 -> 3[label="False"];
2[shape = box,label = "0.013(0.503)"];
3[label = "[atm(a, e, C, 29, f), bond(a, g, h, 2)]"];
3 -> 4[label="True"];
3 -> 5[label="False"];
4[label = "[atm(a, i, C, 10, j), ring_size_5(a, k)]"];
4 -> 6[label="True"];
4 -> 7[label="False"];
6[shape = box,label = "0.017(0.504)"];
7[label = "[bond(a, m, g, 1), bond(a, m, e, 7)]"];
7 -> 8[label="True"];
7 -> 9[label="False"];
8[label = "[bond(a, e, n, 1), bond(a, g, p, 2)]"];
8 -> 10[label="True"];
8 -> 11[label="False"];
10[shape = box,label = "-0.104(0.474)"];
11[shape = box,label = "0.030(0.508)"];
9[label = "[atm(a, g, N, 38, q), bond(a, r, g, 1)]"];
9 -> 12[label="True"];
9 -> 13[label="False"];
12[label = "[atm(a, s, C, 22, f), bond(a, e, s, 7)]"];
12 -> 14[label="True"];
12 -> 15[label="False"];
14[shape = box,label = "0.035(0.509)"];
15[shape = box,label = "0.018(0.505)"];
13[shape = box,label = "-0.058(0.485)"];
5[label = "[atm(a, t, N, 32, u), atm(a, v, O, 40, u)]"];
5 -> 16[label="True"];
5 -> 17[label="False"];
16[shape = box,label = "0.037(0.509)"];
17[shape = box,label = "-0.068(0.483)"];
}
