digraph G{ 
1[label = "[atm(a, b, CL, 93, c), atm(a, d, CL, 93, c)]"];
1 -> 2[label="True"];
1 -> 3[label="False"];
2[shape = box,label = "-0.010(0.497)"];
3[label = "[hetero_aromatic_5_ring(a, e), methyl(a, f)]"];
3 -> 4[label="True"];
3 -> 5[label="False"];
4[shape = box,label = "-0.137(0.466)"];
5[label = "[atm(a, g, C, 195, h), ball3(a, i)]"];
5 -> 6[label="True"];
5 -> 7[label="False"];
6[shape = box,label = "0.037(0.509)"];
7[label = "[carbon_6_ring(a, j), atm(a, k, C, 22, m)]"];
7 -> 8[label="True"];
7 -> 9[label="False"];
8[label = "[atm(a, n, C, 22, m), phenanthrene(a, p)]"];
8 -> 10[label="True"];
8 -> 11[label="False"];
10[shape = box,label = "0.001(0.500)"];
11[shape = box,label = "0.004(0.501)"];
9[label = "[atm(a, q, N, 32, r), ring_size_6(a, s)]"];
9 -> 12[label="True"];
9 -> 13[label="False"];
12[label = "[atm(a, t, H, 3, u), atm(a, v, C, 29, w)]"];
12 -> 14[label="True"];
12 -> 15[label="False"];
14[shape = box,label = "0.001(0.500)"];
15[shape = box,label = "0.009(0.502)"];
13[label = "[atm(a, x, O, 50, y), atm(a, z, O, 50, y)]"];
13 -> 16[label="True"];
13 -> 17[label="False"];
16[shape = box,label = "0.041(0.510)"];
17[shape = box,label = "0.179(0.545)"];
}
