================ SETTINGS ================
               files:	['./../mutaSettings.pl', 'mutaExample_1.pl']
             verbose:	1
                   l:	None
                   p:	None
           beam_size:	5
                seed:	None
                 log:	./../LOGS/LOG_1.txt
              target:	None
   symmetry_breaking:	False
           probfoil1:	False
================= FINAL THEORY =================
active(A,B) :- ball3(A,B,C)
active(A,B) :- carbon_6_ring(A,B,C)
active(A,B) :- carbon_5_aromatic_ring(A,B,C)
active(A,B) :- phenanthrene(A,B,C)
active(A,B) :- ring_size_5(A,B,C), benzene(A,B,D)
active(A,B) :- anthracene(A,B,C)
==================== SCORES ====================
            Accuracy:	 0.974358974359
           Precision:	 0.875
              Recall:	 0.756756756757
================== STATISTICS ==================
    Rule evaluations:	1458
          Total time:	1704.0993s
