digraph G{ 
1[label = "[atm(a, b, N, 34, c), atm(a, d, C, 21, e)]"];
1 -> 2[label="True"];
1 -> 3[label="False"];
2[label = "[bond(a, b, d, 7), benzene(a, f)]"];
2 -> 4[label="True"];
2 -> 5[label="False"];
4[shape = box,label = "-0.274(0.432)"];
5[shape = box,label = "0.009(0.502)"];
3[label = "[hetero_aromatic_5_ring(a, g)]"];
3 -> 6[label="True"];
3 -> 7[label="False"];
6[shape = box,label = "0.219(0.555)"];
7[label = "[ring_size_5(a, h), methyl(a, i)]"];
7 -> 8[label="True"];
7 -> 9[label="False"];
8[shape = box,label = "0.173(0.543)"];
9[label = "[atm(a, j, C, 27, k)]"];
9 -> 10[label="True"];
9 -> 11[label="False"];
10[label = "[hetero_aromatic_6_ring(a, m)]"];
10 -> 12[label="True"];
10 -> 13[label="False"];
12[shape = box,label = "-0.038(0.490)"];
13[shape = box,label = "0.058(0.515)"];
11[label = "[atm(a, n, N, 32, p), ring_size_5(a, q)]"];
11 -> 14[label="True"];
11 -> 15[label="False"];
14[shape = box,label = "-0.148(0.463)"];
15[label = "[atm(a, r, C, 22, s), bond(a, t, r, 1)]"];
15 -> 16[label="True"];
15 -> 17[label="False"];
16[shape = box,label = "0.047(0.512)"];
17[shape = box,label = "-0.038(0.490)"];
}
