digraph G{ 
1[label = "[atm(a, b, C, 27, c)]"];
1 -> 2[label="True"];
1 -> 3[label="False"];
2[shape = box,label = "3.871(0.980)"];
3[label = "[atm(a, d, C, 29, e)]"];
3 -> 4[label="True"];
3 -> 5[label="False"];
4[label = "[ring_size_5(a, f)]"];
4 -> 6[label="True"];
4 -> 7[label="False"];
6[shape = box,label = "4.443(0.988)"];
7[label = "[methyl(a, g)]"];
7 -> 8[label="True"];
7 -> 9[label="False"];
8[shape = box,label = "-2.354(0.087)"];
9[label = "[atm(a, h, C, 22, i), greaterCharge(i, e)]"];
9 -> 10[label="True"];
9 -> 11[label="False"];
10[label = "[greaterCharge(e, i)]"];
10 -> 12[label="True"];
10 -> 13[label="False"];
12[shape = box,label = "5.262(0.995)"];
13[shape = box,label = "-0.217(0.446)"];
11[label = "[carbon_6_ring(a, j)]"];
11 -> 14[label="True"];
11 -> 15[label="False"];
14[shape = box,label = "4.882(0.992)"];
15[shape = box,label = "4.278(0.986)"];
5[label = "[atm(a, k, N, 32, m), methyl(a, n)]"];
5 -> 16[label="True"];
5 -> 17[label="False"];
16[shape = box,label = "14.236(1.000)"];
17[shape = box,label = "0.261(0.565)"];
}
