digraph G{ 
1[label = "[hetero_aromatic_5_ring(a, b), methyl(a, c)]"];
1 -> 2[label="True"];
1 -> 3[label="False"];
2[shape = box,label = "-0.210(0.448)"];
3[label = "[atm(a, d, CL, 93, e), bond(a, f, d, 1)]"];
3 -> 4[label="True"];
3 -> 5[label="False"];
4[label = "[atm(a, g, N, 38, h), bond(a, i, g, 2)]"];
4 -> 6[label="True"];
4 -> 7[label="False"];
6[shape = box,label = "0.181(0.545)"];
7[shape = box,label = "-0.071(0.482)"];
5[label = "[hetero_aromatic_6_ring(a, j), hetero_aromatic_6_ring(a, k)]"];
5 -> 8[label="True"];
5 -> 9[label="False"];
8[label = "[atm(a, m, C, 22, n), bond(a, p, m, 1)]"];
8 -> 10[label="True"];
8 -> 11[label="False"];
10[shape = box,label = "-0.189(0.453)"];
11[shape = box,label = "0.012(0.503)"];
9[label = "[ring_size_5(a, q), methyl(a, r)]"];
9 -> 12[label="True"];
9 -> 13[label="False"];
12[shape = box,label = "0.499(0.622)"];
13[label = "[methyl(a, s)]"];
13 -> 14[label="True"];
13 -> 15[label="False"];
14[shape = box,label = "-0.071(0.482)"];
15[label = "[ring_size_5(a, t), bond(a, u, v, 7)]"];
15 -> 16[label="True"];
15 -> 17[label="False"];
16[shape = box,label = "0.020(0.505)"];
17[shape = box,label = "0.275(0.568)"];
}
