digraph G{ 
1[label = "[atm(a, b, C, 27, c), hetero_aromatic_6_ring(a, d)]"];
1 -> 2[label="True"];
1 -> 3[label="False"];
2[shape = box,label = "0.008(0.502)"];
3[label = "[atm(a, e, O, 50, f), bond(a, g, h, 2)]"];
3 -> 4[label="True"];
3 -> 5[label="False"];
4[label = "[atm(a, g, N, 38, i), atm(a, j, CL, 93, k)]"];
4 -> 6[label="True"];
4 -> 7[label="False"];
6[shape = box,label = "-0.011(0.497)"];
7[label = "[atm(a, h, O, 40, m), methyl(a, n)]"];
7 -> 8[label="True"];
7 -> 9[label="False"];
8[shape = box,label = "-0.038(0.490)"];
9[shape = box,label = "-0.068(0.483)"];
5[label = "[hetero_aromatic_5_ring(a, p), methyl(a, q)]"];
5 -> 10[label="True"];
5 -> 11[label="False"];
10[shape = box,label = "-0.127(0.468)"];
11[label = "[ball3(a, r), anthracene(a, s)]"];
11 -> 12[label="True"];
11 -> 13[label="False"];
12[shape = box,label = "0.008(0.502)"];
13[label = "[atm(a, t, N, 32, u), ring_size_6(a, v)]"];
13 -> 14[label="True"];
13 -> 15[label="False"];
14[label = "[atm(a, w, C, 22, x), ring_size_5(a, y)]"];
14 -> 16[label="True"];
14 -> 17[label="False"];
16[shape = box,label = "0.001(0.500)"];
17[shape = box,label = "0.005(0.501)"];
15[shape = box,label = "0.148(0.537)"];
}
