digraph G{ 
1[label = "[atm(a, b, C, 27, c), bond(a, b, d, 7)]"];
1 -> 2[label="True"];
1 -> 3[label="False"];
2[label = "[methyl(a, e), benzene(a, f)]"];
2 -> 4[label="True"];
2 -> 5[label="False"];
4[shape = box,label = "0.011(0.503)"];
5[shape = box,label = "0.013(0.503)"];
3[label = "[atm(a, g, C, 10, h), benzene(a, i)]"];
3 -> 6[label="True"];
3 -> 7[label="False"];
6[shape = box,label = "0.026(0.507)"];
7[label = "[atm(a, j, H, 1, k), ring_size_5(a, m)]"];
7 -> 8[label="True"];
7 -> 9[label="False"];
8[shape = box,label = "-0.222(0.445)"];
9[label = "[atm(a, n, C, 29, p), atm(a, q, C, 29, p)]"];
9 -> 10[label="True"];
9 -> 11[label="False"];
10[label = "[atm(a, r, C, 22, s), ring_size_5(a, t)]"];
10 -> 12[label="True"];
10 -> 13[label="False"];
12[shape = box,label = "0.004(0.501)"];
13[shape = box,label = "0.002(0.500)"];
11[label = "[atm(a, u, CL, 93, v)]"];
11 -> 14[label="True"];
11 -> 15[label="False"];
14[shape = box,label = "-0.060(0.485)"];
15[label = "[atm(a, w, N, 32, x), atm(a, y, O, 40, x)]"];
15 -> 16[label="True"];
15 -> 17[label="False"];
16[shape = box,label = "0.035(0.509)"];
17[shape = box,label = "-0.120(0.470)"];
}
