digraph G{ 
1[label = "[borders(b, a, c), ethnicGroup(a, d, e)]"];
1 -> 2[label="True"];
1 -> 3[label="False"];
2[label = "[language(b, f, g)]"];
2 -> 4[label="True"];
2 -> 5[label="False"];
4[label = "[language(a, h, g)]"];
4 -> 6[label="True"];
4 -> 7[label="False"];
6[shape = box,label = "0.691(0.666)"];
7[label = "[ethnicGroup(b, i, e)]"];
7 -> 8[label="True"];
7 -> 9[label="False"];
8[shape = box,label = "0.358(0.589)"];
9[label = "[ethnicGroup(b, d, j)]"];
9 -> 10[label="True"];
9 -> 11[label="False"];
10[shape = box,label = "0.441(0.609)"];
11[shape = box,label = "0.608(0.648)"];
5[label = "[language(a, k, m)]"];
5 -> 12[label="True"];
5 -> 13[label="False"];
12[shape = box,label = "0.483(0.618)"];
13[label = "[ethnicGroup(b, n, e), borders(a, p, q)]"];
13 -> 14[label="True"];
13 -> 15[label="False"];
14[shape = box,label = "0.658(0.659)"];
15[shape = box,label = "0.089(0.522)"];
3[label = "[borders(a, r, s), ethnicGroup(a, t, u)]"];
3 -> 16[label="True"];
3 -> 17[label="False"];
16[shape = box,label = "0.423(0.604)"];
17[shape = box,label = "0.655(0.658)"];
}
