digraph G{ 
1[label = "[ring_size_5(a, b), atm(a, c, C, 22, d)]"];
1 -> 2[label="True"];
1 -> 3[label="False"];
2[shape = box,label = "0.014(0.504)"];
3[label = "[ball3(a, e)]"];
3 -> 4[label="True"];
3 -> 5[label="False"];
4[shape = box,label = "0.079(0.520)"];
5[label = "[phenanthrene(a, f)]"];
5 -> 6[label="True"];
5 -> 7[label="False"];
6[shape = box,label = "0.221(0.555)"];
7[label = "[atm(a, g, C, 29, h), nitro(a, i)]"];
7 -> 8[label="True"];
7 -> 9[label="False"];
8[label = "[atm(a, j, C, 29, h), methyl(a, k)]"];
8 -> 10[label="True"];
8 -> 11[label="False"];
10[shape = box,label = "-0.012(0.497)"];
11[label = "[atm(a, m, C, 29, h), carbon_6_ring(a, n)]"];
11 -> 12[label="True"];
11 -> 13[label="False"];
12[shape = box,label = "0.026(0.507)"];
13[shape = box,label = "0.015(0.504)"];
9[label = "[atm(a, p, C, 10, q), benzene(a, r)]"];
9 -> 14[label="True"];
9 -> 15[label="False"];
14[shape = box,label = "0.049(0.512)"];
15[label = "[atm(a, s, C, 27, t), nitro(a, u)]"];
15 -> 16[label="True"];
15 -> 17[label="False"];
16[shape = box,label = "0.028(0.507)"];
17[shape = box,label = "-0.081(0.480)"];
}
