useStdLogicNotation: true.

% maxTreeDepthInNodes                 = 5
% maxTreeDepthInLiterals              = 12
% maxNumberOfLiteralsAtAnInteriorNode = 1
% maxFreeBridgersInBody               = 1
% maxNumberOfClauses                  = 12
% maxNodesToConsider                  = 10
% maxNodesToCreate                    = 10,000
% maxAcceptableNodeScoreToStop        = 0.003
% negPosRatio                         = -1.000
% testNegPosRatio                     = -1.000
% # of pos examples                   = 27,000
% # of neg examples                   = 0



%%%%%  WILL-Produced Tree #1 @ 11:56:40 11/24/20.  [Using 49,014,144 memory cells.]  %%%%%

% FOR gender(a, b, c):
%   return 0;  // std dev = 0.414, 27,000.000 (wgt'ed) examples reached here.  /* #neg=21,054 #pos=5,946 */


% Clauses:

gender(a, b, c, 0) :- !. // Clause #1.


% The flattened versions of these clauses:

flattened_! => 
   gender(Underscore, Underscore, Underscore, 0). // Flattened version of clause #1.


% The unique flattened literals:

%%%%%  WILL-Produced Tree #2 @ 11:57:18 11/24/20.  [Using 53,367,936 memory cells.]  %%%%%

% FOR gender(a, b, c):
%   return 0;  // std dev = 0.414, 27,000.000 (wgt'ed) examples reached here.  /* #neg=21,054 #pos=5,946 */


% Clauses:

gender(a, b, c, 0) :- !. // Clause #1.


% The flattened versions of these clauses:

flattened_! => 
   gender(Underscore, Underscore, Underscore, 0). // Flattened version of clause #1.


% The unique flattened literals:

%%%%%  WILL-Produced Tree #3 @ 11:57:48 11/24/20.  [Using 57,654,120 memory cells.]  %%%%%

% FOR gender(a, b, c):
%   return 0;  // std dev = 0.414, 27,000.000 (wgt'ed) examples reached here.  /* #neg=21,054 #pos=5,946 */


% Clauses:

gender(a, b, c, 0) :- !. // Clause #1.


% The flattened versions of these clauses:

flattened_! => 
   gender(Underscore, Underscore, Underscore, 0). // Flattened version of clause #1.


% The unique flattened literals:

%%%%%  WILL-Produced Tree #4 @ 11:58:16 11/24/20.  [Using 57,836,640 memory cells.]  %%%%%

% FOR gender(a, b, c):
%   return 0;  // std dev = 0.414, 27,000.000 (wgt'ed) examples reached here.  /* #neg=21,054 #pos=5,946 */


% Clauses:

gender(a, b, c, 0) :- !. // Clause #1.


% The flattened versions of these clauses:

flattened_! => 
   gender(Underscore, Underscore, Underscore, 0). // Flattened version of clause #1.


% The unique flattened literals:

%%%%%  WILL-Produced Tree #5 @ 11:58:51 11/24/20.  [Using 57,839,200 memory cells.]  %%%%%

% FOR gender(a, b, c):
%   return 0;  // std dev = 0.414, 27,000.000 (wgt'ed) examples reached here.  /* #neg=21,054 #pos=5,946 */


% Clauses:

gender(a, b, c, 0) :- !. // Clause #1.


% The flattened versions of these clauses:

flattened_! => 
   gender(Underscore, Underscore, Underscore, 0). // Flattened version of clause #1.


% The unique flattened literals:

%%%%%  WILL-Produced Tree #6 @ 11:59:20 11/24/20.  [Using 58,114,432 memory cells.]  %%%%%

% FOR gender(a, b, c):
%   return 0;  // std dev = 0.414, 27,000.000 (wgt'ed) examples reached here.  /* #neg=21,054 #pos=5,946 */


% Clauses:

gender(a, b, c, 0) :- !. // Clause #1.


% The flattened versions of these clauses:

flattened_! => 
   gender(Underscore, Underscore, Underscore, 0). // Flattened version of clause #1.


% The unique flattened literals:

%%%%%  WILL-Produced Tree #7 @ 11:59:47 11/24/20.  [Using 58,114,344 memory cells.]  %%%%%

% FOR gender(a, b, c):
%   return 0;  // std dev = 0.414, 27,000.000 (wgt'ed) examples reached here.  /* #neg=21,054 #pos=5,946 */


% Clauses:

gender(a, b, c, 0) :- !. // Clause #1.


% The flattened versions of these clauses:

flattened_! => 
   gender(Underscore, Underscore, Underscore, 0). // Flattened version of clause #1.


% The unique flattened literals:

%%%%%  WILL-Produced Tree #8 @ 12:00:15 11/24/20.  [Using 58,525,736 memory cells.]  %%%%%

% FOR gender(a, b, c):
%   return 0;  // std dev = 0.414, 27,000.000 (wgt'ed) examples reached here.  /* #neg=21,054 #pos=5,946 */


% Clauses:

gender(a, b, c, 0) :- !. // Clause #1.


% The flattened versions of these clauses:

flattened_! => 
   gender(Underscore, Underscore, Underscore, 0). // Flattened version of clause #1.


% The unique flattened literals:

%%%%%  WILL-Produced Tree #9 @ 12:00:38 11/24/20.  [Using 58,527,032 memory cells.]  %%%%%

% FOR gender(a, b, c):
%   return 0;  // std dev = 0.414, 27,000.000 (wgt'ed) examples reached here.  /* #neg=21,054 #pos=5,946 */


% Clauses:

gender(a, b, c, 0) :- !. // Clause #1.


% The flattened versions of these clauses:

flattened_! => 
   gender(Underscore, Underscore, Underscore, 0). // Flattened version of clause #1.


% The unique flattened literals:

%%%%%  WILL-Produced Tree #10 @ 12:01:08 11/24/20.  [Using 58,528,328 memory cells.]  %%%%%

% FOR gender(a, b, c):
%   return 0;  // std dev = 0.414, 27,000.000 (wgt'ed) examples reached here.  /* #neg=21,054 #pos=5,946 */


% Clauses:

gender(a, b, c, 0) :- !. // Clause #1.


% The flattened versions of these clauses:

flattened_! => 
   gender(Underscore, Underscore, Underscore, 0). // Flattened version of clause #1.


% The unique flattened literals:

%%%%%  WILL-Produced Tree Combined @ 12:01:54 11/24/20.  [Using 58,529,696 memory cells.]  %%%%%

% FOR gender(a, b, c):
%   return 0;  // std dev = 0.414, 27,000.000 (wgt'ed) examples reached here.  /* #neg=21,054 #pos=5,946 */


% Clauses:

gender(a, b, c, 0) :- !. // Clause #1.


% The flattened versions of these clauses:

flattened_! => 
   gender(Underscore, Underscore, Underscore, 0). // Flattened version of clause #1.


% The unique flattened literals:

%%%%%  WILL-Produced Tree #12 @ 12:02:31 11/24/20.  [Using 59,146,048 memory cells.]  %%%%%

% FOR gender(a, b, c):
%   return 0;  // std dev = 0.414, 27,000.000 (wgt'ed) examples reached here.  /* #neg=21,054 #pos=5,946 */


% Clauses:

gender(a, b, c, 0) :- !. // Clause #1.


% The flattened versions of these clauses:

flattened_! => 
   gender(Underscore, Underscore, Underscore, 0). // Flattened version of clause #1.


% The unique flattened literals:

%%%%%  WILL-Produced Tree #13 @ 12:03:07 11/24/20.  [Using 59,147,416 memory cells.]  %%%%%

% FOR gender(a, b, c):
%   return 0;  // std dev = 0.414, 27,000.000 (wgt'ed) examples reached here.  /* #neg=21,054 #pos=5,946 */


% Clauses:

gender(a, b, c, 0) :- !. // Clause #1.


% The flattened versions of these clauses:

flattened_! => 
   gender(Underscore, Underscore, Underscore, 0). // Flattened version of clause #1.


% The unique flattened literals:

%%%%%  WILL-Produced Tree #14 @ 12:03:45 11/24/20.  [Using 59,148,720 memory cells.]  %%%%%

% FOR gender(a, b, c):
%   return 0;  // std dev = 0.414, 27,000.000 (wgt'ed) examples reached here.  /* #neg=21,054 #pos=5,946 */


% Clauses:

gender(a, b, c, 0) :- !. // Clause #1.


% The flattened versions of these clauses:

flattened_! => 
   gender(Underscore, Underscore, Underscore, 0). // Flattened version of clause #1.


% The unique flattened literals:

%%%%%  WILL-Produced Tree #15 @ 12:04:22 11/24/20.  [Using 59,150,072 memory cells.]  %%%%%

% FOR gender(a, b, c):
%   return 0;  // std dev = 0.414, 27,000.000 (wgt'ed) examples reached here.  /* #neg=21,054 #pos=5,946 */


% Clauses:

gender(a, b, c, 0) :- !. // Clause #1.


% The flattened versions of these clauses:

flattened_! => 
   gender(Underscore, Underscore, Underscore, 0). // Flattened version of clause #1.


% The unique flattened literals:

%%%%%  WILL-Produced Tree #16 @ 12:04:57 11/24/20.  [Using 59,151,696 memory cells.]  %%%%%

% FOR gender(a, b, c):
%   return 0;  // std dev = 0.414, 27,000.000 (wgt'ed) examples reached here.  /* #neg=21,054 #pos=5,946 */


% Clauses:

gender(a, b, c, 0) :- !. // Clause #1.


% The flattened versions of these clauses:

flattened_! => 
   gender(Underscore, Underscore, Underscore, 0). // Flattened version of clause #1.


% The unique flattened literals:

%%%%%  WILL-Produced Tree #17 @ 12:05:43 11/24/20.  [Using 59,153,000 memory cells.]  %%%%%

% FOR gender(a, b, c):
%   return 0;  // std dev = 0.414, 27,000.000 (wgt'ed) examples reached here.  /* #neg=21,054 #pos=5,946 */


% Clauses:

gender(a, b, c, 0) :- !. // Clause #1.


% The flattened versions of these clauses:

flattened_! => 
   gender(Underscore, Underscore, Underscore, 0). // Flattened version of clause #1.


% The unique flattened literals:

%%%%%  WILL-Produced Tree #18 @ 12:06:24 11/24/20.  [Using 60,076,936 memory cells.]  %%%%%

% FOR gender(a, b, c):
%   return 0;  // std dev = 0.414, 27,000.000 (wgt'ed) examples reached here.  /* #neg=21,054 #pos=5,946 */


% Clauses:

gender(a, b, c, 0) :- !. // Clause #1.


% The flattened versions of these clauses:

flattened_! => 
   gender(Underscore, Underscore, Underscore, 0). // Flattened version of clause #1.


% The unique flattened literals:

%%%%%  WILL-Produced Tree #19 @ 12:07:00 11/24/20.  [Using 60,078,240 memory cells.]  %%%%%

% FOR gender(a, b, c):
%   return 0;  // std dev = 0.414, 27,000.000 (wgt'ed) examples reached here.  /* #neg=21,054 #pos=5,946 */


% Clauses:

gender(a, b, c, 0) :- !. // Clause #1.


% The flattened versions of these clauses:

flattened_! => 
   gender(Underscore, Underscore, Underscore, 0). // Flattened version of clause #1.


% The unique flattened literals:

%%%%%  WILL-Produced Tree #20 @ 12:07:33 11/24/20.  [Using 60,080,056 memory cells.]  %%%%%

% FOR gender(a, b, c):
%   return 0;  // std dev = 0.414, 27,000.000 (wgt'ed) examples reached here.  /* #neg=21,054 #pos=5,946 */


% Clauses:

gender(a, b, c, 0) :- !. // Clause #1.


% The flattened versions of these clauses:

flattened_! => 
   gender(Underscore, Underscore, Underscore, 0). // Flattened version of clause #1.


% The unique flattened literals:


%%%%%%%%%%%%%%%%%%%%%%%%%%%%%%%%%%%%%%%%%%%%%%%%%%%%%%%%%%%
%%%%%  Final call for computing score for gender.  %%%%%
%%%%%%%%%%%%%%%%%%%%%%%%%%%%%%%%%%%%%%%%%%%%%%%%%%%%%%%%%%%

stepLength_tree1(1.0).
stepLength_tree2(1.0).
stepLength_tree3(1.0).
stepLength_tree4(1.0).
stepLength_tree5(1.0).
stepLength_tree6(1.0).
stepLength_tree7(1.0).
stepLength_tree8(1.0).
stepLength_tree9(1.0).
stepLength_tree10(1.0).
stepLength_tree11(1.0).
stepLength_tree12(1.0).
stepLength_tree13(1.0).
stepLength_tree14(1.0).
stepLength_tree15(1.0).
stepLength_tree16(1.0).
stepLength_tree17(1.0).
stepLength_tree18(1.0).
stepLength_tree19(1.0).
stepLength_tree20(1.0).

logPrior(-1.8).
gender(a, b, c, total) :- // A general accessor. 
   gender(a, b, c, 1000000, total), !.
gender(a, b, c, total) :- waitHere("This should not fail", gender(a, b, c, total)).

gender(a, b, c, treesToUse, total) :- // A tree-limited accessor (e.g., for tuning the number of trees to use).
   logPrior(logPrior),
   getScore_gender_tree1(a, b, c, treesToUse, total1),
   getScore_gender_tree2(a, b, c, treesToUse, total2),
   getScore_gender_tree3(a, b, c, treesToUse, total3),
   getScore_gender_tree4(a, b, c, treesToUse, total4),
   getScore_gender_tree5(a, b, c, treesToUse, total5),
   getScore_gender_tree6(a, b, c, treesToUse, total6),
   getScore_gender_tree7(a, b, c, treesToUse, total7),
   getScore_gender_tree8(a, b, c, treesToUse, total8),
   getScore_gender_tree9(a, b, c, treesToUse, total9),
   getScore_gender_tree10(a, b, c, treesToUse, total10),
   getScore_gender_tree11(a, b, c, treesToUse, total11),
   getScore_gender_tree12(a, b, c, treesToUse, total12),
   getScore_gender_tree13(a, b, c, treesToUse, total13),
   getScore_gender_tree14(a, b, c, treesToUse, total14),
   getScore_gender_tree15(a, b, c, treesToUse, total15),
   getScore_gender_tree16(a, b, c, treesToUse, total16),
   getScore_gender_tree17(a, b, c, treesToUse, total17),
   getScore_gender_tree18(a, b, c, treesToUse, total18),
   getScore_gender_tree19(a, b, c, treesToUse, total19),
   getScore_gender_tree20(a, b, c, treesToUse, total20),
   total is logPrior + total1 + total2 + total3 + total4 + total5 + total6 + total7 + total8 + total9 + total10 + total11 + total12 + total13 + total14 + total15 + total16 + total17 + total18 + total19 + total20,
   !.
gender(a, b, c, treesToUse, total) :- waitHere("This should not fail", gender(a, b, c, treesToUse, total)).

getScore_gender_tree1(a, b, c, treesToUse, 0.0) :- 1 > treesToUse, !.
getScore_gender_tree1(a, b, c, treesToUse, total1) :- gender_tree1(a, b, c, total), stepLength_tree1(stepLen), total1 is total * stepLen.

getScore_gender_tree2(a, b, c, treesToUse, 0.0) :- 2 > treesToUse, !.
getScore_gender_tree2(a, b, c, treesToUse, total2) :- gender_tree2(a, b, c, total), stepLength_tree2(stepLen), total2 is total * stepLen.

getScore_gender_tree3(a, b, c, treesToUse, 0.0) :- 3 > treesToUse, !.
getScore_gender_tree3(a, b, c, treesToUse, total3) :- gender_tree3(a, b, c, total), stepLength_tree3(stepLen), total3 is total * stepLen.

getScore_gender_tree4(a, b, c, treesToUse, 0.0) :- 4 > treesToUse, !.
getScore_gender_tree4(a, b, c, treesToUse, total4) :- gender_tree4(a, b, c, total), stepLength_tree4(stepLen), total4 is total * stepLen.

getScore_gender_tree5(a, b, c, treesToUse, 0.0) :- 5 > treesToUse, !.
getScore_gender_tree5(a, b, c, treesToUse, total5) :- gender_tree5(a, b, c, total), stepLength_tree5(stepLen), total5 is total * stepLen.

getScore_gender_tree6(a, b, c, treesToUse, 0.0) :- 6 > treesToUse, !.
getScore_gender_tree6(a, b, c, treesToUse, total6) :- gender_tree6(a, b, c, total), stepLength_tree6(stepLen), total6 is total * stepLen.

getScore_gender_tree7(a, b, c, treesToUse, 0.0) :- 7 > treesToUse, !.
getScore_gender_tree7(a, b, c, treesToUse, total7) :- gender_tree7(a, b, c, total), stepLength_tree7(stepLen), total7 is total * stepLen.

getScore_gender_tree8(a, b, c, treesToUse, 0.0) :- 8 > treesToUse, !.
getScore_gender_tree8(a, b, c, treesToUse, total8) :- gender_tree8(a, b, c, total), stepLength_tree8(stepLen), total8 is total * stepLen.

getScore_gender_tree9(a, b, c, treesToUse, 0.0) :- 9 > treesToUse, !.
getScore_gender_tree9(a, b, c, treesToUse, total9) :- gender_tree9(a, b, c, total), stepLength_tree9(stepLen), total9 is total * stepLen.

getScore_gender_tree10(a, b, c, treesToUse, 0.0) :- 10 > treesToUse, !.
getScore_gender_tree10(a, b, c, treesToUse, total10) :- gender_tree10(a, b, c, total), stepLength_tree10(stepLen), total10 is total * stepLen.

getScore_gender_tree11(a, b, c, treesToUse, 0.0) :- 11 > treesToUse, !.
getScore_gender_tree11(a, b, c, treesToUse, total11) :- gender_tree11(a, b, c, total), stepLength_tree11(stepLen), total11 is total * stepLen.

getScore_gender_tree12(a, b, c, treesToUse, 0.0) :- 12 > treesToUse, !.
getScore_gender_tree12(a, b, c, treesToUse, total12) :- gender_tree12(a, b, c, total), stepLength_tree12(stepLen), total12 is total * stepLen.

getScore_gender_tree13(a, b, c, treesToUse, 0.0) :- 13 > treesToUse, !.
getScore_gender_tree13(a, b, c, treesToUse, total13) :- gender_tree13(a, b, c, total), stepLength_tree13(stepLen), total13 is total * stepLen.

getScore_gender_tree14(a, b, c, treesToUse, 0.0) :- 14 > treesToUse, !.
getScore_gender_tree14(a, b, c, treesToUse, total14) :- gender_tree14(a, b, c, total), stepLength_tree14(stepLen), total14 is total * stepLen.

getScore_gender_tree15(a, b, c, treesToUse, 0.0) :- 15 > treesToUse, !.
getScore_gender_tree15(a, b, c, treesToUse, total15) :- gender_tree15(a, b, c, total), stepLength_tree15(stepLen), total15 is total * stepLen.

getScore_gender_tree16(a, b, c, treesToUse, 0.0) :- 16 > treesToUse, !.
getScore_gender_tree16(a, b, c, treesToUse, total16) :- gender_tree16(a, b, c, total), stepLength_tree16(stepLen), total16 is total * stepLen.

getScore_gender_tree17(a, b, c, treesToUse, 0.0) :- 17 > treesToUse, !.
getScore_gender_tree17(a, b, c, treesToUse, total17) :- gender_tree17(a, b, c, total), stepLength_tree17(stepLen), total17 is total * stepLen.

getScore_gender_tree18(a, b, c, treesToUse, 0.0) :- 18 > treesToUse, !.
getScore_gender_tree18(a, b, c, treesToUse, total18) :- gender_tree18(a, b, c, total), stepLength_tree18(stepLen), total18 is total * stepLen.

getScore_gender_tree19(a, b, c, treesToUse, 0.0) :- 19 > treesToUse, !.
getScore_gender_tree19(a, b, c, treesToUse, total19) :- gender_tree19(a, b, c, total), stepLength_tree19(stepLen), total19 is total * stepLen.

getScore_gender_tree20(a, b, c, treesToUse, 0.0) :- 20 > treesToUse, !.
getScore_gender_tree20(a, b, c, treesToUse, total20) :- gender_tree20(a, b, c, total), stepLength_tree20(stepLen), total20 is total * stepLen.

flattenedLiteralsInThisSetOfTrees(0, []).

%%%%%  WILL-Produced Tree Combined @ 12:07:42 11/24/20.  [Using 57,921,432 memory cells.]  %%%%%

% FOR gender(a, b, c):
%   return 0;  // std dev = 8.288, 540,000.000 (wgt'ed) examples reached here.  /* #neg=421,080 #pos=118,920 */


% Clauses:

gender(a, b, c, 0) :- !. // Clause #1.


% The flattened versions of these clauses:

flattened_! => 
   gender(Underscore, Underscore, Underscore, 0). // Flattened version of clause #1.


% The unique flattened literals:
