digraph G{ 
1[label = "[hasPosition(b, Faculty), student(a)]"];
1 -> 2[label="True"];
1 -> 3[label="False"];
2[label = "[publication(c, a), inPhase(a, Post_Generals)]"];
2 -> 4[label="True"];
2 -> 5[label="False"];
4[shape = box,label = "-0.046(0.489)"];
5[label = "[tempAdvisedBy(d, b), publication(e, d)]"];
5 -> 6[label="True"];
5 -> 7[label="False"];
6[shape = box,label = "-0.061(0.485)"];
7[label = "[ta(f, a, g), taughtBy(f, h, g)]"];
7 -> 8[label="True"];
7 -> 9[label="False"];
8[label = "[publication(i, h), publication(i, b)]"];
8 -> 10[label="True"];
8 -> 11[label="False"];
10[label = "[taughtBy(j, b, g), taughtBy(j, h, k)]"];
10 -> 12[label="True"];
10 -> 13[label="False"];
12[shape = box,label = "0.157(0.539)"];
13[shape = box,label = "0.024(0.506)"];
11[shape = box,label = "-0.034(0.492)"];
9[label = "[taughtBy(m, a, n), taughtBy(p, b, n)]"];
9 -> 14[label="True"];
9 -> 15[label="False"];
14[shape = box,label = "0.310(0.577)"];
15[label = "[publication(q, b), yearsInProgram(a, Year_3)]"];
15 -> 16[label="True"];
15 -> 17[label="False"];
16[shape = box,label = "0.210(0.552)"];
17[shape = box,label = "0.024(0.506)"];
3[shape = box,label = "-0.051(0.487)"];
}
