digraph G{ 
1[label = "[professor(b), student(a)]"];
1 -> 2[label="True"];
1 -> 3[label="False"];
2[label = "[publication(c, a), publication(c, b)]"];
2 -> 4[label="True"];
2 -> 5[label="False"];
4[label = "[hasPosition(b, Faculty)]"];
4 -> 6[label="True"];
4 -> 7[label="False"];
6[label = "[inPhase(a, Post_Generals), tempAdvisedBy(d, b)]"];
6 -> 8[label="True"];
6 -> 9[label="False"];
8[label = "[ta(e, d, f)]"];
8 -> 10[label="True"];
8 -> 11[label="False"];
10[shape = box,label = "0.201(0.550)"];
11[label = "[publication(g, d)]"];
11 -> 12[label="True"];
11 -> 13[label="False"];
12[shape = box,label = "0.141(0.535)"];
13[shape = box,label = "-0.010(0.497)"];
9[label = "[publication(c, h), inPhase(h, Post_Generals)]"];
9 -> 14[label="True"];
9 -> 15[label="False"];
14[label = "[ta(i, h, j), taughtBy(i, b, j)]"];
14 -> 16[label="True"];
14 -> 17[label="False"];
16[shape = box,label = "0.102(0.525)"];
17[shape = box,label = "-0.059(0.485)"];
15[shape = box,label = "0.180(0.545)"];
7[shape = box,label = "0.296(0.573)"];
5[shape = box,label = "-0.018(0.495)"];
3[shape = box,label = "-0.049(0.488)"];
}
