digraph G{ 
1[label = "[professor(b), student(a)]"];
1 -> 2[label="True"];
1 -> 3[label="False"];
2[label = "[inPhase(a, Post_Generals), publication(c, a)]"];
2 -> 4[label="True"];
2 -> 5[label="False"];
4[shape = box,label = "-0.059(0.485)"];
5[label = "[tempAdvisedBy(d, b), publication(e, d)]"];
5 -> 6[label="True"];
5 -> 7[label="False"];
6[shape = box,label = "-0.077(0.481)"];
7[label = "[taughtBy(f, b, g), ta(f, h, g)]"];
7 -> 8[label="True"];
7 -> 9[label="False"];
8[label = "[taughtBy(i, a, j), ta(f, k, j)]"];
8 -> 10[label="True"];
8 -> 11[label="False"];
10[shape = box,label = "0.527(0.629)"];
11[label = "[tempAdvisedBy(h, m), publication(n, a)]"];
11 -> 12[label="True"];
11 -> 13[label="False"];
12[shape = box,label = "0.260(0.565)"];
13[shape = box,label = "0.024(0.506)"];
9[label = "[ta(p, a, q), hasPosition(b, Faculty_adjunct)]"];
9 -> 14[label="True"];
9 -> 15[label="False"];
14[label = "[publication(r, b), taughtBy(p, s, q)]"];
14 -> 16[label="True"];
14 -> 17[label="False"];
16[shape = box,label = "0.273(0.568)"];
17[shape = box,label = "-0.102(0.475)"];
15[shape = box,label = "-0.056(0.486)"];
3[shape = box,label = "-0.065(0.484)"];
}
