digraph RDN{
0[style="filled" label="memberOfList(willAnything,willList)" color="gray82"];
26 -> 0[label="" style=dashed];
1[style="filled" label="number()" color="gray92"];
2[style="filled" label="var()" color="gray92"];
3[style="filled" label="active(Drug)" color="gray52"];
23 -> 3[label="" style=solid];
16 -> 3[label="" style=solid];
4 -> 3[label="" style=solid];
37 -> 3[label="" style=solid];
39 -> 3[label="" style=solid];
31 -> 3[label="" style=solid];
20 -> 3[label="" style=solid];
6 -> 3[label="" style=solid];
35 -> 3[label="" style=solid];
30 -> 3[label="" style=solid];
33 -> 3[label="" style=solid];
21 -> 3[label="" style=solid];
40 -> 3[label="" style=solid];
13 -> 3[label="" style=solid];
4[style="filled" label="nitro(Drug,Ring)" color="gray92"];
5[style="filled" label="equalWithSmallTolerance()" color="gray82"];
9 -> 5[label="" style=dashed];
1 -> 5[label="" style=dashed];
6[style="filled" label="anthracene(Drug,Ringlist)" color="gray92"];
7[style="filled" label="fail()" color="gray92"];
8[style="filled" label="contains()" color="gray82"];
8 -> 8[label="" style=dashed];
9[style="filled" label="<()" color="gray92"];
10[style="filled" label="multiplyListOfNumbers()" color="gray92"];
11[style="filled" label="=:=()" color="gray92"];
12[style="filled" label="\+()" color="gray92"];
13[style="filled" label="carbon_5_aromatic_ring(Drug,Ring)" color="gray92"];
14[style="filled" label="isaEqualTolerance(willNumber)" color="gray82"];
29 -> 14[label="" style=dashed];
1 -> 14[label="" style=dashed];
15[style="filled" label="addListOfNumbers()" color="gray92"];
16[style="filled" label="hetero_aromatic_6_ring(Drug,Ring)" color="gray92"];
17[style="filled" label="union()" color="gray82"];
17 -> 17[label="" style=dashed];
12 -> 17[label="" style=dashed];
18[style="filled" label="call()" color="gray92"];
19[style="filled" label="<=()" color="gray92"];
20[style="filled" label="ball3(Drug,Ringlist)" color="gray92"];
21[style="filled" label="phenanthrene(Drug,Ringlist)" color="gray92"];
22[style="filled" label="intersection()" color="gray82"];
22 -> 22[label="" style=dashed];
23[style="filled" label="atm(Drug,Atomid,Element,Atmtype,Charge)" color="gray92"];
24[style="filled" label="different()" color="gray82"];
12 -> 24[label="" style=dashed];
25[style="filled" label="=<()" color="gray92"];
26[style="filled" label="list()" color="gray92"];
27[style="filled" label="true()" color="gray92"];
28[style="filled" label="ground()" color="gray92"];
29[style="filled" label=">=()" color="gray92"];
30[style="filled" label="ring_size_6(Drug,Ring)" color="gray92"];
31[style="filled" label="ring_size_5(Drug,Ring)" color="gray92"];
32[style="filled" label="allNumbers(willList)" color="gray82"];
1 -> 32[label="" style=dashed];
32 -> 32[label="" style=dashed];
33[style="filled" label="carbon_6_ring(Drug,Ring)" color="gray92"];
34[style="filled" label="isaInterestingNumber()" color="gray82"];
34 -> 34[label="" style=dashed];
5 -> 34[label="" style=dashed];
35[style="filled" label="hetero_aromatic_5_ring(Drug,Ring)" color="gray92"];
36[style="filled" label="isaInterestingSymbol()" color="gray82"];
36 -> 36[label="" style=dashed];
37[style="filled" label="methyl(Drug,Ring)" color="gray92"];
38[style="filled" label="false()" color="gray92"];
39[style="filled" label="bond(Drug,Atomid,Atomid,Bondtype)" color="gray92"];
40[style="filled" label="benzene(Drug,Ring)" color="gray92"];
41[style="filled" label="sameAs()" color="gray82"];
1 -> 41[label="" style=dashed];
41 -> 41[label="" style=dashed];
5 -> 41[label="" style=dashed];
}
