digraph G{ 
1[label = "[ball3(a, b)]"];
1 -> 2[label="True"];
1 -> 3[label="False"];
2[shape = box,label = "0.040(0.510)"];
3[label = "[methyl(a, c), methyl(a, d)]"];
3 -> 4[label="True"];
3 -> 5[label="False"];
4[shape = box,label = "-0.077(0.481)"];
5[label = "[atm(a, e, C, 195, f), atm(a, g, C, 195, h)]"];
5 -> 6[label="True"];
5 -> 7[label="False"];
6[shape = box,label = "0.044(0.511)"];
7[label = "[ring_size_5(a, i), nitro(a, j)]"];
7 -> 8[label="True"];
7 -> 9[label="False"];
8[label = "[carbon_5_aromatic_ring(a, i)]"];
8 -> 10[label="True"];
8 -> 11[label="False"];
10[shape = box,label = "0.070(0.517)"];
11[label = "[atm(a, k, H, 1, m), atm(a, n, C, 22, p)]"];
11 -> 12[label="True"];
11 -> 13[label="False"];
12[shape = box,label = "-0.028(0.493)"];
13[shape = box,label = "0.028(0.507)"];
9[label = "[atm(a, q, F, 92, r), atm(a, s, F, 92, r)]"];
9 -> 14[label="True"];
9 -> 15[label="False"];
14[shape = box,label = "-0.065(0.484)"];
15[label = "[atm(a, t, H, 1, u), atm(a, v, C, 29, w)]"];
15 -> 16[label="True"];
15 -> 17[label="False"];
16[shape = box,label = "-0.042(0.490)"];
17[shape = box,label = "-0.016(0.496)"];
}
