digraph RDN{
0[style="filled" label="<=()" color="gray92"];
1[style="filled" label="memberOfList(willAnything,willList)" color="gray82"];
9 -> 1[label="" style=dashed];
2[style="filled" label="number()" color="gray92"];
3[style="filled" label="intersection()" color="gray82"];
3 -> 3[label="" style=dashed];
4[style="filled" label="atm(Drug,Atomid,Element,Atmtype,Charge)" color="gray92"];
5[style="filled" label="different()" color="gray82"];
22 -> 5[label="" style=dashed];
6[style="filled" label="=<()" color="gray92"];
7[style="filled" label="var()" color="gray92"];
8[style="filled" label="active(Drug)" color="gray52"];
4 -> 8[label="" style=solid];
24 -> 8[label="" style=solid];
29 -> 8[label="" style=solid];
19 -> 8[label="" style=solid];
9[style="filled" label="list()" color="gray92"];
10[style="filled" label="equalWithSmallTolerance()" color="gray82"];
15 -> 10[label="" style=dashed];
2 -> 10[label="" style=dashed];
11[style="filled" label="fail()" color="gray92"];
12[style="filled" label="contains()" color="gray82"];
12 -> 12[label="" style=dashed];
13[style="filled" label="true()" color="gray92"];
14[style="filled" label="ground()" color="gray92"];
15[style="filled" label="<()" color="gray92"];
16[style="filled" label="multiplyListOfNumbers()" color="gray92"];
17[style="filled" label=">=()" color="gray92"];
18[style="filled" label="=:=()" color="gray92"];
19[style="filled" label="ring_size_5(Drug,Ring)" color="gray92"];
20[style="filled" label="allNumbers(willList)" color="gray82"];
2 -> 20[label="" style=dashed];
20 -> 20[label="" style=dashed];
21[style="filled" label="isaInterestingNumber()" color="gray82"];
21 -> 21[label="" style=dashed];
10 -> 21[label="" style=dashed];
22[style="filled" label="\+()" color="gray92"];
23[style="filled" label="isaInterestingSymbol()" color="gray82"];
23 -> 23[label="" style=dashed];
24[style="filled" label="methyl(Drug,Ring)" color="gray92"];
25[style="filled" label="isaEqualTolerance(willNumber)" color="gray82"];
17 -> 25[label="" style=dashed];
2 -> 25[label="" style=dashed];
26[style="filled" label="addListOfNumbers()" color="gray92"];
27[style="filled" label="false()" color="gray92"];
28[style="filled" label="union()" color="gray82"];
28 -> 28[label="" style=dashed];
22 -> 28[label="" style=dashed];
29[style="filled" label="benzene(Drug,Ring)" color="gray92"];
30[style="filled" label="call()" color="gray92"];
31[style="filled" label="sameAs()" color="gray82"];
2 -> 31[label="" style=dashed];
31 -> 31[label="" style=dashed];
10 -> 31[label="" style=dashed];
}
