////// Learned from a dataset containing 1,040 positive (1,040.0 weighted sum) and 0 negative (0.0 wgt'ed) examples.
////// The minimal (wgt'ed) coverage = 3.000, the maximal (wgt'ed) NEG coverage = 0.499, and the minimal (wgt'ed) precision = 0.001 (using m = 0.1)

useStdLogicNotation: true.


////////////////////////////////////////////////////////////////////////////////
////
////     Gleaner for: allPossibleMarkers
////
////////////////////////////////////////////////////////////////////////////////

// Best in (weighted) recall bin #0, (-Infinity, 0.05], from 'outerLoop #8, null' and covering 3.0 wgt'ed positive and 0.0 wgt'ed negative examples:
//    Wgt'ed recall = 0.045, precision = 0.968, and F1 = 0.085 - learned after 30 total and 6 acceptable nodes.  Node score = -1.401006387236875

 FOR active(a) IF (atm(a, anon811673, C, 27, anon811679), methyl(a, anon838903)) THEN output = -0.007150 ELSE output = 0.056334;

// Best in (weighted) recall bin #1, (0.05, 0.1], from 'outerLoop #8, null' and covering 4.0 wgt'ed positive and 0.0 wgt'ed negative examples:
//    Wgt'ed recall = 0.060, precision = 0.976, and F1 = 0.112 - learned after 120 total and 64 acceptable nodes.  Node score = -1.4117887717701947

 FOR active(a) IF (atm(a, anon811673, C, 27, anon811679), anthracene(a, anon838905), carbon_5_aromatic_ring(a, anon841605)) THEN output = 0.066927 ELSE output = 0.052638;

// Best in (weighted) recall bin #2, (0.1, 0.15], from 'outerLoop #9, null' and covering 4.0 wgt'ed positive and 0.0 wgt'ed negative examples:
//    Wgt'ed recall = 0.121, precision = 0.976, and F1 = 0.215 - learned after 40 total and 5 acceptable nodes.  Node score = -0.7994166232441197

 FOR active(a) IF (atm(a, anon199869, C, 29, anon199875), ring_size_5(a, anon201573), methyl(a, anon234731)) THEN output = 0.448551 ELSE output = 0.264494;

// Best in (weighted) recall bin #3, (0.15, 0.2], from 'outerLoop #7, null' and covering 3.0 wgt'ed positive and 0.0 wgt'ed negative examples:
//    Wgt'ed recall = 0.175, precision = 0.968, and F1 = 0.297 - learned after 12 total and 11 acceptable nodes.  Node score = -0.6666690466666665

 FOR active(a) IF (methyl(a, anon46939), atm(a, anon60445, H, 1, anon60451)) THEN output = 0.174792 ELSE output = -0.158541;

// Best in (weighted) recall bin #4, (0.2, 0.25], from 'outerLoop #9, null' and covering 3.0 wgt'ed positive and 0.0 wgt'ed negative examples:
//    Wgt'ed recall = 0.229, precision = 0.968, and F1 = 0.370 - learned after 8 total and 5 acceptable nodes.  Node score = -0.6666690466666667

 FOR active(a) IF (methyl(a, anon84945), atm(a, anon115101, H, 1, anon115107)) THEN output = 0.150061 ELSE output = -0.138517;

// Best in (weighted) recall bin #5, (0.25, 0.3], from 'outerLoop #9, null' and covering 3.0 wgt'ed positive and 0.0 wgt'ed negative examples:
//    Wgt'ed recall = 0.270, precision = 0.968, and F1 = 0.423 - learned after 269 total and 156 acceptable nodes.  Node score = -0.213348801126684

 FOR active(a) IF (methyl(a, anon285909), atm(a, anon317645, N, 38, anon317651), bond(a, anon322567, anon317645, 2)) THEN output = -0.190194 ELSE output = -0.051108;

// Best in (weighted) recall bin #6, (0.3, 0.35], from 'outerLoop #6, null' and covering 3.0 wgt'ed positive and 0.0 wgt'ed negative examples:
//    Wgt'ed recall = 0.330, precision = 0.968, and F1 = 0.492 - learned after 41 total and 31 acceptable nodes.  Node score = -0.07790104922266966

 FOR active(a) IF (atm(a, anon258667, N, 32, anon258673), atm(a, anon260875, O, 40, anon258673), ring_size_5(a, anon261929), benzene(a, anon262665)) THEN output = -0.311984 ELSE output = 0.545097;

// Best in (weighted) recall bin #7, (0.35, 0.4], from 'outerLoop #8, null' and covering 4.0 wgt'ed positive and 0.0 wgt'ed negative examples:
//    Wgt'ed recall = 0.360, precision = 0.976, and F1 = 0.526 - learned after 119 total and 61 acceptable nodes.  Node score = -0.09963754336524457

 FOR active(a) IF (methyl(a, anon608917), atm(a, anon632675, C, 22, anon632681), bond(a, anon634339, anon632675, 1)) THEN output = -0.097522 ELSE output = -0.041452;

// Best in (weighted) recall bin #8, (0.4, 0.45], from 'outerLoop #6, null' and covering 4.0 wgt'ed positive and 0.0 wgt'ed negative examples:
//    Wgt'ed recall = 0.440, precision = 0.976, and F1 = 0.606 - learned after 29 total and 24 acceptable nodes.  Node score = -0.33560871401672143

 FOR active(a) IF (atm(a, anon258667, N, 32, anon258673), atm(a, anon260875, O, 40, anon258673), ring_size_5(a, anon261929)) THEN output = -0.150791 ELSE output = 0.587559;

// Best in (weighted) recall bin #9, (0.45, 0.5], from 'outerLoop #7, null' and covering 5.0 wgt'ed positive and 0.0 wgt'ed negative examples:
//    Wgt'ed recall = 0.495, precision = 0.980, and F1 = 0.658 - learned after 29 total and 24 acceptable nodes.  Node score = -0.7087576211227125

 FOR active(a) IF (atm(a, anon539171, N, 32, anon539177), atm(a, anon540575, O, 40, anon539177), ring_size_5(a, anon545383)) THEN output = -0.000269 ELSE output = 0.211172;

// Best in (weighted) recall bin #10, (0.5, 0.55], from 'outerLoop #6, null' and covering 5.0 wgt'ed positive and 0.0 wgt'ed negative examples:
//    Wgt'ed recall = 0.549, precision = 0.980, and F1 = 0.704 - learned after 308 total and 235 acceptable nodes.  Node score = -0.3356095840167215

 FOR active(a) IF (atm(a, anon258667, N, 32, anon258673), atm(a, anon260875, O, 40, anon258673), atm(a, anon261903, C, 22, anon261909), bond(a, anon258667, anon261903, 1)) THEN output = 0.587559 ELSE output = -0.150791;

// Best in (weighted) recall bin #11, (0.55, 0.6], from 'outerLoop #8, null' and covering 4.0 wgt'ed positive and 0.0 wgt'ed negative examples:
//    Wgt'ed recall = 0.563, precision = 0.976, and F1 = 0.714 - learned after 5 total and 3 acceptable nodes.  Node score = -0.2523965842757829

 FOR active(a) IF (atm(a, anon517799, C, 27, anon517805)) THEN output = -0.495094 ELSE output = -0.147378;

// Best in (weighted) recall bin #12, (0.6, 0.65], from 'outerLoop #8, null' and covering 20.0 wgt'ed positive and 0.0 wgt'ed negative examples:
//    Wgt'ed recall = 0.604, precision = 0.995, and F1 = 0.752 - learned after 15 total and 2 acceptable nodes.  Node score = -0.9965494417745079

 FOR active(a) IF (atm(a, anon42957, C, 29, anon42963), ring_size_5(a, anon43307), bond(a, anon42957, anon67329, 1)) THEN output = 0.727681 ELSE output = 0.736933;

// Best in (weighted) recall bin #13, (0.65, 0.7], from 'outerLoop #7, null' and covering 6.0 wgt'ed positive and 0.0 wgt'ed negative examples:
//    Wgt'ed recall = 0.659, precision = 0.984, and F1 = 0.789 - learned after 48 total and 37 acceptable nodes.  Node score = -0.4868619234404603

 FOR active(a) IF (atm(a, anon769035, N, 34, anon769041), atm(a, anon770165, C, 21, anon770171), methyl(a, anon791137)) THEN output = -0.076519 ELSE output = -0.103304;

// Best in (weighted) recall bin #14, (0.7, 0.75], from 'outerLoop #8, null' and covering 8.0 wgt'ed positive and 0.0 wgt'ed negative examples:
//    Wgt'ed recall = 0.721, precision = 0.988, and F1 = 0.833 - learned after 197 total and 102 acceptable nodes.  Node score = -0.09721184048559456

 FOR active(a) IF (methyl(a, anon608917), atm(a, anon632675, C, 10, anon632681), bond(a, anon636053, anon632675, 1)) THEN output = -0.042986 ELSE output = -0.112121;

// Best in (weighted) recall bin #15, (0.75, 0.8], from 'outerLoop #6, null' and covering 15.0 wgt'ed positive and 0.0 wgt'ed negative examples:
//    Wgt'ed recall = 0.785, precision = 0.993, and F1 = 0.877 - learned after 352 total and 267 acceptable nodes.  Node score = -3.095353872141549

 FOR active(a) IF (atm(a, anon136317, C, 22, anon136323), bond(a, anon138423, anon136317, 1), atm(a, anon140107, C, 22, anon136323), bond(a, anon140107, anon148813, 1)) THEN output = 0.342376 ELSE output = -0.280039;

// Best in (weighted) recall bin #16, (0.8, 0.85], from 'outerLoop #8, null' and covering 14.0 wgt'ed positive and 0.0 wgt'ed negative examples:
//    Wgt'ed recall = 0.819, precision = 0.993, and F1 = 0.897 - learned after 257 total and 130 acceptable nodes.  Node score = -0.8664382298244943

 FOR active(a) IF (methyl(a, anon252379), atm(a, anon274063, C, 10, anon274069), bond(a, anon278383, anon274063, 1)) THEN output = -0.074880 ELSE output = -0.173803;
      /* FALSE NEG: active(D78) Actual Bool=false Prob=0.13404461708785562 Output=-0.13404461708785562 */
      /* FALSE NEG: active(D55) Actual Bool=false Prob=0.25331835086078 Output=-0.25331835086078 */
      /* FALSE NEG: active(D7) Actual Bool=false Prob=0.13404461708785562 Output=-0.13404461708785562 */

// Best in (weighted) recall bin #17, (0.85, 0.9], from 'outerLoop #4, null' and covering 48.0 wgt'ed positive and 0.0 wgt'ed negative examples:
//    Wgt'ed recall = 0.887, precision = 0.998, and F1 = 0.939 - learned after 195 total and 41 acceptable nodes.  Node score = -13.312502300000059

 FOR active(a) IF (atm(a, anon10907, N, 38, anon10913), bond(a, anon13829, anon10907, 1)) THEN output = 0.337316 ELSE output = 0.191482;
      /* FALSE NEG: active(D21) Actual Bool=true Prob=0.14185106490048777 Output=9.98646875906689 */
      /* FALSE NEG: active(D5) Actual Bool=false Prob=0.14185106490048777 Output=-4.2177052324817845 */
      /* FALSE NEG: active(D73) Actual Bool=false Prob=0.14185106490048777 Output=-5.305100109048024 */
      /* FALSE NEG: active(D38) Actual Bool=false Prob=0.14185106490048777 Output=-10.013531240933112 */
      /* FALSE NEG: active(D49) Actual Bool=true Prob=0.14185106490048777 Output=7.35071065506987 */

// Best in (weighted) recall bin #18, (0.9, 0.95], from 'outerLoop #6, null' and covering 31.0 wgt'ed positive and 0.0 wgt'ed negative examples:
//    Wgt'ed recall = 0.909, precision = 0.997, and F1 = 0.951 - learned after 205 total and 38 acceptable nodes.  Node score = -5.2508439531633

 FOR active(a) IF (atm(a, anon179637, N, 38, anon179643), bond(a, anon182729, anon179637, 1)) THEN output = 0.034381 ELSE output = 0.009465;
      /* FALSE NEG: active(D49) Actual Bool=true Prob=0.41918506361157815 Output=0.5808149363884219 */
      /* FALSE NEG: active(D5) Actual Bool=false Prob=0.19319023329223123 Output=-0.19319023329223123 */
      /* FALSE NEG: active(D76) Actual Bool=false Prob=0.35922872145498613 Output=-0.35922872145498613 */

// Best in (weighted) recall bin #19, (0.95, 1.01], from 'outerLoop #7, null' and covering 9.0 wgt'ed positive and 0.0 wgt'ed negative examples:
//    Wgt'ed recall = 0.989, precision = 0.989, and F1 = 0.989 - learned after 1 total and 0 acceptable nodes.  Node score = -1.2579745903903656

 FOR active(a) IF (atm(a, anon405109, H, 1, anon405115), benzene(a, anon405435), atm(a, anon457457, N, 32, anon457463), atm(a, anon465999, O, 40, anon457463)) THEN output = 0.133362 ELSE output = -0.059452;


////////////////////////////////////////////////////////////////////////////////
////
////     Gleaner for: outerLoop #1, null
////
////////////////////////////////////////////////////////////////////////////////

// Best in (weighted) recall bin #0, (-Infinity, 0.05], from 'outerLoop #1, null' and covering 6.0 wgt'ed positive and 0.0 wgt'ed negative examples:
//    Wgt'ed recall = 0.035, precision = 0.984, and F1 = 0.068 - learned after 161 total and 95 acceptable nodes.  Node score = -9.73488227952661

 FOR active(a) IF (methyl(a, anon811703), hetero_aromatic_5_ring(a, anon814179)) THEN output = -0.075187 ELSE output = 0.026631;

// Best in (weighted) recall bin #1, (0.05, 0.1], from 'outerLoop #1, null' and covering 15.0 wgt'ed positive and 0.0 wgt'ed negative examples:
//    Wgt'ed recall = 0.089, precision = 0.993, and F1 = 0.163 - learned after 45 total and 34 acceptable nodes.  Node score = -9.764937682954944

 FOR active(a) IF (atm(a, anon811673, C, 27, anon811679), carbon_6_ring(a, anon811967)) THEN output = 0.065662 ELSE output = 0.018862;

// Best in (weighted) recall bin #2, (0.1, 0.15], from 'outerLoop #1, null' and covering 23.0 wgt'ed positive and 0.0 wgt'ed negative examples:
//    Wgt'ed recall = 0.136, precision = 0.996, and F1 = 0.239 - learned after 23 total and 12 acceptable nodes.  Node score = -9.724600912911791

 FOR active(a) IF (phenanthrene(a, anon811707)) THEN output = 0.074392 ELSE output = 0.014922;

// Best in (weighted) recall bin #3, (0.15, 0.2], from 'outerLoop #1, null' and covering 26.0 wgt'ed positive and 0.0 wgt'ed negative examples:
//    Wgt'ed recall = 0.154, precision = 0.996, and F1 = 0.266 - learned after 24 total and 13 acceptable nodes.  Node score = -9.728828838002421

 FOR active(a) IF (ball3(a, anon811709)) THEN output = 0.069377 ELSE output = 0.014586;

// Best in (weighted) recall bin #5, (0.25, 0.3], from 'outerLoop #1, null' and covering 48.0 wgt'ed positive and 0.0 wgt'ed negative examples:
//    Wgt'ed recall = 0.284, precision = 0.998, and F1 = 0.442 - learned after 110 total and 63 acceptable nodes.  Node score = -11.089385493980481

 FOR active(a) IF (atm(a, anon602559, C, 29, anon602565), bond(a, anon602559, anon604227, 1)) THEN output = 0.050009 ELSE output = 0.031972;

// Best in (weighted) recall bin #6, (0.3, 0.35], from 'outerLoop #1, null' and covering 58.0 wgt'ed positive and 0.0 wgt'ed negative examples:
//    Wgt'ed recall = 0.343, precision = 0.998, and F1 = 0.511 - learned after 114 total and 72 acceptable nodes.  Node score = -9.752098319209617

 FOR active(a) IF (ring_size_5(a, anon811699), benzene(a, anon813615)) THEN output = 0.045025 ELSE output = 0.011515;

// Best in (weighted) recall bin #7, (0.35, 0.4], from 'outerLoop #1, null' and covering 60.0 wgt'ed positive and 0.0 wgt'ed negative examples:
//    Wgt'ed recall = 0.355, precision = 0.998, and F1 = 0.524 - learned after 19 total and 9 acceptable nodes.  Node score = -9.752523469219932

 FOR active(a) IF (ring_size_5(a, anon811699)) THEN output = 0.044352 ELSE output = 0.011271;

// Best in (weighted) recall bin #8, (0.4, 0.45], from 'outerLoop #1, null' and covering 73.0 wgt'ed positive and 0.0 wgt'ed negative examples:
//    Wgt'ed recall = 0.432, precision = 0.999, and F1 = 0.603 - learned after 5 total and 1 acceptable nodes.  Node score = -9.724533170942367

 FOR active(a) IF (atm(a, anon811673, C, 27, anon811679)) THEN output = 0.046411 ELSE output = 0.005225;

// Best in (weighted) recall bin #19, (0.95, 1.01], from 'outerLoop #1, null' and covering 3,340.0 wgt'ed positive and 0.0 wgt'ed negative examples:
//    Wgt'ed recall = 0.988, precision = 1.000, and F1 = 0.994 - learned after 14 total and 4 acceptable nodes.  Node score = -119486.78952474908

 FOR active(a) IF (benzene(a, anon845021)) THEN output = 2.687934 ELSE output = 2.311073;
      /* FALSE NEG: active(D150) Actual Bool=false Prob=0.14185106490048777 Output=-1.5120979690831804 */
      /* FALSE NEG: active(D63) Actual Bool=true Prob=0.14185106490048777 Output=6.134244667096249 */


////////////////////////////////////////////////////////////////////////////////
////
////     Gleaner for: outerLoop #2, null
////
////////////////////////////////////////////////////////////////////////////////

// Best in (weighted) recall bin #0, (-Infinity, 0.05], from 'outerLoop #2, null' and covering 4.0 wgt'ed positive and 0.0 wgt'ed negative examples:
//    Wgt'ed recall = 0.042, precision = 0.976, and F1 = 0.080 - learned after 119 total and 69 acceptable nodes.  Node score = -7.619319052780304

 FOR active(a) IF (atm(a, anon814751, H, 1, anon814757), atm(a, anon816445, C, 26, anon814757)) THEN output = 0.134966 ELSE output = -0.000415;

// Best in (weighted) recall bin #1, (0.05, 0.1], from 'outerLoop #2, null' and covering 9.0 wgt'ed positive and 0.0 wgt'ed negative examples:
//    Wgt'ed recall = 0.094, precision = 0.989, and F1 = 0.171 - learned after 34 total and 18 acceptable nodes.  Node score = -7.632075411949224

 FOR active(a) IF (atm(a, anon814751, C, 21, anon814757), atm(a, anon815063, N, 34, anon815069)) THEN output = -0.070867 ELSE output = 0.013097;

// Best in (weighted) recall bin #2, (0.1, 0.15], from 'outerLoop #2, null' and covering 4.0 wgt'ed positive and 0.0 wgt'ed negative examples:
//    Wgt'ed recall = 0.125, precision = 0.976, and F1 = 0.221 - learned after 242 total and 126 acceptable nodes.  Node score = -4.088090300800308

 FOR active(a) IF (atm(a, anon405109, H, 1, anon405115), benzene(a, anon405435), atm(a, anon408971, C, 26, anon408977), greaterCharge(anon408977, anon405115)) THEN output = 0.137978 ELSE output = -0.041714;

// Best in (weighted) recall bin #3, (0.15, 0.2], from 'outerLoop #2, null' and covering 5.0 wgt'ed positive and 0.0 wgt'ed negative examples:
//    Wgt'ed recall = 0.156, precision = 0.980, and F1 = 0.269 - learned after 9 total and 2 acceptable nodes.  Node score = -4.086881981930292

 FOR active(a) IF (atm(a, anon405109, H, 1, anon405115), benzene(a, anon405435), atm(a, anon408971, C, 21, anon408977)) THEN output = -0.158085 ELSE output = 0.006458;

// Best in (weighted) recall bin #4, (0.2, 0.25], from 'outerLoop #2, null' and covering 31.0 wgt'ed positive and 0.0 wgt'ed negative examples:
//    Wgt'ed recall = 0.212, precision = 0.997, and F1 = 0.350 - learned after 98 total and 62 acceptable nodes.  Node score = -10.225013111672387

 FOR active(a) IF (atm(a, anon731597, H, 1, anon731603), benzene(a, anon732633)) THEN output = -0.019284 ELSE output = 0.027441;

// Best in (weighted) recall bin #5, (0.25, 0.3], from 'outerLoop #2, null' and covering 48.0 wgt'ed positive and 0.0 wgt'ed negative examples:
//    Wgt'ed recall = 0.300, precision = 0.998, and F1 = 0.461 - learned after 7 total and 3 acceptable nodes.  Node score = -9.46181799907403

 FOR active(a) IF (atm(a, anon772409, C, 10, anon772415)) THEN output = 0.049570 ELSE output = 0.022792;

// Best in (weighted) recall bin #6, (0.3, 0.35], from 'outerLoop #2, null' and covering 3.0 wgt'ed positive and 0.0 wgt'ed negative examples:
//    Wgt'ed recall = 0.330, precision = 0.968, and F1 = 0.492 - learned after 28 total and 22 acceptable nodes.  Node score = -0.6727348206534173

 FOR active(a) IF (atm(a, anon637983, O, 50, anon637989), methyl(a, anon641365)) THEN output = -0.062883 ELSE output = -0.102189;

// Best in (weighted) recall bin #7, (0.35, 0.4], from 'outerLoop #2, null' and covering 36.0 wgt'ed positive and 0.0 wgt'ed negative examples:
//    Wgt'ed recall = 0.375, precision = 0.997, and F1 = 0.545 - learned after 21 total and 9 acceptable nodes.  Node score = -7.659908608103996

 FOR active(a) IF (ring_size_5(a, anon814777)) THEN output = 0.027920 ELSE output = -0.008392;

// Best in (weighted) recall bin #8, (0.4, 0.45], from 'outerLoop #2, null' and covering 14.0 wgt'ed positive and 0.0 wgt'ed negative examples:
//    Wgt'ed recall = 0.436, precision = 0.993, and F1 = 0.606 - learned after 33 total and 4 acceptable nodes.  Node score = -4.182764812418256

 FOR active(a) IF (atm(a, anon405109, H, 1, anon405115), benzene(a, anon405435), ring_size_5(a, anon408997)) THEN output = -0.046395 ELSE output = 0.001859;

// Best in (weighted) recall bin #9, (0.45, 0.5], from 'outerLoop #2, null' and covering 44.0 wgt'ed positive and 0.0 wgt'ed negative examples:
//    Wgt'ed recall = 0.458, precision = 0.998, and F1 = 0.628 - learned after 4 total and 0 acceptable nodes.  Node score = -8.044843654692825

 FOR active(a) IF (atm(a, anon687205, C, 29, anon687211)) THEN output = 0.041912 ELSE output = -0.018968;

// Best in (weighted) recall bin #17, (0.85, 0.9], from 'outerLoop #2, null' and covering 8.0 wgt'ed positive and 0.0 wgt'ed negative examples:
//    Wgt'ed recall = 0.879, precision = 0.988, and F1 = 0.930 - learned after 268 total and 199 acceptable nodes.  Node score = -Infinity

 FOR active(a) IF (atm(a, anon637983, O, 50, anon637989), atm(a, anon641335, C, 22, anon641341), bond(a, anon641335, anon637983, 1)) THEN output = -0.065941 ELSE output = -0.274259;
      /* FALSE NEG: active(D179) Actual Bool=false Prob=0.2742592145769501 Output=-0.2742592145769501 */

// Best in (weighted) recall bin #19, (0.95, 1.01], from 'outerLoop #2, null' and covering 9.0 wgt'ed positive and 0.0 wgt'ed negative examples:
//    Wgt'ed recall = 0.989, precision = 0.989, and F1 = 0.989 - learned after 1 total and 0 acceptable nodes.  Node score = -10.668893406950069

 FOR active(a) IF (atm(a, anon637983, O, 50, anon637989)) THEN output = -0.089087 ELSE output = 0.040110;


////////////////////////////////////////////////////////////////////////////////
////
////     Gleaner for: outerLoop #3, null
////
////////////////////////////////////////////////////////////////////////////////

// Best in (weighted) recall bin #0, (-Infinity, 0.05], from 'outerLoop #3, null' and covering 4.0 wgt'ed positive and 0.0 wgt'ed negative examples:
//    Wgt'ed recall = 0.046, precision = 0.976, and F1 = 0.088 - learned after 28 total and 16 acceptable nodes.  Node score = -7.045069383809529

 FOR active(a) IF (anthracene(a, anon533621), carbon_5_aromatic_ring(a, anon533893)) THEN output = 0.116292 ELSE output = 0.000795;

// Best in (weighted) recall bin #1, (0.05, 0.1], from 'outerLoop #3, null' and covering 4.0 wgt'ed positive and 0.0 wgt'ed negative examples:
//    Wgt'ed recall = 0.091, precision = 0.976, and F1 = 0.166 - learned after 25 total and 2 acceptable nodes.  Node score = -4.166015199315765

 FOR active(a) IF (atm(a, anon687205, C, 29, anon687211), carbon_6_ring(a, anon690501)) THEN output = 0.098614 ELSE output = 0.036242;

// Best in (weighted) recall bin #2, (0.1, 0.15], from 'outerLoop #3, null' and covering 4.0 wgt'ed positive and 0.0 wgt'ed negative examples:
//    Wgt'ed recall = 0.148, precision = 0.976, and F1 = 0.256 - learned after 85 total and 35 acceptable nodes.  Node score = -3.4994898816321376

 FOR active(a) IF (atm(a, anon405109, H, 1, anon405115), benzene(a, anon405435), atm(a, anon419549, C, 29, anon419555), ring_size_5(a, anon420399)) THEN output = -0.045705 ELSE output = 0.015529;

// Best in (weighted) recall bin #3, (0.15, 0.2], from 'outerLoop #3, null' and covering 7.0 wgt'ed positive and 0.0 wgt'ed negative examples:
//    Wgt'ed recall = 0.159, precision = 0.986, and F1 = 0.273 - learned after 31 total and 4 acceptable nodes.  Node score = -4.170701034391125

 FOR active(a) IF (atm(a, anon687205, C, 29, anon687211), methyl(a, anon690513)) THEN output = 0.008200 ELSE output = 0.048290;

// Best in (weighted) recall bin #4, (0.2, 0.25], from 'outerLoop #3, null' and covering 20.0 wgt'ed positive and 0.0 wgt'ed negative examples:
//    Wgt'ed recall = 0.230, precision = 0.995, and F1 = 0.373 - learned after 186 total and 89 acceptable nodes.  Node score = -7.087894220208785

 FOR active(a) IF (atm(a, anon533589, H, 1, anon533595), benzene(a, anon535849)) THEN output = -0.011533 ELSE output = 0.011371;

// Best in (weighted) recall bin #5, (0.25, 0.3], from 'outerLoop #3, null' and covering 25.0 wgt'ed positive and 0.0 wgt'ed negative examples:
//    Wgt'ed recall = 0.287, precision = 0.996, and F1 = 0.446 - learned after 106 total and 47 acceptable nodes.  Node score = -7.041501605863984

 FOR active(a) IF (ring_size_5(a, anon533615), benzene(a, anon535007)) THEN output = 0.045511 ELSE output = -0.009784;

// Best in (weighted) recall bin #6, (0.3, 0.35], from 'outerLoop #3, null' and covering 9.0 wgt'ed positive and 0.0 wgt'ed negative examples:
//    Wgt'ed recall = 0.332, precision = 0.989, and F1 = 0.497 - learned after 32 total and 2 acceptable nodes.  Node score = -3.511123431908342

 FOR active(a) IF (atm(a, anon405109, H, 1, anon405115), benzene(a, anon405435), ring_size_5(a, anon419575)) THEN output = 0.015655 ELSE output = 0.001859;

// Best in (weighted) recall bin #7, (0.35, 0.4], from 'outerLoop #3, null' and covering 17.0 wgt'ed positive and 0.0 wgt'ed negative examples:
//    Wgt'ed recall = 0.385, precision = 0.994, and F1 = 0.556 - learned after 6 total and 0 acceptable nodes.  Node score = -4.170204227190281

 FOR active(a) IF (atm(a, anon687205, C, 29, anon687211), atm(a, anon690483, C, 10, anon687211)) THEN output = 0.060870 ELSE output = 0.029975;

// Best in (weighted) recall bin #8, (0.4, 0.45], from 'outerLoop #3, null' and covering 11.0 wgt'ed positive and 0.0 wgt'ed negative examples:
//    Wgt'ed recall = 0.406, precision = 0.991, and F1 = 0.576 - learned after 7 total and 0 acceptable nodes.  Node score = -3.441168780090473

 FOR active(a) IF (atm(a, anon405109, H, 1, anon405115), benzene(a, anon405435), atm(a, anon419549, C, 29, anon419555)) THEN output = -0.055430 ELSE output = 0.049006;

// Best in (weighted) recall bin #9, (0.45, 0.5], from 'outerLoop #3, null' and covering 20.0 wgt'ed positive and 0.0 wgt'ed negative examples:
//    Wgt'ed recall = 0.454, precision = 0.995, and F1 = 0.623 - learned after 9 total and 1 acceptable nodes.  Node score = -4.156619104674119

 FOR active(a) IF (atm(a, anon687205, C, 29, anon687211), atm(a, anon690483, C, 10, anon690489)) THEN output = 0.067251 ELSE output = 0.020796;

// Best in (weighted) recall bin #19, (0.95, 1.01], from 'outerLoop #3, null' and covering 78.0 wgt'ed positive and 0.0 wgt'ed negative examples:
//    Wgt'ed recall = 0.986, precision = 0.999, and F1 = 0.992 - learned after 4 total and 0 acceptable nodes.  Node score = -Infinity

 FOR active(a) IF (atm(a, anon7451, C, 22, anon7457)) THEN output = 0.409431 ELSE output = 0.858149;
      /* FALSE NEG: active(D63) Actual Bool=true Prob=0.14185106490048777 Output=6.134244667096249 */


////////////////////////////////////////////////////////////////////////////////
////
////     Gleaner for: outerLoop #4, null
////
////////////////////////////////////////////////////////////////////////////////

// Best in (weighted) recall bin #0, (-Infinity, 0.05], from 'outerLoop #4, null' and covering 4.0 wgt'ed positive and 0.0 wgt'ed negative examples:
//    Wgt'ed recall = 0.049, precision = 0.976, and F1 = 0.093 - learned after 13 total and 3 acceptable nodes.  Node score = -6.860427394333634

 FOR active(a) IF (carbon_5_aromatic_ring(a, anon536407)) THEN output = 0.131505 ELSE output = -0.010102;

// Best in (weighted) recall bin #1, (0.05, 0.1], from 'outerLoop #4, null' and covering 3.0 wgt'ed positive and 0.0 wgt'ed negative examples:
//    Wgt'ed recall = 0.100, precision = 0.968, and F1 = 0.181 - learned after 29 total and 2 acceptable nodes.  Node score = -4.0611573313308496

 FOR active(a) IF (atm(a, anon687205, C, 29, anon687211), methyl(a, anon697955)) THEN output = -0.092947 ELSE output = 0.029975;

// Best in (weighted) recall bin #2, (0.1, 0.15], from 'outerLoop #4, null' and covering 4.0 wgt'ed positive and 0.0 wgt'ed negative examples:
//    Wgt'ed recall = 0.133, precision = 0.976, and F1 = 0.234 - learned after 27 total and 1 acceptable nodes.  Node score = -4.0558985564750065

 FOR active(a) IF (atm(a, anon687205, C, 29, anon687211), ring_size_5(a, anon697951)) THEN output = -0.082210 ELSE output = 0.033051;

// Best in (weighted) recall bin #3, (0.15, 0.2], from 'outerLoop #4, null' and covering 14.0 wgt'ed positive and 0.0 wgt'ed negative examples:
//    Wgt'ed recall = 0.171, precision = 0.993, and F1 = 0.291 - learned after 20 total and 9 acceptable nodes.  Node score = -6.90684411872251

 FOR active(a) IF (methyl(a, anon536421)) THEN output = -0.045266 ELSE output = 0.005467;

// Best in (weighted) recall bin #4, (0.2, 0.25], from 'outerLoop #4, null' and covering 20.0 wgt'ed positive and 0.0 wgt'ed negative examples:
//    Wgt'ed recall = 0.232, precision = 0.995, and F1 = 0.377 - learned after 49 total and 29 acceptable nodes.  Node score = -6.983413067097698

 FOR active(a) IF (atm(a, anon822361, C, 10, anon822367), ring_size_5(a, anon822669)) THEN output = 0.076751 ELSE output = -0.013668;

// Best in (weighted) recall bin #5, (0.25, 0.3], from 'outerLoop #4, null' and covering 3.0 wgt'ed positive and 0.0 wgt'ed negative examples:
//    Wgt'ed recall = 0.270, precision = 0.968, and F1 = 0.423 - learned after 8 total and 7 acceptable nodes.  Node score = -1.8096408513626245

 FOR active(a) IF (atm(a, anon405109, H, 1, anon405115), benzene(a, anon405435), atm(a, anon419549, C, 29, anon419555), atm(a, anon429855, C, 10, anon419555)) THEN output = 0.179245 ELSE output = -0.143434;

// Best in (weighted) recall bin #6, (0.3, 0.35], from 'outerLoop #4, null' and covering 28.0 wgt'ed positive and 0.0 wgt'ed negative examples:
//    Wgt'ed recall = 0.325, precision = 0.996, and F1 = 0.490 - learned after 43 total and 26 acceptable nodes.  Node score = -7.026976772990566

 FOR active(a) IF (atm(a, anon822361, C, 10, anon822367), benzene(a, anon822657)) THEN output = 0.051780 ELSE output = -0.014085;

// Best in (weighted) recall bin #7, (0.35, 0.4], from 'outerLoop #4, null' and covering 4.0 wgt'ed positive and 0.0 wgt'ed negative examples:
//    Wgt'ed recall = 0.360, precision = 0.976, and F1 = 0.526 - learned after 50 total and 35 acceptable nodes.  Node score = -2.0362200880310133

 FOR active(a) IF (atm(a, anon405109, H, 1, anon405115), benzene(a, anon405435), atm(a, anon419549, C, 29, anon419555), ring_size_5(a, anon429881)) THEN output = -0.045705 ELSE output = -0.060988;

// Best in (weighted) recall bin #8, (0.4, 0.45], from 'outerLoop #4, null' and covering 13.0 wgt'ed positive and 0.0 wgt'ed negative examples:
//    Wgt'ed recall = 0.432, precision = 0.992, and F1 = 0.602 - learned after 281 total and 44 acceptable nodes.  Node score = -4.06210651913518

 FOR active(a) IF (atm(a, anon687205, C, 29, anon687211), atm(a, anon697925, C, 22, anon697931), greaterCharge(anon697931, anon687211)) THEN output = -0.023994 ELSE output = 0.049554;

// Best in (weighted) recall bin #9, (0.45, 0.5], from 'outerLoop #4, null' and covering 15.0 wgt'ed positive and 0.0 wgt'ed negative examples:
//    Wgt'ed recall = 0.498, precision = 0.993, and F1 = 0.664 - learned after 275 total and 43 acceptable nodes.  Node score = -4.100830697358854

 FOR active(a) IF (atm(a, anon687205, C, 29, anon687211), atm(a, anon697925, C, 22, anon697931), bond(a, anon703203, anon697925, 1)) THEN output = 0.023805 ELSE output = 0.011561;

// Best in (weighted) recall bin #10, (0.5, 0.55], from 'outerLoop #4, null' and covering 44.0 wgt'ed positive and 0.0 wgt'ed negative examples:
//    Wgt'ed recall = 0.511, precision = 0.998, and F1 = 0.676 - learned after 5 total and 1 acceptable nodes.  Node score = -7.044584290077298

 FOR active(a) IF (atm(a, anon822361, C, 29, anon822367)) THEN output = 0.034077 ELSE output = -0.020630;

// Best in (weighted) recall bin #11, (0.55, 0.6], from 'outerLoop #4, null' and covering 48.0 wgt'ed positive and 0.0 wgt'ed negative examples:
//    Wgt'ed recall = 0.557, precision = 0.998, and F1 = 0.715 - learned after 228 total and 118 acceptable nodes.  Node score = -7.051492322538412

 FOR active(a) IF (atm(a, anon822361, C, 22, anon822367), bond(a, anon825585, anon822361, 1)) THEN output = 0.030347 ELSE output = -0.021678;

// Best in (weighted) recall bin #16, (0.8, 0.85], from 'outerLoop #4, null' and covering 61.0 wgt'ed positive and 0.0 wgt'ed negative examples:
//    Wgt'ed recall = 0.846, precision = 0.998, and F1 = 0.916 - learned after 189 total and 25 acceptable nodes.  Node score = -7.8820616411507

 FOR active(a) IF (atm(a, anon738457, N, 38, anon738463), bond(a, anon741149, anon738457, 1)) THEN output = 0.011026 ELSE output = -0.202503;
      /* FALSE NEG: active(D21) Actual Bool=true Prob=0.5965308874085887 Output=0.40346911259141127 */
      /* FALSE NEG: active(D5) Actual Bool=false Prob=0.19502614344425015 Output=-0.19502614344425015 */
      /* FALSE NEG: active(D38) Actual Bool=false Prob=0.5965308874085887 Output=-0.5965308874085887 */
      /* FALSE NEG: active(D49) Actual Bool=true Prob=0.8362510935590859 Output=0.1637489064409141 */
      /* FALSE NEG: active(D3) Actual Bool=false Prob=0.20497571307026502 Output=-0.20497571307026502 */

// Best in (weighted) recall bin #17, (0.85, 0.9], from 'outerLoop #4, null' and covering 48.0 wgt'ed positive and 0.0 wgt'ed negative examples:
//    Wgt'ed recall = 0.887, precision = 0.998, and F1 = 0.939 - learned after 195 total and 41 acceptable nodes.  Node score = -13.312502300000059

 FOR active(a) IF (atm(a, anon10907, N, 38, anon10913), bond(a, anon13829, anon10907, 1)) THEN output = 0.337316 ELSE output = 0.191482;
      /* FALSE NEG: active(D21) Actual Bool=true Prob=0.14185106490048777 Output=9.98646875906689 */
      /* FALSE NEG: active(D5) Actual Bool=false Prob=0.14185106490048777 Output=-4.2177052324817845 */
      /* FALSE NEG: active(D73) Actual Bool=false Prob=0.14185106490048777 Output=-5.305100109048024 */
      /* FALSE NEG: active(D38) Actual Bool=false Prob=0.14185106490048777 Output=-10.013531240933112 */
      /* FALSE NEG: active(D49) Actual Bool=true Prob=0.14185106490048777 Output=7.35071065506987 */

// Best in (weighted) recall bin #19, (0.95, 1.01], from 'outerLoop #4, null' and covering 11.0 wgt'ed positive and 0.0 wgt'ed negative examples:
//    Wgt'ed recall = 0.991, precision = 0.991, and F1 = 0.991 - learned after 1 total and 0 acceptable nodes.  Node score = -3.441168780090473

 FOR active(a) IF (atm(a, anon405109, H, 1, anon405115), benzene(a, anon405435), atm(a, anon419549, C, 29, anon419555)) THEN output = -0.055430 ELSE output = 0.049006;


////////////////////////////////////////////////////////////////////////////////
////
////     Gleaner for: outerLoop #5, null
////
////////////////////////////////////////////////////////////////////////////////

// Best in (weighted) recall bin #0, (-Infinity, 0.05], from 'outerLoop #5, null' and covering 3.0 wgt'ed positive and 0.0 wgt'ed negative examples:
//    Wgt'ed recall = 0.045, precision = 0.968, and F1 = 0.087 - learned after 49 total and 28 acceptable nodes.  Node score = -6.459523721261417

 FOR active(a) IF (atm(a, anon826205, N, 32, anon826211), ring_size_5(a, anon826507)) THEN output = -0.233717 ELSE output = -0.003189;

// Best in (weighted) recall bin #1, (0.05, 0.1], from 'outerLoop #5, null' and covering 4.0 wgt'ed positive and 0.0 wgt'ed negative examples:
//    Wgt'ed recall = 0.061, precision = 0.976, and F1 = 0.114 - learned after 15 total and 4 acceptable nodes.  Node score = -6.571765994912737

 FOR active(a) IF (carbon_6_ring(a, anon826223)) THEN output = 0.083181 ELSE output = -0.019916;

// Best in (weighted) recall bin #2, (0.1, 0.15], from 'outerLoop #5, null' and covering 3.0 wgt'ed positive and 0.0 wgt'ed negative examples:
//    Wgt'ed recall = 0.115, precision = 0.968, and F1 = 0.205 - learned after 29 total and 1 acceptable nodes.  Node score = -3.5942452336639548

 FOR active(a) IF (atm(a, anon687205, C, 29, anon687211), methyl(a, anon704453)) THEN output = -0.092947 ELSE output = 0.049486;

// Best in (weighted) recall bin #3, (0.15, 0.2], from 'outerLoop #5, null' and covering 4.0 wgt'ed positive and 0.0 wgt'ed negative examples:
//    Wgt'ed recall = 0.153, precision = 0.976, and F1 = 0.265 - learned after 23 total and 0 acceptable nodes.  Node score = -3.62776439079608

 FOR active(a) IF (atm(a, anon687205, C, 29, anon687211), carbon_6_ring(a, anon704441)) THEN output = 0.098614 ELSE output = 0.021131;

// Best in (weighted) recall bin #4, (0.2, 0.25], from 'outerLoop #5, null' and covering 8.0 wgt'ed positive and 0.0 wgt'ed negative examples:
//    Wgt'ed recall = 0.205, precision = 0.988, and F1 = 0.339 - learned after 19 total and 2 acceptable nodes.  Node score = -6.544238193101341

 FOR active(a) IF (ring_size_5(a, anon176065)) THEN output = 0.021747 ELSE output = 0.063316;

// Best in (weighted) recall bin #5, (0.25, 0.3], from 'outerLoop #5, null' and covering 19.0 wgt'ed positive and 0.0 wgt'ed negative examples:
//    Wgt'ed recall = 0.287, precision = 0.995, and F1 = 0.446 - learned after 43 total and 26 acceptable nodes.  Node score = -6.557424917997853

 FOR active(a) IF (atm(a, anon826205, N, 32, anon826211), benzene(a, anon826495)) THEN output = -0.058773 ELSE output = 0.004566;

// Best in (weighted) recall bin #6, (0.3, 0.35], from 'outerLoop #5, null' and covering 20.0 wgt'ed positive and 0.0 wgt'ed negative examples:
//    Wgt'ed recall = 0.303, precision = 0.995, and F1 = 0.464 - learned after 6 total and 1 acceptable nodes.  Node score = -6.570058628663647

 FOR active(a) IF (atm(a, anon826205, N, 32, anon826211)) THEN output = -0.051764 ELSE output = 0.002896;

// Best in (weighted) recall bin #7, (0.35, 0.4], from 'outerLoop #5, null' and covering 4.0 wgt'ed positive and 0.0 wgt'ed negative examples:
//    Wgt'ed recall = 0.360, precision = 0.976, and F1 = 0.526 - learned after 8 total and 6 acceptable nodes.  Node score = -1.7271591328870162

 FOR active(a) IF (ring_size_5(a, anon289445), atm(a, anon292525, H, 1, anon292531), atm(a, anon293041, C, 26, anon293047)) THEN output = -0.025313 ELSE output = -0.121039;

// Best in (weighted) recall bin #8, (0.4, 0.45], from 'outerLoop #5, null' and covering 11.0 wgt'ed positive and 0.0 wgt'ed negative examples:
//    Wgt'ed recall = 0.421, precision = 0.991, and F1 = 0.591 - learned after 250 total and 29 acceptable nodes.  Node score = -3.6317112957713635

 FOR active(a) IF (atm(a, anon687205, C, 29, anon687211), atm(a, anon704423, C, 22, anon704429), bond(a, anon709193, anon704423, 1)) THEN output = 0.062356 ELSE output = 0.011561;

// Best in (weighted) recall bin #9, (0.45, 0.5], from 'outerLoop #5, null' and covering 5.0 wgt'ed positive and 0.0 wgt'ed negative examples:
//    Wgt'ed recall = 0.450, precision = 0.980, and F1 = 0.617 - learned after 29 total and 20 acceptable nodes.  Node score = -1.6378627174442992

 FOR active(a) IF (ring_size_5(a, anon289445), atm(a, anon292525, H, 1, anon292531), hetero_aromatic_5_ring(a, anon289445)) THEN output = 0.024613 ELSE output = -0.178598;

// Best in (weighted) recall bin #10, (0.5, 0.55], from 'outerLoop #5, null' and covering 40.0 wgt'ed positive and 0.0 wgt'ed negative examples:
//    Wgt'ed recall = 0.506, precision = 0.998, and F1 = 0.671 - learned after 5 total and 0 acceptable nodes.  Node score = -6.815642581383529

 FOR active(a) IF (atm(a, anon783415, C, 29, anon783421)) THEN output = 0.029098 ELSE output = -0.037035;

// Best in (weighted) recall bin #18, (0.9, 0.95], from 'outerLoop #5, null' and covering 36.0 wgt'ed positive and 0.0 wgt'ed negative examples:
//    Wgt'ed recall = 0.921, precision = 0.997, and F1 = 0.957 - learned after 211 total and 67 acceptable nodes.  Node score = -6.548551365271864

 FOR active(a) IF (atm(a, anon176039, N, 38, anon176045), bond(a, anon179073, anon176039, 1)) THEN output = 0.058566 ELSE output = 0.009465;
      /* FALSE NEG: active(D49) Actual Bool=true Prob=0.41918506361157815 Output=0.5808149363884219 */
      /* FALSE NEG: active(D5) Actual Bool=false Prob=0.19319023329223123 Output=-0.19319023329223123 */
      /* FALSE NEG: active(D76) Actual Bool=false Prob=0.35922872145498613 Output=-0.35922872145498613 */

// Best in (weighted) recall bin #19, (0.95, 1.01], from 'outerLoop #5, null' and covering 8.0 wgt'ed positive and 0.0 wgt'ed negative examples:
//    Wgt'ed recall = 0.988, precision = 0.988, and F1 = 0.988 - learned after 1 total and 0 acceptable nodes.  Node score = -3.441168780090473

 FOR active(a) IF (atm(a, anon405109, H, 1, anon405115), benzene(a, anon405435), atm(a, anon419549, C, 29, anon419555)) THEN output = -0.055430 ELSE output = 0.049006;


////////////////////////////////////////////////////////////////////////////////
////
////     Gleaner for: outerLoop #6, null
////
////////////////////////////////////////////////////////////////////////////////

// Best in (weighted) recall bin #0, (-Infinity, 0.05], from 'outerLoop #6, null' and covering 3.0 wgt'ed positive and 0.0 wgt'ed negative examples:
//    Wgt'ed recall = 0.048, precision = 0.968, and F1 = 0.092 - learned after 12 total and 2 acceptable nodes.  Node score = -5.7226254167283646

 FOR active(a) IF (carbon_5_aromatic_ring(a, anon542413)) THEN output = 0.116292 ELSE output = -0.046435;

// Best in (weighted) recall bin #1, (0.05, 0.1], from 'outerLoop #6, null' and covering 3.0 wgt'ed positive and 0.0 wgt'ed negative examples:
//    Wgt'ed recall = 0.079, precision = 0.968, and F1 = 0.146 - learned after 183 total and 108 acceptable nodes.  Node score = -4.774692938318352

 FOR active(a) IF (atm(a, anon338271, C, 29, anon338277), methyl(a, anon341889), ring_size_5(a, anon345481)) THEN output = 0.218015 ELSE output = 0.082812;

// Best in (weighted) recall bin #2, (0.1, 0.15], from 'outerLoop #6, null' and covering 3.0 wgt'ed positive and 0.0 wgt'ed negative examples:
//    Wgt'ed recall = 0.124, precision = 0.968, and F1 = 0.221 - learned after 118 total and 44 acceptable nodes.  Node score = -2.3514215513036487

 FOR active(a) IF (atm(a, anon655387, N, 32, anon655393), benzene(a, anon655707), atm(a, anon658877, C, 29, anon658883), ring_size_5(a, anon660507)) THEN output = -0.114107 ELSE output = -0.043686;

// Best in (weighted) recall bin #3, (0.15, 0.2], from 'outerLoop #6, null' and covering 4.0 wgt'ed positive and 0.0 wgt'ed negative examples:
//    Wgt'ed recall = 0.173, precision = 0.976, and F1 = 0.294 - learned after 25 total and 2 acceptable nodes.  Node score = -3.5823974186769707

 FOR active(a) IF (atm(a, anon687205, C, 29, anon687211), carbon_6_ring(a, anon711653)) THEN output = 0.098614 ELSE output = 0.039143;

// Best in (weighted) recall bin #4, (0.2, 0.25], from 'outerLoop #6, null' and covering 4.0 wgt'ed positive and 0.0 wgt'ed negative examples:
//    Wgt'ed recall = 0.248, precision = 0.976, and F1 = 0.396 - learned after 383 total and 233 acceptable nodes.  Node score = -1.3736115657063317

 FOR active(a) IF (atm(a, anon405109, H, 1, anon405115), benzene(a, anon405435), atm(a, anon457457, N, 32, anon457463), ring_size_5(a, anon466025)) THEN output = -0.026924 ELSE output = 0.074316;

// Best in (weighted) recall bin #5, (0.25, 0.3], from 'outerLoop #6, null' and covering 6.0 wgt'ed positive and 0.0 wgt'ed negative examples:
//    Wgt'ed recall = 0.260, precision = 0.984, and F1 = 0.411 - learned after 32 total and 1 acceptable nodes.  Node score = -2.2677543732535863

 FOR active(a) IF (atm(a, anon615381, N, 32, anon615387), benzene(a, anon615701), ring_size_5(a, anon618637)) THEN output = -0.202291 ELSE output = -0.024430;

// Best in (weighted) recall bin #6, (0.3, 0.35], from 'outerLoop #6, null' and covering 3.0 wgt'ed positive and 0.0 wgt'ed negative examples:
//    Wgt'ed recall = 0.330, precision = 0.968, and F1 = 0.492 - learned after 41 total and 31 acceptable nodes.  Node score = -0.07790104922266966

 FOR active(a) IF (atm(a, anon258667, N, 32, anon258673), atm(a, anon260875, O, 40, anon258673), ring_size_5(a, anon261929), benzene(a, anon262665)) THEN output = -0.311984 ELSE output = 0.545097;

// Best in (weighted) recall bin #7, (0.35, 0.4], from 'outerLoop #6, null' and covering 9.0 wgt'ed positive and 0.0 wgt'ed negative examples:
//    Wgt'ed recall = 0.390, precision = 0.989, and F1 = 0.559 - learned after 343 total and 112 acceptable nodes.  Node score = -3.562394255773813

 FOR active(a) IF (atm(a, anon687205, C, 29, anon687211), atm(a, anon711635, C, 22, anon711641), bond(a, anon718499, anon711635, 1)) THEN output = 0.095782 ELSE output = 0.019724;

// Best in (weighted) recall bin #8, (0.4, 0.45], from 'outerLoop #6, null' and covering 4.0 wgt'ed positive and 0.0 wgt'ed negative examples:
//    Wgt'ed recall = 0.440, precision = 0.976, and F1 = 0.606 - learned after 29 total and 24 acceptable nodes.  Node score = -0.33560871401672143

 FOR active(a) IF (atm(a, anon258667, N, 32, anon258673), atm(a, anon260875, O, 40, anon258673), ring_size_5(a, anon261929)) THEN output = -0.150791 ELSE output = 0.587559;

// Best in (weighted) recall bin #9, (0.45, 0.5], from 'outerLoop #6, null' and covering 8.0 wgt'ed positive and 0.0 wgt'ed negative examples:
//    Wgt'ed recall = 0.497, precision = 0.988, and F1 = 0.661 - learned after 254 total and 155 acceptable nodes.  Node score = -1.3554716938738778

 FOR active(a) IF (atm(a, anon405109, H, 1, anon405115), benzene(a, anon405435), atm(a, anon457457, C, 22, anon457463), bond(a, anon463141, anon457457, 1)) THEN output = 0.104282 ELSE output = -0.006271;

// Best in (weighted) recall bin #10, (0.5, 0.55], from 'outerLoop #6, null' and covering 5.0 wgt'ed positive and 0.0 wgt'ed negative examples:
//    Wgt'ed recall = 0.549, precision = 0.980, and F1 = 0.704 - learned after 308 total and 235 acceptable nodes.  Node score = -0.3356095840167215

 FOR active(a) IF (atm(a, anon258667, N, 32, anon258673), atm(a, anon260875, O, 40, anon258673), atm(a, anon261903, C, 22, anon261909), bond(a, anon258667, anon261903, 1)) THEN output = 0.587559 ELSE output = -0.150791;

// Best in (weighted) recall bin #11, (0.55, 0.6], from 'outerLoop #6, null' and covering 9.0 wgt'ed positive and 0.0 wgt'ed negative examples:
//    Wgt'ed recall = 0.559, precision = 0.989, and F1 = 0.714 - learned after 345 total and 208 acceptable nodes.  Node score = -1.2579745903903656

 FOR active(a) IF (atm(a, anon405109, H, 1, anon405115), benzene(a, anon405435), atm(a, anon457457, N, 32, anon457463), atm(a, anon465999, O, 40, anon457463)) THEN output = 0.133362 ELSE output = -0.059452;

// Best in (weighted) recall bin #12, (0.6, 0.65], from 'outerLoop #6, null' and covering 12.0 wgt'ed positive and 0.0 wgt'ed negative examples:
//    Wgt'ed recall = 0.628, precision = 0.992, and F1 = 0.769 - learned after 17 total and 16 acceptable nodes.  Node score = -4.231676340240143

 FOR active(a) IF (atm(a, anon136317, C, 22, anon136323), bond(a, anon138423, anon136317, 1), bond(a, anon140115, anon138423, 1)) THEN output = 0.263038 ELSE output = 0.122718;

// Best in (weighted) recall bin #13, (0.65, 0.7], from 'outerLoop #6, null' and covering 6.0 wgt'ed positive and 0.0 wgt'ed negative examples:
//    Wgt'ed recall = 0.659, precision = 0.984, and F1 = 0.789 - learned after 315 total and 242 acceptable nodes.  Node score = -0.9953103760785795

 FOR active(a) IF (atm(a, anon258667, N, 32, anon258673), atm(a, anon260875, O, 40, anon258673), atm(a, anon261903, C, 22, anon261909), bond(a, anon269239, anon261903, 1)) THEN output = 0.434485 ELSE output = -0.090761;

// Best in (weighted) recall bin #15, (0.75, 0.8], from 'outerLoop #6, null' and covering 15.0 wgt'ed positive and 0.0 wgt'ed negative examples:
//    Wgt'ed recall = 0.785, precision = 0.993, and F1 = 0.877 - learned after 352 total and 267 acceptable nodes.  Node score = -3.095353872141549

 FOR active(a) IF (atm(a, anon136317, C, 22, anon136323), bond(a, anon138423, anon136317, 1), atm(a, anon140107, C, 22, anon136323), bond(a, anon140107, anon148813, 1)) THEN output = 0.342376 ELSE output = -0.280039;

// Best in (weighted) recall bin #16, (0.8, 0.85], from 'outerLoop #6, null' and covering 52.0 wgt'ed positive and 0.0 wgt'ed negative examples:
//    Wgt'ed recall = 0.837, precision = 0.998, and F1 = 0.911 - learned after 193 total and 40 acceptable nodes.  Node score = -8.03224884515722

 FOR active(a) IF (atm(a, anon578725, N, 38, anon578731), bond(a, anon581619, anon578725, 1)) THEN output = 0.045754 ELSE output = -0.235327;
      /* FALSE NEG: active(D21) Actual Bool=true Prob=0.6072530160691404 Output=0.3927469839308596 */
      /* FALSE NEG: active(D5) Actual Bool=false Prob=0.22047288383641583 Output=-0.22047288383641583 */
      /* FALSE NEG: active(D38) Actual Bool=false Prob=0.6072530160691404 Output=-0.6072530160691404 */
      /* FALSE NEG: active(D49) Actual Bool=true Prob=0.8482077989323573 Output=0.15179220106764268 */
      /* FALSE NEG: active(D3) Actual Bool=false Prob=0.21897636158568426 Output=-0.21897636158568426 */

// Best in (weighted) recall bin #17, (0.85, 0.9], from 'outerLoop #6, null' and covering 8.0 wgt'ed positive and 0.0 wgt'ed negative examples:
//    Wgt'ed recall = 0.879, precision = 0.988, and F1 = 0.930 - learned after 8 total and 7 acceptable nodes.  Node score = -Infinity

 FOR active(a) IF (atm(a, anon258667, N, 32, anon258673), atm(a, anon260875, O, 40, anon258673), atm(a, anon261903, C, 22, anon261909)) THEN output = 0.250230 ELSE output = 0.332788;
      /* FALSE NEG: active(D63) Actual Bool=true Prob=0.6672117176869297 Output=0.33278828231307034 */

// Best in (weighted) recall bin #18, (0.9, 0.95], from 'outerLoop #6, null' and covering 31.0 wgt'ed positive and 0.0 wgt'ed negative examples:
//    Wgt'ed recall = 0.909, precision = 0.997, and F1 = 0.951 - learned after 205 total and 38 acceptable nodes.  Node score = -5.2508439531633

 FOR active(a) IF (atm(a, anon179637, N, 38, anon179643), bond(a, anon182729, anon179637, 1)) THEN output = 0.034381 ELSE output = 0.009465;
      /* FALSE NEG: active(D49) Actual Bool=true Prob=0.41918506361157815 Output=0.5808149363884219 */
      /* FALSE NEG: active(D5) Actual Bool=false Prob=0.19319023329223123 Output=-0.19319023329223123 */
      /* FALSE NEG: active(D76) Actual Bool=false Prob=0.35922872145498613 Output=-0.35922872145498613 */

// Best in (weighted) recall bin #19, (0.95, 1.01], from 'outerLoop #6, null' and covering 19.0 wgt'ed positive and 0.0 wgt'ed negative examples:
//    Wgt'ed recall = 0.995, precision = 0.995, and F1 = 0.995 - learned after 1 total and 0 acceptable nodes.  Node score = -6.9582440370817515

 FOR active(a) IF (atm(a, anon136317, C, 22, anon136323), bond(a, anon138423, anon136317, 1)) THEN output = 0.211342 ELSE output = -0.021382;


////////////////////////////////////////////////////////////////////////////////
////
////     Gleaner for: outerLoop #7, null
////
////////////////////////////////////////////////////////////////////////////////

// Best in (weighted) recall bin #0, (-Infinity, 0.05], from 'outerLoop #7, null' and covering 3.0 wgt'ed positive and 0.0 wgt'ed negative examples:
//    Wgt'ed recall = 0.041, precision = 0.968, and F1 = 0.079 - learned after 186 total and 98 acceptable nodes.  Node score = -2.0343421322633684

 FOR active(a) IF (atm(a, anon811673, C, 27, anon811679), anthracene(a, anon833481), phenanthrene(a, anon837379)) THEN output = 0.060470 ELSE output = 0.045809;

// Best in (weighted) recall bin #1, (0.05, 0.1], from 'outerLoop #7, null' and covering 6.0 wgt'ed positive and 0.0 wgt'ed negative examples:
//    Wgt'ed recall = 0.082, precision = 0.984, and F1 = 0.152 - learned after 22 total and 2 acceptable nodes.  Node score = -1.9941006668007513

 FOR active(a) IF (atm(a, anon811673, C, 27, anon811679), hetero_aromatic_6_ring(a, anon833469)) THEN output = -0.032646 ELSE output = 0.053491;

// Best in (weighted) recall bin #2, (0.1, 0.15], from 'outerLoop #7, null' and covering 8.0 wgt'ed positive and 0.0 wgt'ed negative examples:
//    Wgt'ed recall = 0.109, precision = 0.988, and F1 = 0.197 - learned after 28 total and 5 acceptable nodes.  Node score = -2.0211118690425205

 FOR active(a) IF (atm(a, anon811673, C, 27, anon811679), anthracene(a, anon833481)) THEN output = 0.085670 ELSE output = 0.041580;

// Best in (weighted) recall bin #3, (0.15, 0.2], from 'outerLoop #7, null' and covering 3.0 wgt'ed positive and 0.0 wgt'ed negative examples:
//    Wgt'ed recall = 0.175, precision = 0.968, and F1 = 0.297 - learned after 12 total and 11 acceptable nodes.  Node score = -0.6666690466666665

 FOR active(a) IF (methyl(a, anon46939), atm(a, anon60445, H, 1, anon60451)) THEN output = 0.174792 ELSE output = -0.158541;

// Best in (weighted) recall bin #4, (0.2, 0.25], from 'outerLoop #7, null' and covering 4.0 wgt'ed positive and 0.0 wgt'ed negative examples:
//    Wgt'ed recall = 0.234, precision = 0.976, and F1 = 0.377 - learned after 207 total and 115 acceptable nodes.  Node score = -0.9230802330769227

 FOR active(a) IF (methyl(a, anon46939), atm(a, anon60445, C, 21, anon60451), atm(a, anon64149, C, 22, anon60451)) THEN output = -0.158541 ELSE output = -0.081618;

// Best in (weighted) recall bin #5, (0.25, 0.3], from 'outerLoop #7, null' and covering 5.0 wgt'ed positive and 0.0 wgt'ed negative examples:
//    Wgt'ed recall = 0.292, precision = 0.980, and F1 = 0.450 - learned after 5 total and 4 acceptable nodes.  Node score = -0.9166690466666663

 FOR active(a) IF (methyl(a, anon46939), atm(a, anon60445, C, 26, anon60451)) THEN output = -0.158541 ELSE output = -0.075208;

// Best in (weighted) recall bin #6, (0.3, 0.35], from 'outerLoop #7, null' and covering 3.0 wgt'ed positive and 0.0 wgt'ed negative examples:
//    Wgt'ed recall = 0.330, precision = 0.968, and F1 = 0.492 - learned after 88 total and 64 acceptable nodes.  Node score = -0.32777253664773937

 FOR active(a) IF (atm(a, anon769035, N, 34, anon769041), atm(a, anon770165, C, 21, anon770171), bond(a, anon769035, anon770165, 7), benzene(a, anon792387)) THEN output = -0.274318 ELSE output = 0.008989;

// Best in (weighted) recall bin #7, (0.35, 0.4], from 'outerLoop #7, null' and covering 4.0 wgt'ed positive and 0.0 wgt'ed negative examples:
//    Wgt'ed recall = 0.396, precision = 0.976, and F1 = 0.563 - learned after 41 total and 31 acceptable nodes.  Node score = -0.6703778736879674

 FOR active(a) IF (atm(a, anon539171, N, 32, anon539177), atm(a, anon540575, O, 40, anon539177), ring_size_5(a, anon545383), benzene(a, anon546119)) THEN output = -0.044623 ELSE output = 0.205501;

// Best in (weighted) recall bin #8, (0.4, 0.45], from 'outerLoop #7, null' and covering 4.0 wgt'ed positive and 0.0 wgt'ed negative examples:
//    Wgt'ed recall = 0.440, precision = 0.976, and F1 = 0.606 - learned after 19 total and 15 acceptable nodes.  Node score = -0.3700468137500964

 FOR active(a) IF (atm(a, anon769035, N, 34, anon769041), atm(a, anon770165, C, 21, anon770171), bond(a, anon769035, anon770165, 7)) THEN output = -0.213601 ELSE output = 0.017077;

// Best in (weighted) recall bin #9, (0.45, 0.5], from 'outerLoop #7, null' and covering 5.0 wgt'ed positive and 0.0 wgt'ed negative examples:
//    Wgt'ed recall = 0.495, precision = 0.980, and F1 = 0.658 - learned after 29 total and 24 acceptable nodes.  Node score = -0.7087576211227125

 FOR active(a) IF (atm(a, anon539171, N, 32, anon539177), atm(a, anon540575, O, 40, anon539177), ring_size_5(a, anon545383)) THEN output = -0.000269 ELSE output = 0.211172;

// Best in (weighted) recall bin #10, (0.5, 0.55], from 'outerLoop #7, null' and covering 5.0 wgt'ed positive and 0.0 wgt'ed negative examples:
//    Wgt'ed recall = 0.549, precision = 0.980, and F1 = 0.704 - learned after 8 total and 7 acceptable nodes.  Node score = -0.4562076053864803

 FOR active(a) IF (atm(a, anon564893, N, 34, anon564899), atm(a, anon566601, C, 21, anon566607), atm(a, anon582737, C, 22, anon566607)) THEN output = 0.004989 ELSE output = -0.234343;

// Best in (weighted) recall bin #11, (0.55, 0.6], from 'outerLoop #7, null' and covering 6.0 wgt'ed positive and 0.0 wgt'ed negative examples:
//    Wgt'ed recall = 0.594, precision = 0.984, and F1 = 0.741 - learned after 315 total and 242 acceptable nodes.  Node score = -0.8139183686091247

 FOR active(a) IF (atm(a, anon539171, N, 32, anon539177), atm(a, anon540575, O, 40, anon539177), atm(a, anon545357, C, 22, anon545363), bond(a, anon552693, anon545357, 1)) THEN output = 0.126442 ELSE output = 0.073965;

// Best in (weighted) recall bin #13, (0.65, 0.7], from 'outerLoop #7, null' and covering 6.0 wgt'ed positive and 0.0 wgt'ed negative examples:
//    Wgt'ed recall = 0.659, precision = 0.984, and F1 = 0.789 - learned after 48 total and 37 acceptable nodes.  Node score = -0.4868619234404603

 FOR active(a) IF (atm(a, anon769035, N, 34, anon769041), atm(a, anon770165, C, 21, anon770171), methyl(a, anon791137)) THEN output = -0.076519 ELSE output = -0.103304;

// Best in (weighted) recall bin #14, (0.7, 0.75], from 'outerLoop #7, null' and covering 8.0 wgt'ed positive and 0.0 wgt'ed negative examples:
//    Wgt'ed recall = 0.721, precision = 0.988, and F1 = 0.833 - learned after 173 total and 117 acceptable nodes.  Node score = -0.8488079956922813

 FOR active(a) IF (atm(a, anon760415, N, 38, anon760421), bond(a, anon763041, anon760415, 2)) THEN output = -0.217983 ELSE output = -0.161221;

// Best in (weighted) recall bin #15, (0.75, 0.8], from 'outerLoop #7, null' and covering 160.0 wgt'ed positive and 0.0 wgt'ed negative examples:
//    Wgt'ed recall = 0.800, precision = 0.999, and F1 = 0.888 - learned after 303 total and 174 acceptable nodes.  Node score = -12427.000107485368

 FOR active(a) IF (atm(a, anon855167, C, 29, anon855173), atm(a, anon871939, C, 22, anon871945), greaterCharge(anon871945, anon855173), bond(a, anon871939, anon887923, 1), bond(a, anon871939, anon895791, 7)) THEN output = 1.788633 ELSE output = -0.021319;

// Best in (weighted) recall bin #17, (0.85, 0.9], from 'outerLoop #7, null' and covering 180.0 wgt'ed positive and 0.0 wgt'ed negative examples:
//    Wgt'ed recall = 0.900, precision = 0.999, and F1 = 0.947 - learned after 18 total and 2 acceptable nodes.  Node score = -11524.799491755779

 FOR active(a) IF (atm(a, anon855167, C, 29, anon855173), atm(a, anon871939, C, 22, anon871945), greaterCharge(anon871945, anon855173), bond(a, anon871939, anon887923, 1)) THEN output = 2.174614 ELSE output = -5.305100;
      /* FALSE NEG: active(D73) Actual Bool=false Prob=0.14185106490048777 Output=-5.305100109048024 */

// Best in (weighted) recall bin #18, (0.9, 0.95], from 'outerLoop #7, null' and covering 28.0 wgt'ed positive and 0.0 wgt'ed negative examples:
//    Wgt'ed recall = 0.900, precision = 0.996, and F1 = 0.946 - learned after 170 total and 25 acceptable nodes.  Node score = -6.773811823809527

 FOR active(a) IF (atm(a, anon31441, N, 38, anon31447), bond(a, anon34035, anon31441, 1)) THEN output = 0.179578 ELSE output = 0.191482;
      /* FALSE NEG: active(D49) Actual Bool=true Prob=0.14185106490048777 Output=7.35071065506987 */
      /* FALSE NEG: active(D5) Actual Bool=false Prob=0.14185106490048777 Output=-4.2177052324817845 */
      /* FALSE NEG: active(D76) Actual Bool=false Prob=0.14185106490048777 Output=-5.888656732887295 */

// Best in (weighted) recall bin #19, (0.95, 1.01], from 'outerLoop #7, null' and covering 9.0 wgt'ed positive and 0.0 wgt'ed negative examples:
//    Wgt'ed recall = 0.989, precision = 0.989, and F1 = 0.989 - learned after 1 total and 0 acceptable nodes.  Node score = -1.2579745903903656

 FOR active(a) IF (atm(a, anon405109, H, 1, anon405115), benzene(a, anon405435), atm(a, anon457457, N, 32, anon457463), atm(a, anon465999, O, 40, anon457463)) THEN output = 0.133362 ELSE output = -0.059452;


////////////////////////////////////////////////////////////////////////////////
////
////     Gleaner for: outerLoop #8, null
////
////////////////////////////////////////////////////////////////////////////////

// Best in (weighted) recall bin #0, (-Infinity, 0.05], from 'outerLoop #8, null' and covering 3.0 wgt'ed positive and 0.0 wgt'ed negative examples:
//    Wgt'ed recall = 0.045, precision = 0.968, and F1 = 0.085 - learned after 30 total and 6 acceptable nodes.  Node score = -1.401006387236875

 FOR active(a) IF (atm(a, anon811673, C, 27, anon811679), methyl(a, anon838903)) THEN output = -0.007150 ELSE output = 0.056334;

// Best in (weighted) recall bin #1, (0.05, 0.1], from 'outerLoop #8, null' and covering 4.0 wgt'ed positive and 0.0 wgt'ed negative examples:
//    Wgt'ed recall = 0.060, precision = 0.976, and F1 = 0.112 - learned after 120 total and 64 acceptable nodes.  Node score = -1.4117887717701947

 FOR active(a) IF (atm(a, anon811673, C, 27, anon811679), anthracene(a, anon838905), carbon_5_aromatic_ring(a, anon841605)) THEN output = 0.066927 ELSE output = 0.052638;

// Best in (weighted) recall bin #2, (0.1, 0.15], from 'outerLoop #8, null' and covering 4.0 wgt'ed positive and 0.0 wgt'ed negative examples:
//    Wgt'ed recall = 0.121, precision = 0.976, and F1 = 0.215 - learned after 40 total and 4 acceptable nodes.  Node score = -0.9420145592146189

 FOR active(a) IF (atm(a, anon42957, C, 29, anon42963), ring_size_5(a, anon43307), methyl(a, anon67351)) THEN output = 0.841459 ELSE output = 0.716135;

// Best in (weighted) recall bin #3, (0.15, 0.2], from 'outerLoop #8, null' and covering 8.0 wgt'ed positive and 0.0 wgt'ed negative examples:
//    Wgt'ed recall = 0.157, precision = 0.988, and F1 = 0.270 - learned after 55 total and 32 acceptable nodes.  Node score = -1.3489445638161675

 FOR active(a) IF (ring_size_5(a, anon568631), atm(a, anon597371, N, 32, anon597377), benzene(a, anon597837)) THEN output = -0.060383 ELSE output = 0.122446;

// Best in (weighted) recall bin #4, (0.2, 0.25], from 'outerLoop #8, null' and covering 4.0 wgt'ed positive and 0.0 wgt'ed negative examples:
//    Wgt'ed recall = 0.234, precision = 0.976, and F1 = 0.377 - learned after 179 total and 85 acceptable nodes.  Node score = -0.8699292498275082

 FOR active(a) IF (methyl(a, anon252379), atm(a, anon274063, C, 22, anon274069), bond(a, anon276679, anon274063, 1)) THEN output = -0.155222 ELSE output = -0.072987;

// Best in (weighted) recall bin #5, (0.25, 0.3], from 'outerLoop #8, null' and covering 5.0 wgt'ed positive and 0.0 wgt'ed negative examples:
//    Wgt'ed recall = 0.292, precision = 0.980, and F1 = 0.450 - learned after 68 total and 28 acceptable nodes.  Node score = -0.8676896785660433

 FOR active(a) IF (methyl(a, anon252379), hetero_aromatic_5_ring(a, anon274085), benzene(a, anon275005)) THEN output = -0.149227 ELSE output = -0.068632;

// Best in (weighted) recall bin #6, (0.3, 0.35], from 'outerLoop #8, null' and covering 3.0 wgt'ed positive and 0.0 wgt'ed negative examples:
//    Wgt'ed recall = 0.330, precision = 0.968, and F1 = 0.492 - learned after 127 total and 106 acceptable nodes.  Node score = -0.5332423045948574

 FOR active(a) IF (atm(a, anon361785, N, 34, anon361791), atm(a, anon362097, C, 21, anon362103), atm(a, anon390113, O, 40, anon361791), bond(a, anon361785, anon393013, 1)) THEN output = 0.036582 ELSE output = -0.241710;

// Best in (weighted) recall bin #7, (0.35, 0.4], from 'outerLoop #8, null' and covering 4.0 wgt'ed positive and 0.0 wgt'ed negative examples:
//    Wgt'ed recall = 0.360, precision = 0.976, and F1 = 0.526 - learned after 119 total and 61 acceptable nodes.  Node score = -0.09963754336524457

 FOR active(a) IF (methyl(a, anon608917), atm(a, anon632675, C, 22, anon632681), bond(a, anon634339, anon632675, 1)) THEN output = -0.097522 ELSE output = -0.041452;

// Best in (weighted) recall bin #8, (0.4, 0.45], from 'outerLoop #8, null' and covering 4.0 wgt'ed positive and 0.0 wgt'ed negative examples:
//    Wgt'ed recall = 0.440, precision = 0.976, and F1 = 0.606 - learned after 126 total and 105 acceptable nodes.  Node score = -0.525632965771836

 FOR active(a) IF (atm(a, anon361785, N, 34, anon361791), atm(a, anon362097, C, 21, anon362103), atm(a, anon390113, O, 40, anon361791), bond(a, anon361785, anon393013, 7)) THEN output = 0.001286 ELSE output = -0.269131;

// Best in (weighted) recall bin #9, (0.45, 0.5], from 'outerLoop #8, null' and covering 6.0 wgt'ed positive and 0.0 wgt'ed negative examples:
//    Wgt'ed recall = 0.496, precision = 0.984, and F1 = 0.659 - learned after 41 total and 31 acceptable nodes.  Node score = -0.7810686989806725

 FOR active(a) IF (atm(a, anon334493, N, 32, anon334499), atm(a, anon337231, O, 40, anon334499), ring_size_5(a, anon352801), benzene(a, anon353537)) THEN output = 0.083056 ELSE output = 0.392384;

// Best in (weighted) recall bin #10, (0.5, 0.55], from 'outerLoop #8, null' and covering 5.0 wgt'ed positive and 0.0 wgt'ed negative examples:
//    Wgt'ed recall = 0.549, precision = 0.980, and F1 = 0.704 - learned after 8 total and 7 acceptable nodes.  Node score = -0.5007634846397768

 FOR active(a) IF (atm(a, anon361785, N, 34, anon361791), atm(a, anon362097, C, 21, anon362103), atm(a, anon390113, C, 22, anon362103)) THEN output = -0.019891 ELSE output = -0.310264;

// Best in (weighted) recall bin #11, (0.55, 0.6], from 'outerLoop #8, null' and covering 4.0 wgt'ed positive and 0.0 wgt'ed negative examples:
//    Wgt'ed recall = 0.563, precision = 0.976, and F1 = 0.714 - learned after 5 total and 3 acceptable nodes.  Node score = -0.2523965842757829

 FOR active(a) IF (atm(a, anon517799, C, 27, anon517805)) THEN output = -0.495094 ELSE output = -0.147378;

// Best in (weighted) recall bin #12, (0.6, 0.65], from 'outerLoop #8, null' and covering 20.0 wgt'ed positive and 0.0 wgt'ed negative examples:
//    Wgt'ed recall = 0.604, precision = 0.995, and F1 = 0.752 - learned after 15 total and 2 acceptable nodes.  Node score = -0.9965494417745079

 FOR active(a) IF (atm(a, anon42957, C, 29, anon42963), ring_size_5(a, anon43307), bond(a, anon42957, anon67329, 1)) THEN output = 0.727681 ELSE output = 0.736933;

// Best in (weighted) recall bin #13, (0.65, 0.7], from 'outerLoop #8, null' and covering 6.0 wgt'ed positive and 0.0 wgt'ed negative examples:
//    Wgt'ed recall = 0.659, precision = 0.984, and F1 = 0.789 - learned after 49 total and 41 acceptable nodes.  Node score = -0.6766194161535767

 FOR active(a) IF (atm(a, anon361785, N, 34, anon361791), atm(a, anon362097, C, 21, anon362103), methyl(a, anon390143)) THEN output = -0.123654 ELSE output = -0.199530;

// Best in (weighted) recall bin #14, (0.7, 0.75], from 'outerLoop #8, null' and covering 8.0 wgt'ed positive and 0.0 wgt'ed negative examples:
//    Wgt'ed recall = 0.721, precision = 0.988, and F1 = 0.833 - learned after 197 total and 102 acceptable nodes.  Node score = -0.09721184048559456

 FOR active(a) IF (methyl(a, anon608917), atm(a, anon632675, C, 10, anon632681), bond(a, anon636053, anon632675, 1)) THEN output = -0.042986 ELSE output = -0.112121;

// Best in (weighted) recall bin #15, (0.75, 0.8], from 'outerLoop #8, null' and covering 7.0 wgt'ed positive and 0.0 wgt'ed negative examples:
//    Wgt'ed recall = 0.769, precision = 0.986, and F1 = 0.864 - learned after 21 total and 20 acceptable nodes.  Node score = -Infinity

 FOR active(a) IF (atm(a, anon361785, N, 34, anon361791), atm(a, anon362097, C, 21, anon362103), bond(a, anon362097, anon390121, 7)) THEN output = -0.100435 ELSE output = -0.318732;

// Best in (weighted) recall bin #16, (0.8, 0.85], from 'outerLoop #8, null' and covering 14.0 wgt'ed positive and 0.0 wgt'ed negative examples:
//    Wgt'ed recall = 0.819, precision = 0.993, and F1 = 0.897 - learned after 257 total and 130 acceptable nodes.  Node score = -0.8664382298244943

 FOR active(a) IF (methyl(a, anon252379), atm(a, anon274063, C, 10, anon274069), bond(a, anon278383, anon274063, 1)) THEN output = -0.074880 ELSE output = -0.173803;
      /* FALSE NEG: active(D78) Actual Bool=false Prob=0.13404461708785562 Output=-0.13404461708785562 */
      /* FALSE NEG: active(D55) Actual Bool=false Prob=0.25331835086078 Output=-0.25331835086078 */
      /* FALSE NEG: active(D7) Actual Bool=false Prob=0.13404461708785562 Output=-0.13404461708785562 */

// Best in (weighted) recall bin #17, (0.85, 0.9], from 'outerLoop #8, null' and covering 8.0 wgt'ed positive and 0.0 wgt'ed negative examples:
//    Wgt'ed recall = 0.879, precision = 0.988, and F1 = 0.930 - learned after 10 total and 9 acceptable nodes.  Node score = -Infinity

 FOR active(a) IF (atm(a, anon361785, N, 34, anon361791), atm(a, anon362097, C, 21, anon362103), atm(a, anon390113, C, 22, anon390119)) THEN output = -0.158723 ELSE output = -0.070730;
      /* FALSE NEG: active(D150) Actual Bool=false Prob=0.0707297312155593 Output=-0.0707297312155593 */

// Best in (weighted) recall bin #18, (0.9, 0.95], from 'outerLoop #8, null' and covering 23.0 wgt'ed positive and 0.0 wgt'ed negative examples:
//    Wgt'ed recall = 0.916, precision = 0.996, and F1 = 0.954 - learned after 139 total and 3 acceptable nodes.  Node score = -Infinity

 FOR active(a) IF (atm(a, anon35667, N, 38, anon35673), bond(a, anon37677, anon35667, 1)) THEN output = 0.205975 ELSE output = 0.358149;
      /* FALSE NEG: active(D49) Actual Bool=true Prob=0.14185106490048777 Output=7.35071065506987 */
      /* FALSE NEG: active(D76) Actual Bool=false Prob=0.14185106490048777 Output=-5.888656732887295 */

// Best in (weighted) recall bin #19, (0.95, 1.01], from 'outerLoop #8, null' and covering 17.0 wgt'ed positive and 0.0 wgt'ed negative examples:
//    Wgt'ed recall = 0.994, precision = 0.994, and F1 = 0.994 - learned after 1 total and 0 acceptable nodes.  Node score = -4.766745475258603

 FOR active(a) IF (atm(a, anon172341, C, 29, anon172347), atm(a, anon183319, C, 22, anon183325), greaterCharge(anon183325, anon172347)) THEN output = 0.163380 ELSE output = 0.340548;


////////////////////////////////////////////////////////////////////////////////
////
////     Gleaner for: outerLoop #9, null
////
////////////////////////////////////////////////////////////////////////////////

// Best in (weighted) recall bin #0, (-Infinity, 0.05], from 'outerLoop #9, null' and covering 4.0 wgt'ed positive and 0.0 wgt'ed negative examples:
//    Wgt'ed recall = 0.034, precision = 0.976, and F1 = 0.065 - learned after 17 total and 6 acceptable nodes.  Node score = -7.9688423766110565

 FOR active(a) IF (hetero_aromatic_6_ring(a, anon479847)) THEN output = -0.104296 ELSE output = 0.102309;

// Best in (weighted) recall bin #1, (0.05, 0.1], from 'outerLoop #9, null' and covering 6.0 wgt'ed positive and 0.0 wgt'ed negative examples:
//    Wgt'ed recall = 0.100, precision = 0.984, and F1 = 0.181 - learned after 94 total and 52 acceptable nodes.  Node score = -2.3041250342962654

 FOR active(a) IF (ring_size_5(a, anon487037), hetero_aromatic_5_ring(a, anon487037), methyl(a, anon523073)) THEN output = -0.105555 ELSE output = 0.102667;

// Best in (weighted) recall bin #2, (0.1, 0.15], from 'outerLoop #9, null' and covering 4.0 wgt'ed positive and 0.0 wgt'ed negative examples:
//    Wgt'ed recall = 0.121, precision = 0.976, and F1 = 0.215 - learned after 40 total and 5 acceptable nodes.  Node score = -0.7994166232441197

 FOR active(a) IF (atm(a, anon199869, C, 29, anon199875), ring_size_5(a, anon201573), methyl(a, anon234731)) THEN output = 0.448551 ELSE output = 0.264494;

// Best in (weighted) recall bin #3, (0.15, 0.2], from 'outerLoop #9, null' and covering 10.0 wgt'ed positive and 0.0 wgt'ed negative examples:
//    Wgt'ed recall = 0.166, precision = 0.990, and F1 = 0.285 - learned after 65 total and 38 acceptable nodes.  Node score = -2.228171490059801

 FOR active(a) IF (ring_size_5(a, anon487037), atm(a, anon521649, C, 21, anon521655), hetero_aromatic_5_ring(a, anon487037)) THEN output = -0.078903 ELSE output = 0.113994;

// Best in (weighted) recall bin #4, (0.2, 0.25], from 'outerLoop #9, null' and covering 3.0 wgt'ed positive and 0.0 wgt'ed negative examples:
//    Wgt'ed recall = 0.229, precision = 0.968, and F1 = 0.370 - learned after 8 total and 5 acceptable nodes.  Node score = -0.6666690466666667

 FOR active(a) IF (methyl(a, anon84945), atm(a, anon115101, H, 1, anon115107)) THEN output = 0.150061 ELSE output = -0.138517;

// Best in (weighted) recall bin #5, (0.25, 0.3], from 'outerLoop #9, null' and covering 3.0 wgt'ed positive and 0.0 wgt'ed negative examples:
//    Wgt'ed recall = 0.270, precision = 0.968, and F1 = 0.423 - learned after 269 total and 156 acceptable nodes.  Node score = -0.213348801126684

 FOR active(a) IF (methyl(a, anon285909), atm(a, anon317645, N, 38, anon317651), bond(a, anon322567, anon317645, 2)) THEN output = -0.190194 ELSE output = -0.051108;

// Best in (weighted) recall bin #6, (0.3, 0.35], from 'outerLoop #9, null' and covering 39.0 wgt'ed positive and 0.0 wgt'ed negative examples:
//    Wgt'ed recall = 0.327, precision = 0.997, and F1 = 0.493 - learned after 20 total and 8 acceptable nodes.  Node score = -7.985766694407539

 FOR active(a) IF (ring_size_5(a, anon479853)) THEN output = 0.145887 ELSE output = 0.070734;

// Best in (weighted) recall bin #7, (0.35, 0.4], from 'outerLoop #9, null' and covering 4.0 wgt'ed positive and 0.0 wgt'ed negative examples:
//    Wgt'ed recall = 0.360, precision = 0.976, and F1 = 0.526 - learned after 155 total and 90 acceptable nodes.  Node score = -0.24094873624505417

 FOR active(a) IF (methyl(a, anon285909), atm(a, anon317645, C, 22, anon317651), bond(a, anon320125, anon317645, 1)) THEN output = -0.137247 ELSE output = -0.061494;

// Best in (weighted) recall bin #8, (0.4, 0.45], from 'outerLoop #9, null' and covering 14.0 wgt'ed positive and 0.0 wgt'ed negative examples:
//    Wgt'ed recall = 0.423, precision = 0.993, and F1 = 0.593 - learned after 139 total and 62 acceptable nodes.  Node score = -0.9151536562720894

 FOR active(a) IF (atm(a, anon199869, C, 29, anon199875), ring_size_5(a, anon201573), atm(a, anon234701, C, 28, anon199875), bond(a, anon234701, anon199869, 1)) THEN output = 0.298534 ELSE output = 0.278161;

// Best in (weighted) recall bin #9, (0.45, 0.5], from 'outerLoop #9, null' and covering 6.0 wgt'ed positive and 0.0 wgt'ed negative examples:
//    Wgt'ed recall = 0.458, precision = 0.984, and F1 = 0.625 - learned after 24 total and 13 acceptable nodes.  Node score = -0.7848085763523309

 FOR active(a) IF (methyl(a, anon84945), hetero_aromatic_5_ring(a, anon115123)) THEN output = -0.153435 ELSE output = -0.002053;

// Best in (weighted) recall bin #10, (0.5, 0.55], from 'outerLoop #9, null' and covering 7.0 wgt'ed positive and 0.0 wgt'ed negative examples:
//    Wgt'ed recall = 0.534, precision = 0.986, and F1 = 0.693 - learned after 28 total and 15 acceptable nodes.  Node score = -0.8094294655339688

 FOR active(a) IF (methyl(a, anon84945), ring_size_5(a, anon115127)) THEN output = -0.014841 ELSE output = -0.138517;

// Best in (weighted) recall bin #18, (0.9, 0.95], from 'outerLoop #9, null' and covering 12.0 wgt'ed positive and 0.0 wgt'ed negative examples:
//    Wgt'ed recall = 0.916, precision = 0.992, and F1 = 0.952 - learned after 4 total and 3 acceptable nodes.  Node score = -Infinity

 FOR active(a) IF (methyl(a, anon84945), atm(a, anon115101, C, 22, anon115107)) THEN output = -0.066372 ELSE output = -0.138517;
      /* FALSE NEG: active(D150) Actual Bool=false Prob=0.1385166937682729 Output=-0.1385166937682729 */

// Best in (weighted) recall bin #19, (0.95, 1.01], from 'outerLoop #9, null' and covering 11.0 wgt'ed positive and 0.0 wgt'ed negative examples:
//    Wgt'ed recall = 0.991, precision = 0.991, and F1 = 0.991 - learned after 1 total and 0 acceptable nodes.  Node score = -14.20374628766828

 FOR active(a) IF (methyl(a, anon285909)) THEN output = -0.089040 ELSE output = 0.113868;

