digraph G{ 
1[label = "[borders(a, b, c)]"];
1 -> 2[label="True"];
1 -> 3[label="False"];
2[label = "[ethnicGroup(a, d, e)]"];
2 -> 4[label="True"];
2 -> 5[label="False"];
4[label = "[borders(b, f, g)]"];
4 -> 6[label="True"];
4 -> 7[label="False"];
6[label = "[ethnicGroup(f, d, h)]"];
6 -> 8[label="True"];
6 -> 9[label="False"];
8[label = "[ethnicGroup(a, d, h)]"];
8 -> 10[label="True"];
8 -> 11[label="False"];
10[shape = box,label = "0.140(0.535)"];
11[shape = box,label = "0.022(0.506)"];
9[label = "[ethnicGroup(b, d, i)]"];
9 -> 12[label="True"];
9 -> 13[label="False"];
12[shape = box,label = "-0.042(0.489)"];
13[label = "[borders(a, f, j)]"];
13 -> 14[label="True"];
13 -> 15[label="False"];
14[shape = box,label = "0.039(0.510)"];
15[shape = box,label = "0.063(0.516)"];
7[label = "[language(a, k, m)]"];
7 -> 16[label="True"];
7 -> 17[label="False"];
16[label = "[language(b, k, n)]"];
16 -> 18[label="True"];
16 -> 19[label="False"];
18[shape = box,label = "0.038(0.509)"];
19[shape = box,label = "-0.008(0.498)"];
17[label = "[ethnicGroup(b, d, p)]"];
17 -> 20[label="True"];
17 -> 21[label="False"];
20[label = "[language(b, q, r)]"];
20 -> 22[label="True"];
20 -> 23[label="False"];
22[shape = box,label = "0.025(0.506)"];
23[shape = box,label = "0.228(0.557)"];
21[shape = box,label = "0.016(0.504)"];
5[shape = box,label = "0.132(0.533)"];
3[label = "[organization(s, t, u, a, v, w)]"];
3 -> 24[label="True"];
3 -> 25[label="False"];
24[shape = box,label = "0.021(0.505)"];
25[shape = box,label = "0.273(0.568)"];
}
