digraph G{ 
1[label = "[borders(a, b, c)]"];
1 -> 2[label="True"];
1 -> 3[label="False"];
2[label = "[organization(d, e, f, b, g, h)]"];
2 -> 4[label="True"];
2 -> 5[label="False"];
4[shape = box,label = "0.024(0.506)"];
5[label = "[borders(b, i, j)]"];
5 -> 6[label="True"];
5 -> 7[label="False"];
6[label = "[borders(i, k, m)]"];
6 -> 8[label="True"];
6 -> 9[label="False"];
8[shape = box,label = "0.019(0.505)"];
9[label = "[language(a, n, p)]"];
9 -> 10[label="True"];
9 -> 11[label="False"];
10[shape = box,label = "0.027(0.507)"];
11[shape = box,label = "0.242(0.560)"];
7[label = "[organization(q, r, s, a, t, u)]"];
7 -> 12[label="True"];
7 -> 13[label="False"];
12[shape = box,label = "0.036(0.509)"];
13[label = "[language(b, v, w)]"];
13 -> 14[label="True"];
13 -> 15[label="False"];
14[label = "[language(a, v, x)]"];
14 -> 16[label="True"];
14 -> 17[label="False"];
16[shape = box,label = "-0.029(0.493)"];
17[shape = box,label = "0.064(0.516)"];
15[shape = box,label = "0.277(0.569)"];
3[label = "[organization(y, z, aa, a, ab, ac)]"];
3 -> 18[label="True"];
3 -> 19[label="False"];
18[label = "[ethnicGroup(a, ad, ae)]"];
18 -> 20[label="True"];
18 -> 21[label="False"];
20[shape = box,label = "0.005(0.501)"];
21[shape = box,label = "0.530(0.630)"];
19[label = "[language(a, af, ag)]"];
19 -> 22[label="True"];
19 -> 23[label="False"];
22[shape = box,label = "0.048(0.512)"];
23[label = "[ethnicGroup(a, ah, ai)]"];
23 -> 24[label="True"];
23 -> 25[label="False"];
24[shape = box,label = "-0.015(0.496)"];
25[shape = box,label = "0.123(0.531)"];
}
