digraph G{ 
1[label = "[borders(a, b, c)]"];
1 -> 2[label="True"];
1 -> 3[label="False"];
2[label = "[borders(b, d, e)]"];
2 -> 4[label="True"];
2 -> 5[label="False"];
4[label = "[borders(d, f, g)]"];
4 -> 6[label="True"];
4 -> 7[label="False"];
6[shape = box,label = "-0.001(0.500)"];
7[label = "[language(b, h, i)]"];
7 -> 8[label="True"];
7 -> 9[label="False"];
8[shape = box,label = "-0.018(0.496)"];
9[shape = box,label = "0.207(0.552)"];
5[label = "[organization(j, k, m, a, n, p)]"];
5 -> 10[label="True"];
5 -> 11[label="False"];
10[shape = box,label = "0.030(0.507)"];
11[label = "[organization(q, r, s, b, t, u)]"];
11 -> 12[label="True"];
11 -> 13[label="False"];
12[shape = box,label = "-0.108(0.473)"];
13[label = "[language(a, v, w)]"];
13 -> 14[label="True"];
13 -> 15[label="False"];
14[shape = box,label = "0.038(0.510)"];
15[label = "[language(b, x, y)]"];
15 -> 16[label="True"];
15 -> 17[label="False"];
16[shape = box,label = "0.025(0.506)"];
17[shape = box,label = "0.086(0.521)"];
3[label = "[organization(z, aa, ab, a, ac, ad)]"];
3 -> 18[label="True"];
3 -> 19[label="False"];
18[label = "[ethnicGroup(a, ae, af)]"];
18 -> 20[label="True"];
18 -> 21[label="False"];
20[shape = box,label = "0.004(0.501)"];
21[shape = box,label = "0.173(0.543)"];
19[label = "[language(a, ag, ah)]"];
19 -> 22[label="True"];
19 -> 23[label="False"];
22[shape = box,label = "0.024(0.506)"];
23[label = "[ethnicGroup(a, ai, aj)]"];
23 -> 24[label="True"];
23 -> 25[label="False"];
24[shape = box,label = "-0.009(0.498)"];
25[shape = box,label = "0.031(0.508)"];
}
