digraph G{ 
1[label = "[borders(a, b, c)]"];
1 -> 2[label="True"];
1 -> 3[label="False"];
2[label = "[ethnicGroup(a, d, e)]"];
2 -> 4[label="True"];
2 -> 5[label="False"];
4[label = "[borders(b, f, g)]"];
4 -> 6[label="True"];
4 -> 7[label="False"];
6[label = "[borders(a, f, h)]"];
6 -> 8[label="True"];
6 -> 9[label="False"];
8[label = "[ethnicGroup(f, d, e)]"];
8 -> 10[label="True"];
8 -> 11[label="False"];
10[shape = box,label = "0.184(0.546)"];
11[shape = box,label = "0.031(0.508)"];
9[label = "[ethnicGroup(b, d, i)]"];
9 -> 12[label="True"];
9 -> 13[label="False"];
12[shape = box,label = "0.065(0.516)"];
13[shape = box,label = "0.137(0.534)"];
7[label = "[language(a, j, k)]"];
7 -> 14[label="True"];
7 -> 15[label="False"];
14[label = "[language(b, j, m)]"];
14 -> 16[label="True"];
14 -> 17[label="False"];
16[shape = box,label = "0.097(0.524)"];
17[shape = box,label = "-0.011(0.497)"];
15[label = "[ethnicGroup(b, d, n)]"];
15 -> 18[label="True"];
15 -> 19[label="False"];
18[label = "[language(b, p, q)]"];
18 -> 20[label="True"];
18 -> 21[label="False"];
20[shape = box,label = "0.063(0.516)"];
21[shape = box,label = "0.470(0.615)"];
19[shape = box,label = "0.055(0.514)"];
5[shape = box,label = "0.288(0.572)"];
3[label = "[organization(r, s, t, a, u, v)]"];
3 -> 22[label="True"];
3 -> 23[label="False"];
22[label = "[ethnicGroup(a, w, x)]"];
22 -> 24[label="True"];
22 -> 25[label="False"];
24[shape = box,label = "0.023(0.506)"];
25[shape = box,label = "0.858(0.702)"];
23[shape = box,label = "0.601(0.646)"];
}
